{
  "paper_id": "sha256-f5b718491c976254",
  "library_root": "/Users/brandani/Dropbox/documents/library",
  "pdf_path": "/Users/brandani/Dropbox/documents/library/articles/protein_folding_and_design/Searls 2002 - The language of genes.pdf",
  "pdf_sha256": "f5b718491c976254ce17c44b583910e01204a4df9897f4fa9e0a962a2089efd7",
  "filename": "Searls 2002 - The language of genes.pdf",
  "item_type": "article",
  "title_query": "The language of genes",
  "filename_hints": {
    "year_hint": 2002,
    "venue_hint": "",
    "prefix": "Searls 2002"
  },
  "doi_candidates": [],
  "date_indexed": "2026-04-17T03:37:09.372253+00:00",
  "match_status": "matched",
  "match_confidence": 1.0,
  "warnings": [],
  "crossref_warnings": [],
  "metadata_source": "semantic_scholar",
  "semantic_scholar": {
    "query": "The language of genes",
    "limit": 10,
    "api_error": "",
    "best_candidate": {
      "paperId": "fda87db0fe4c85558a10914faa1a4415c7f26564",
      "externalIds": {
        "MAG": "2093205346",
        "DOI": "10.1038/nature01255",
        "CorpusId": 4427942,
        "PubMed": "12432405"
      },
      "url": "https://www.semanticscholar.org/paper/fda87db0fe4c85558a10914faa1a4415c7f26564",
      "title": "The language of genes",
      "venue": "Nature",
      "year": 2002,
      "openAccessPdf": {
        "url": "",
        "status": "CLOSED",
        "license": null,
        "disclaimer": "Notice: The following paper fields have been elided by the publisher: {'abstract'}. Paper or abstract available at https://api.unpaywall.org/v2/10.1038/nature01255?email=<INSERT_YOUR_EMAIL> or https://doi.org/10.1038/nature01255, which is subject to the license by the author or copyright owner provided with this content. Please go to the source to verify the license and copyright information for your use."
      },
      "publicationTypes": [
        "Review",
        "JournalArticle"
      ],
      "publicationDate": "2002-11-14",
      "journal": {
        "name": "Nature",
        "pages": "211-217",
        "volume": "420"
      },
      "authors": [
        {
          "authorId": "1809138",
          "name": "D. Searls"
        }
      ],
      "abstract": null
    },
    "candidate_scores": [
      {
        "paper_id": "fda87db0fe4c85558a10914faa1a4415c7f26564",
        "title": "The language of genes",
        "score": 1.0,
        "title_similarity": 1.0,
        "query_year": 2002,
        "candidate_year": 2002,
        "year_bonus": 0.08,
        "author_bonus": 0.04,
        "venue_penalty": 0.0
      },
      {
        "paper_id": "36ce21cf2d5fd34abb13881a9d4f1a29eae03edd",
        "title": "The Language of the Genes",
        "score": 1.0,
        "title_similarity": 1.0,
        "query_year": 2002,
        "candidate_year": null,
        "year_bonus": 0.0,
        "author_bonus": 0.0,
        "venue_penalty": 0.0
      },
      {
        "paper_id": "333731779a74f6eb29d632e20f7d017b855b14c1",
        "title": "The ‘genes of language’ and the language of genes",
        "score": 0.84,
        "title_similarity": 0.92,
        "query_year": 2002,
        "candidate_year": 2010,
        "year_bonus": -0.08,
        "author_bonus": 0.0,
        "venue_penalty": 0.0
      },
      {
        "paper_id": "0d0ae5b6b92fa17f68e493b8e1d263c775d32b6d",
        "title": "The holographic principle and the language of genes",
        "score": 0.84,
        "title_similarity": 0.92,
        "query_year": 2002,
        "candidate_year": 2008,
        "year_bonus": -0.08,
        "author_bonus": 0.0,
        "venue_penalty": 0.0
      },
      {
        "paper_id": "1f590ae0cd703706e1916da55a1c14bbf4a7065f",
        "title": "Evolution. The language of the genes.",
        "score": 0.8033,
        "title_similarity": 0.8833,
        "query_year": 2002,
        "candidate_year": 1990,
        "year_bonus": -0.08,
        "author_bonus": 0.0,
        "venue_penalty": 0.0
      },
      {
        "paper_id": "856495a62664fa3fbaaee65bae00397160cec1e2",
        "title": "Dealing with Genes: The Language of Heredity",
        "score": 0.745,
        "title_similarity": 0.825,
        "query_year": 2002,
        "candidate_year": 1992,
        "year_bonus": -0.08,
        "author_bonus": 0.0,
        "venue_penalty": 0.0
      },
      {
        "paper_id": "180e1b46a813c3a68b0fbc2cd6728bd544519e71",
        "title": "Dealing with Genes: The Language of Heredity",
        "score": 0.745,
        "title_similarity": 0.825,
        "query_year": 2002,
        "candidate_year": 1994,
        "year_bonus": -0.08,
        "author_bonus": 0.0,
        "venue_penalty": 0.0
      },
      {
        "paper_id": "3b1aa2ebc4f9f45b4a681c5250dca8667e6efa2f",
        "title": "Mapping the distribution of language related genes FoxP1, FoxP2, and CntnaP2 in the brains of vocal learning bat species",
        "score": 0.6238,
        "title_similarity": 0.7038,
        "query_year": 2002,
        "candidate_year": 2018,
        "year_bonus": -0.08,
        "author_bonus": 0.0,
        "venue_penalty": 0.0
      },
      {
        "paper_id": "8685fa5f39dbcdf22f957f28ccf5c1b0950d3d46",
        "title": "Bacteria–host communication: The language of hormones",
        "score": 0.4133,
        "title_similarity": 0.3833,
        "query_year": 2002,
        "candidate_year": 2003,
        "year_bonus": 0.03,
        "author_bonus": 0.0,
        "venue_penalty": 0.0
      },
      {
        "paper_id": "ed80c611465e1bcbd4dcdb2f465970b01787f6d9",
        "title": "Epigenetics at the Crossroads of Genes and the Environment.",
        "score": 0.315,
        "title_similarity": 0.395,
        "query_year": 2002,
        "candidate_year": 2015,
        "year_bonus": -0.08,
        "author_bonus": 0.0,
        "venue_penalty": 0.0
      }
    ],
    "candidate_dois": [
      "10.1038/nature01255"
    ],
    "matching_extracted_doi": "",
    "raw_response": {
      "total": 718,
      "offset": 0,
      "next": 10,
      "data": [
        {
          "paperId": "fda87db0fe4c85558a10914faa1a4415c7f26564",
          "externalIds": {
            "MAG": "2093205346",
            "DOI": "10.1038/nature01255",
            "CorpusId": 4427942,
            "PubMed": "12432405"
          },
          "url": "https://www.semanticscholar.org/paper/fda87db0fe4c85558a10914faa1a4415c7f26564",
          "title": "The language of genes",
          "venue": "Nature",
          "year": 2002,
          "openAccessPdf": {
            "url": "",
            "status": "CLOSED",
            "license": null,
            "disclaimer": "Notice: The following paper fields have been elided by the publisher: {'abstract'}. Paper or abstract available at https://api.unpaywall.org/v2/10.1038/nature01255?email=<INSERT_YOUR_EMAIL> or https://doi.org/10.1038/nature01255, which is subject to the license by the author or copyright owner provided with this content. Please go to the source to verify the license and copyright information for your use."
          },
          "publicationTypes": [
            "Review",
            "JournalArticle"
          ],
          "publicationDate": "2002-11-14",
          "journal": {
            "name": "Nature",
            "pages": "211-217",
            "volume": "420"
          },
          "authors": [
            {
              "authorId": "1809138",
              "name": "D. Searls"
            }
          ],
          "abstract": null
        },
        {
          "paperId": "333731779a74f6eb29d632e20f7d017b855b14c1",
          "externalIds": {
            "MAG": "601906380",
            "CorpusId": 82341261
          },
          "url": "https://www.semanticscholar.org/paper/333731779a74f6eb29d632e20f7d017b855b14c1",
          "title": "The ‘genes of language’ and the language of genes",
          "venue": "",
          "year": 2010,
          "openAccessPdf": {
            "url": "",
            "status": null,
            "license": null,
            "disclaimer": "Notice: The following paper fields have been elided by the publisher: {'abstract'}. Paper or abstract available at http://rabida.uhu.es/dspace/bitstream/handle/10272/18411/The%20genes.pdf?sequence=2, which is subject to the license by the author or copyright owner provided with this content. Please go to the source to verify the license and copyright information for your use."
          },
          "publicationTypes": null,
          "publicationDate": "2010-09-01",
          "journal": {
            "name": "",
            "pages": "19-31",
            "volume": "3"
          },
          "authors": [
            {
              "authorId": "1401262947",
              "name": "A. Benítez‐Burraco"
            }
          ],
          "abstract": null
        },
        {
          "paperId": "0d0ae5b6b92fa17f68e493b8e1d263c775d32b6d",
          "externalIds": {
            "ArXiv": "0806.0109",
            "MAG": "2134797144",
            "CorpusId": 119099983
          },
          "url": "https://www.semanticscholar.org/paper/0d0ae5b6b92fa17f68e493b8e1d263c775d32b6d",
          "title": "The holographic principle and the language of genes",
          "venue": "",
          "year": 2008,
          "openAccessPdf": {
            "url": "",
            "status": null,
            "license": null,
            "disclaimer": "Notice: Paper or abstract available at https://arxiv.org/abs/0806.0109, which is subject to the license by the author or copyright owner provided with this content. Please go to the source to verify the license and copyright information for your use."
          },
          "publicationTypes": null,
          "publicationDate": "2008-05-31",
          "journal": {
            "name": "arXiv: Biological Physics",
            "volume": ""
          },
          "authors": [
            {
              "authorId": "32252045",
              "name": "Dirson Jian Li"
            },
            {
              "authorId": "50202168",
              "name": "S. Zhang"
            }
          ],
          "abstract": "We show that the holographic principle in quantum gravity imposes a strong constraint on life. The degrees of freedom of an organism can be estimated according to the theory of Boolean networks, which is constrained by the entropy bound. Hence we can explain the languages in protein sequences or in DNA sequences. The overall evolution of biological complexity can be illustrated. And some general properties of protein length distributions can be explained by a linguistic mechanism."
        },
        {
          "paperId": "36ce21cf2d5fd34abb13881a9d4f1a29eae03edd",
          "externalIds": {
            "DOI": "10.7551/mitpress/3824.003.0018",
            "CorpusId": 46421962
          },
          "url": "https://www.semanticscholar.org/paper/36ce21cf2d5fd34abb13881a9d4f1a29eae03edd",
          "title": "The Language of the Genes",
          "venue": "",
          "year": null,
          "openAccessPdf": {
            "url": "",
            "status": "CLOSED",
            "license": null,
            "disclaimer": "Notice: The following paper fields have been elided by the publisher: {'abstract'}. Paper or abstract available at https://api.unpaywall.org/v2/10.7551/mitpress/3824.003.0018?email=<INSERT_YOUR_EMAIL> or https://doi.org/10.7551/mitpress/3824.003.0018, which is subject to the license by the author or copyright owner provided with this content. Please go to the source to verify the license and copyright information for your use."
          },
          "publicationTypes": null,
          "publicationDate": null,
          "journal": null,
          "authors": [
            {
              "authorId": "2066156583",
              "name": "Rohere C. Berwick"
            }
          ],
          "abstract": null
        },
        {
          "paperId": "856495a62664fa3fbaaee65bae00397160cec1e2",
          "externalIds": {
            "MAG": "1488864372",
            "CorpusId": 142241900
          },
          "url": "https://www.semanticscholar.org/paper/856495a62664fa3fbaaee65bae00397160cec1e2",
          "title": "Dealing with Genes: The Language of Heredity",
          "venue": "",
          "year": 1992,
          "openAccessPdf": {
            "url": "",
            "status": null,
            "license": null
          },
          "publicationTypes": null,
          "publicationDate": null,
          "journal": {
            "name": "",
            "volume": ""
          },
          "authors": [
            {
              "authorId": "1395916517",
              "name": "Maxine"
            }
          ],
          "abstract": null
        },
        {
          "paperId": "180e1b46a813c3a68b0fbc2cd6728bd544519e71",
          "externalIds": {
            "MAG": "1492708532",
            "DOI": "10.5860/choice.30-6151",
            "CorpusId": 82663328
          },
          "url": "https://www.semanticscholar.org/paper/180e1b46a813c3a68b0fbc2cd6728bd544519e71",
          "title": "Dealing with Genes: The Language of Heredity",
          "venue": "",
          "year": 1994,
          "openAccessPdf": {
            "url": "http://europepmc.org/articles/pmc1918406?pdf=render",
            "status": "GREEN",
            "license": null,
            "disclaimer": "Notice: The following paper fields have been elided by the publisher: {'abstract'}. Paper or abstract available at https://api.unpaywall.org/v2/10.5860/choice.30-6151?email=<INSERT_YOUR_EMAIL> or https://doi.org/10.5860/choice.30-6151, which is subject to the license by the author or copyright owner provided with this content. Please go to the source to verify the license and copyright information for your use."
          },
          "publicationTypes": null,
          "publicationDate": "1994-09-01",
          "journal": {
            "name": "American Journal of Human Genetics",
            "pages": "595-596",
            "volume": "55"
          },
          "authors": [
            {
              "authorId": "50542146",
              "name": "James P. Evans"
            }
          ],
          "abstract": null
        },
        {
          "paperId": "1f590ae0cd703706e1916da55a1c14bbf4a7065f",
          "externalIds": {
            "CorpusId": 41823443,
            "PubMed": "2377204"
          },
          "url": "https://www.semanticscholar.org/paper/1f590ae0cd703706e1916da55a1c14bbf4a7065f",
          "title": "Evolution. The language of the genes.",
          "venue": "Nature",
          "year": 1990,
          "openAccessPdf": {
            "url": "",
            "status": null,
            "license": null
          },
          "publicationTypes": [
            "News"
          ],
          "publicationDate": null,
          "journal": {
            "name": "Nature",
            "pages": "\n          415-6\n        ",
            "volume": "346 6283"
          },
          "authors": [
            {
              "authorId": "1936303",
              "name": "N. Barton"
            },
            {
              "authorId": "2107584305",
              "name": "J. S. Jones"
            }
          ],
          "abstract": null
        },
        {
          "paperId": "3b1aa2ebc4f9f45b4a681c5250dca8667e6efa2f",
          "externalIds": {
            "PubMedCentral": "5900884",
            "MAG": "2781938693",
            "DOI": "10.1002/cne.24385",
            "CorpusId": 4301202,
            "PubMed": "29297931"
          },
          "url": "https://www.semanticscholar.org/paper/3b1aa2ebc4f9f45b4a681c5250dca8667e6efa2f",
          "title": "Mapping the distribution of language related genes FoxP1, FoxP2, and CntnaP2 in the brains of vocal learning bat species",
          "venue": "The Journal of comparative neurology",
          "year": 2018,
          "openAccessPdf": {
            "url": "https://onlinelibrary.wiley.com/doi/pdfdirect/10.1002/cne.24385",
            "status": "HYBRID",
            "license": "CCBYNC",
            "disclaimer": "Notice: Paper or abstract available at https://pmc.ncbi.nlm.nih.gov/articles/PMC5900884, which is subject to the license by the author or copyright owner provided with this content. Please go to the source to verify the license and copyright information for your use."
          },
          "publicationTypes": [
            "JournalArticle"
          ],
          "publicationDate": "2018-02-28",
          "journal": {
            "name": "The Journal of Comparative Neurology",
            "pages": "1235 - 1266",
            "volume": "526"
          },
          "authors": [
            {
              "authorId": "1401643589",
              "name": "P. Rodenas-Cuadrado"
            },
            {
              "authorId": "32164476",
              "name": "Janine Mengede"
            },
            {
              "authorId": "40657569",
              "name": "L. Baas"
            },
            {
              "authorId": "4040424",
              "name": "P. Devanna"
            },
            {
              "authorId": "48280395",
              "name": "Tobias A Schmid"
            },
            {
              "authorId": "3729760",
              "name": "M. Yartsev"
            },
            {
              "authorId": "2117567",
              "name": "U. Firzlaff"
            },
            {
              "authorId": "6487685",
              "name": "S. Vernes"
            }
          ],
          "abstract": "Genes including FOXP2, FOXP1, and CNTNAP2, have been implicated in human speech and language phenotypes, pointing to a role in the development of normal language‐related circuitry in the brain. Although speech and language are unique to humans a comparative approach is possible by addressing language‐relevant traits in animal systems. One such trait, vocal learning, represents an essential component of human spoken language, and is shared by cetaceans, pinnipeds, elephants, some birds and bats. Given their vocal learning abilities, gregarious nature, and reliance on vocalizations for social communication and navigation, bats represent an intriguing mammalian system in which to explore language‐relevant genes. We used immunohistochemistry to detail the distribution of FoxP2, FoxP1, and Cntnap2 proteins, accompanied by detailed cytoarchitectural histology in the brains of two vocal learning bat species; Phyllostomus discolor and Rousettus aegyptiacus. We show widespread expression of these genes, similar to what has been previously observed in other species, including humans. A striking difference was observed in the adult P. discolor bat, which showed low levels of FoxP2 expression in the cortex that contrasted with patterns found in rodents and nonhuman primates. We created an online, open‐access database within which all data can be browsed, searched, and high resolution images viewed to single cell resolution. The data presented herein reveal regions of interest in the bat brain and provide new opportunities to address the role of these language‐related genes in complex vocal‐motor and vocal learning behaviors in a mammalian model system."
        },
        {
          "paperId": "8685fa5f39dbcdf22f957f28ccf5c1b0950d3d46",
          "externalIds": {
            "MAG": "2040641257",
            "DOI": "10.1073/pnas.1537100100",
            "CorpusId": 9742366,
            "PubMed": "12847292"
          },
          "url": "https://www.semanticscholar.org/paper/8685fa5f39dbcdf22f957f28ccf5c1b0950d3d46",
          "title": "Bacteria–host communication: The language of hormones",
          "venue": "Proceedings of the National Academy of Sciences of the United States of America",
          "year": 2003,
          "openAccessPdf": {
            "url": "https://europepmc.org/articles/pmc166419?pdf=render",
            "status": "GREEN",
            "license": null,
            "disclaimer": "Notice: The following paper fields have been elided by the publisher: {'abstract'}. Paper or abstract available at https://api.unpaywall.org/v2/10.1073/pnas.1537100100?email=<INSERT_YOUR_EMAIL> or https://doi.org/10.1073/pnas.1537100100, which is subject to the license by the author or copyright owner provided with this content. Please go to the source to verify the license and copyright information for your use."
          },
          "publicationTypes": [
            "JournalArticle"
          ],
          "publicationDate": "2003-07-07",
          "journal": {
            "name": "Proceedings of the National Academy of Sciences of the United States of America",
            "pages": "8951 - 8956",
            "volume": "100"
          },
          "authors": [
            {
              "authorId": "6850653",
              "name": "V. Sperandio"
            },
            {
              "authorId": "144762584",
              "name": "A. Torres"
            },
            {
              "authorId": "1983968",
              "name": "B. Jarvis"
            },
            {
              "authorId": "5324322",
              "name": "J. Nataro"
            },
            {
              "authorId": "143639199",
              "name": "J. Kaper"
            }
          ],
          "abstract": null
        },
        {
          "paperId": "ed80c611465e1bcbd4dcdb2f465970b01787f6d9",
          "externalIds": {
            "MAG": "2119957820",
            "DOI": "10.1001/jama.2015.10414",
            "CorpusId": 32472132,
            "PubMed": "26372577"
          },
          "url": "https://www.semanticscholar.org/paper/ed80c611465e1bcbd4dcdb2f465970b01787f6d9",
          "title": "Epigenetics at the Crossroads of Genes and the Environment.",
          "venue": "Journal of the American Medical Association (JAMA)",
          "year": 2015,
          "openAccessPdf": {
            "url": "https://europepmc.org/articles/pmc6278824?pdf=render",
            "status": "GREEN",
            "license": null,
            "disclaimer": "Notice: The following paper fields have been elided by the publisher: {'abstract'}. Paper or abstract available at https://api.unpaywall.org/v2/10.1001/jama.2015.10414?email=<INSERT_YOUR_EMAIL> or https://doi.org/10.1001/jama.2015.10414, which is subject to the license by the author or copyright owner provided with this content. Please go to the source to verify the license and copyright information for your use."
          },
          "publicationTypes": [
            "JournalArticle"
          ],
          "publicationDate": "2015-09-15",
          "journal": {
            "name": "JAMA",
            "pages": "\n          1129-30\n        ",
            "volume": "314 11"
          },
          "authors": [
            {
              "authorId": "2329510",
              "name": "A. Feinberg"
            },
            {
              "authorId": "3636839",
              "name": "M. Fallin"
            }
          ],
          "abstract": null
        }
      ]
    }
  },
  "crossref": {
    "error": "",
    "metadata": null
  },
  "artifacts": {
    "record_path": "/Users/brandani/Dropbox/documents/library/paper_index/records/sha256-f5b718491c976254.json",
    "text_path": "/Users/brandani/Dropbox/documents/library/paper_index/text/sha256-f5b718491c976254.txt",
    "chunk_path": "/Users/brandani/Dropbox/documents/library/paper_index/chunks/sha256-f5b718491c976254.jsonl",
    "master_index": "/Users/brandani/Dropbox/documents/library/paper_index/master_index.tsv",
    "master_bib": "/Users/brandani/Dropbox/documents/library/paper_index/master.bib",
    "text_kind": "pdf_text"
  },
  "text_extraction": {
    "status": "ok",
    "error": "",
    "text_sha256": "db7d7903d7c455900874420a9d519d7dea30fc3dcfbb343bc456d2ee93e252ea",
    "chunk_count": 26,
    "chunk_target_chars": 2200,
    "chunk_overlap_chars": 250,
    "converter": "/Users/brandani/Dropbox/scripts/pdf2text.py"
  },
  "content_kind": "pdf_backed"
}
