{
  "paper_id": "sha256-712124ef9db27d55",
  "library_root": "/Users/brandani/Dropbox/documents/library",
  "pdf_path": "/Users/brandani/Dropbox/documents/library/articles/soft_matter_theory/Cahn 1977 JChemPhys - Critical point wetting.pdf",
  "pdf_sha256": "712124ef9db27d556be8a17a47e81c7e79e69d6380aef08bb2ef7bdcdd67ee3f",
  "filename": "Cahn 1977 JChemPhys - Critical point wetting.pdf",
  "item_type": "article",
  "title_query": "Cahn 1977 JChemPhys Critical point wetting",
  "filename_hints": {
    "year_hint": 1977,
    "venue_hint": "",
    "prefix": "Cahn 1977 JChemPhys"
  },
  "doi_candidates": [
    "10.1063/1.434402"
  ],
  "date_indexed": "2026-04-17T03:37:47.407400+00:00",
  "match_status": "matched_via_doi",
  "match_confidence": 1.0,
  "warnings": [],
  "crossref_warnings": [],
  "metadata_source": "crossref_doi_plus_semantic_enrichment",
  "semantic_scholar": {
    "query": "Cahn 1977 JChemPhys Critical point wetting",
    "limit": 10,
    "api_error": "",
    "best_candidate": {
      "paperId": "a81e6a64f0edee9eb40a9b55f4f77629eb7e4097",
      "externalIds": {
        "MAG": "2570637109",
        "DOI": "10.1063/1.434402",
        "CorpusId": 100063131
      },
      "url": "https://www.semanticscholar.org/paper/a81e6a64f0edee9eb40a9b55f4f77629eb7e4097",
      "title": "Critical point wetting",
      "venue": "",
      "year": 1977,
      "openAccessPdf": {
        "url": "",
        "status": "CLOSED",
        "license": null,
        "disclaimer": "Notice: The following paper fields have been elided by the publisher: {'abstract'}. Paper or abstract available at https://api.unpaywall.org/v2/10.1063/1.434402?email=<INSERT_YOUR_EMAIL> or https://doi.org/10.1063/1.434402, which is subject to the license by the author or copyright owner provided with this content. Please go to the source to verify the license and copyright information for your use."
      },
      "publicationTypes": null,
      "publicationDate": "1977-04-15",
      "journal": {
        "name": "Journal of Chemical Physics",
        "pages": "3667-3672",
        "volume": "66"
      },
      "authors": [
        {
          "authorId": "49094945",
          "name": "J. Cahn"
        }
      ],
      "abstract": null
    },
    "candidate_scores": [
      {
        "paper_id": "a81e6a64f0edee9eb40a9b55f4f77629eb7e4097",
        "title": "Critical point wetting",
        "score": 1.0,
        "title_similarity": 0.92,
        "query_year": 1977,
        "candidate_year": 1977,
        "year_bonus": 0.08,
        "author_bonus": 0.04,
        "venue_penalty": 0.0
      },
      {
        "paper_id": "1a452ac45a436eea4af161492542d36e63224bbf",
        "title": "The structure and surface tension of the liquid-vapour interface near the upper critical end point of a binary mixture of Lennard-Jones fluids: II. The three phase region and the Cahn wetting transition",
        "score": 0.4093,
        "title_similarity": 0.4893,
        "query_year": 1977,
        "candidate_year": 1983,
        "year_bonus": -0.08,
        "author_bonus": 0.0,
        "venue_penalty": 0.0
      },
      {
        "paper_id": "076b3e36fbf09a76d3ffa192d23b44095f68fbe5",
        "title": "How universal is critical-point wetting?",
        "score": 0.3617,
        "title_similarity": 0.4417,
        "query_year": 1977,
        "candidate_year": 1991,
        "year_bonus": -0.08,
        "author_bonus": 0.0,
        "venue_penalty": 0.0
      },
      {
        "paper_id": "ca83e9ad8e239763f64272d1c558b83c9d3045b6",
        "title": "Wetting Behavior of Nitrous Oxide Near its Critical Point",
        "score": 0.3405,
        "title_similarity": 0.4205,
        "query_year": 1977,
        "candidate_year": 2006,
        "year_bonus": -0.08,
        "author_bonus": 0.0,
        "venue_penalty": 0.0
      },
      {
        "paper_id": "b4857f6c989c679bb8cb121fe99cbcdfca9628a6",
        "title": "Critical point wetting for binary two-phase polymer-solvent mixtures on solid interfaces",
        "score": 0.32,
        "title_similarity": 0.4,
        "query_year": 1977,
        "candidate_year": 1997,
        "year_bonus": -0.08,
        "author_bonus": 0.0,
        "venue_penalty": 0.0
      },
      {
        "paper_id": "0f3ff46e089a427ea672e777579988b1f2b0f3d4",
        "title": "No violations of critical-point wetting in ternary three fluid-phase systems with short range interactions.",
        "score": 0.3106,
        "title_similarity": 0.3906,
        "query_year": 1977,
        "candidate_year": 2024,
        "year_bonus": -0.08,
        "author_bonus": 0.0,
        "venue_penalty": 0.0
      },
      {
        "paper_id": "eaf7446ec350af5ecdfd1d60ca745411c9882917",
        "title": "2 4 M ay 2 00 2 Tetra Point Wetting at the Free Surface of Liquid GaBi",
        "score": 0.2705,
        "title_similarity": 0.2705,
        "query_year": 1977,
        "candidate_year": null,
        "year_bonus": 0.0,
        "author_bonus": 0.0,
        "venue_penalty": 0.0
      },
      {
        "paper_id": "257550d3ebf87332e32eb43f561a611641801f26",
        "title": "Examination of the Necessity of Complete Wetting near Critical Examination of the Necessity of Complete Wetting near Critical Points in Systems with Long-Range Forces Points in Systems with Long-Range Forces",
        "score": 0.2633,
        "title_similarity": 0.2633,
        "query_year": 1977,
        "candidate_year": null,
        "year_bonus": 0.0,
        "author_bonus": 0.0,
        "venue_penalty": 0.0
      },
      {
        "paper_id": "9276d3c4c51fa392346370fbe53942c9515d8748",
        "title": "Critical point dewetting: competition between the gravity and the dispersion force",
        "score": 0.195,
        "title_similarity": 0.275,
        "query_year": 1977,
        "candidate_year": 2008,
        "year_bonus": -0.08,
        "author_bonus": 0.0,
        "venue_penalty": 0.0
      },
      {
        "paper_id": "a07aa4e18f057c861659924820e477f748bd1f81",
        "title": "Equilibrium of a Cahn-HiIliard fluid on a wall: influence of the wetting properties of the fluid upon the stability of a thin liquid film",
        "score": 0.1778,
        "title_similarity": 0.2578,
        "query_year": 1977,
        "candidate_year": 2016,
        "year_bonus": -0.08,
        "author_bonus": 0.0,
        "venue_penalty": 0.0
      }
    ],
    "candidate_dois": [
      "10.1063/1.434402"
    ],
    "matching_extracted_doi": "10.1063/1.434402",
    "raw_response": {
      "total": 53,
      "offset": 0,
      "next": 10,
      "data": [
        {
          "paperId": "a81e6a64f0edee9eb40a9b55f4f77629eb7e4097",
          "externalIds": {
            "MAG": "2570637109",
            "DOI": "10.1063/1.434402",
            "CorpusId": 100063131
          },
          "url": "https://www.semanticscholar.org/paper/a81e6a64f0edee9eb40a9b55f4f77629eb7e4097",
          "title": "Critical point wetting",
          "venue": "",
          "year": 1977,
          "openAccessPdf": {
            "url": "",
            "status": "CLOSED",
            "license": null,
            "disclaimer": "Notice: The following paper fields have been elided by the publisher: {'abstract'}. Paper or abstract available at https://api.unpaywall.org/v2/10.1063/1.434402?email=<INSERT_YOUR_EMAIL> or https://doi.org/10.1063/1.434402, which is subject to the license by the author or copyright owner provided with this content. Please go to the source to verify the license and copyright information for your use."
          },
          "publicationTypes": null,
          "publicationDate": "1977-04-15",
          "journal": {
            "name": "Journal of Chemical Physics",
            "pages": "3667-3672",
            "volume": "66"
          },
          "authors": [
            {
              "authorId": "49094945",
              "name": "J. Cahn"
            }
          ],
          "abstract": null
        },
        {
          "paperId": "0f3ff46e089a427ea672e777579988b1f2b0f3d4",
          "externalIds": {
            "DOI": "10.1016/j.jcis.2024.10.101",
            "CorpusId": 273514089,
            "PubMed": "39442204"
          },
          "url": "https://www.semanticscholar.org/paper/0f3ff46e089a427ea672e777579988b1f2b0f3d4",
          "title": "No violations of critical-point wetting in ternary three fluid-phase systems with short range interactions.",
          "venue": "Journal of Colloid and Interface Science",
          "year": 2024,
          "openAccessPdf": {
            "url": "",
            "status": null,
            "license": null,
            "disclaimer": "Notice: Paper or abstract available at https://api.unpaywall.org/v2/10.1016/j.jcis.2024.10.101?email=<INSERT_YOUR_EMAIL> or https://doi.org/10.1016/j.jcis.2024.10.101, which is subject to the license by the author or copyright owner provided with this content. Please go to the source to verify the license and copyright information for your use."
          },
          "publicationTypes": [
            "JournalArticle"
          ],
          "publicationDate": "2024-10-21",
          "journal": {
            "name": "Journal of colloid and interface science",
            "pages": "\n          124-134\n        ",
            "volume": "679 Pt B"
          },
          "authors": [
            {
              "authorId": "2327091060",
              "name": "F.A.M. Leermakers"
            },
            {
              "authorId": "2327092425",
              "name": "S.A.A. Egorov"
            }
          ],
          "abstract": "HYPOTHESIS\nIn ternary three-fluid phase systems one can have either three- or just two interfaces. In a wetting transition the system switches from partial to complete wetting, i.e., from having three- to two interfaces. The system can also undergo a bulk phase transition when the number of bulk phases changes from three to two. Upon varying the temperature one will find that first the system switches from having three interfaces to two, before it changes from having three phases to two. This order of events is predicted by Cahn.\n\n\nSCF COMPUTATIONS\nWe use a quasi-off lattice variant of the Scheutjens Fleer self-consistent field theory, which implements a mean field approximation with short-range interactions parameterised by Flory-Huggins interaction parameters, to generate a set of wetting phase diagrams for this system. There exists special coordinates such that each wetting phase diagrams has a power-law wetting transition line.\n\n\nFINDINGS\nOverlooking the full set of wetting phase diagrams, it is concluded that no exceptions to the Cahn rule exists unless the system is exactly (ideally) molecularly symmetric, sometimes called 'the neutral value' where the contact angle remains 90∘ up to the bulk critical point. Importantly, all wetting transitions may be induced similarly, that is they all can be classified and understood from Cahn's perspective."
        },
        {
          "paperId": "076b3e36fbf09a76d3ffa192d23b44095f68fbe5",
          "externalIds": {
            "MAG": "2032376548",
            "DOI": "10.1016/0378-4371(91)90183-D",
            "CorpusId": 121856271
          },
          "url": "https://www.semanticscholar.org/paper/076b3e36fbf09a76d3ffa192d23b44095f68fbe5",
          "title": "How universal is critical-point wetting?",
          "venue": "",
          "year": 1991,
          "openAccessPdf": {
            "url": "",
            "status": "CLOSED",
            "license": null,
            "disclaimer": "Notice: The following paper fields have been elided by the publisher: {'abstract'}. Paper or abstract available at https://api.unpaywall.org/v2/10.1016/0378-4371(91)90183-D?email=<INSERT_YOUR_EMAIL> or https://doi.org/10.1016/0378-4371(91)90183-D, which is subject to the license by the author or copyright owner provided with this content. Please go to the source to verify the license and copyright information for your use."
          },
          "publicationTypes": null,
          "publicationDate": "1991-09-15",
          "journal": {
            "name": "Physica A-statistical Mechanics and Its Applications",
            "pages": "428-436",
            "volume": "177"
          },
          "authors": [
            {
              "authorId": "91235362",
              "name": "J. Indekeu"
            }
          ],
          "abstract": null
        },
        {
          "paperId": "b4857f6c989c679bb8cb121fe99cbcdfca9628a6",
          "externalIds": {
            "MAG": "2030901528",
            "DOI": "10.1021/LA9702704",
            "CorpusId": 96147268
          },
          "url": "https://www.semanticscholar.org/paper/b4857f6c989c679bb8cb121fe99cbcdfca9628a6",
          "title": "Critical point wetting for binary two-phase polymer-solvent mixtures on solid interfaces",
          "venue": "",
          "year": 1997,
          "openAccessPdf": {
            "url": "",
            "status": "CLOSED",
            "license": null,
            "disclaimer": "Notice: The following paper fields have been elided by the publisher: {'abstract'}. Paper or abstract available at https://api.unpaywall.org/v2/10.1021/LA9702704?email=<INSERT_YOUR_EMAIL> or https://doi.org/10.1021/LA9702704, which is subject to the license by the author or copyright owner provided with this content. Please go to the source to verify the license and copyright information for your use."
          },
          "publicationTypes": null,
          "publicationDate": "1997-10-01",
          "journal": {
            "name": "Langmuir",
            "pages": "5751-5755",
            "volume": "13"
          },
          "authors": [
            {
              "authorId": "4118415",
              "name": "F. Leermakers"
            },
            {
              "authorId": "93148516",
              "name": "Jörg Schlangen"
            },
            {
              "authorId": "16176794",
              "name": "L. Koopal"
            }
          ],
          "abstract": null
        },
        {
          "paperId": "eaf7446ec350af5ecdfd1d60ca745411c9882917",
          "externalIds": {
            "CorpusId": 15699774
          },
          "url": "https://www.semanticscholar.org/paper/eaf7446ec350af5ecdfd1d60ca745411c9882917",
          "title": "2 4 M ay 2 00 2 Tetra Point Wetting at the Free Surface of Liquid GaBi",
          "venue": "",
          "year": null,
          "openAccessPdf": {
            "url": "",
            "status": null,
            "license": null,
            "disclaimer": "Notice: The following paper fields have been elided by the publisher: {'abstract'}. Paper or abstract available at https://arxiv.org/pdf/cond-mat/0205506.pdf, which is subject to the license by the author or copyright owner provided with this content. Please go to the source to verify the license and copyright information for your use."
          },
          "publicationTypes": null,
          "publicationDate": null,
          "journal": null,
          "authors": [
            {
              "authorId": "144142519",
              "name": "P. Huber"
            },
            {
              "authorId": "6509501",
              "name": "O. Shpyrko"
            },
            {
              "authorId": "3523271",
              "name": "P. Pershan"
            },
            {
              "authorId": "102908935",
              "name": "B. Ocko"
            },
            {
              "authorId": "6747933",
              "name": "E. DiMasi"
            },
            {
              "authorId": "145302657",
              "name": "M. Deutsch"
            }
          ],
          "abstract": null
        },
        {
          "paperId": "1a452ac45a436eea4af161492542d36e63224bbf",
          "externalIds": {
            "MAG": "2312523505",
            "DOI": "10.1080/00268978300100191",
            "CorpusId": 100865551
          },
          "url": "https://www.semanticscholar.org/paper/1a452ac45a436eea4af161492542d36e63224bbf",
          "title": "The structure and surface tension of the liquid-vapour interface near the upper critical end point of a binary mixture of Lennard-Jones fluids: II. The three phase region and the Cahn wetting transition",
          "venue": "",
          "year": 1983,
          "openAccessPdf": {
            "url": "",
            "status": "CLOSED",
            "license": null,
            "disclaimer": "Notice: The following paper fields have been elided by the publisher: {'abstract'}. Paper or abstract available at https://api.unpaywall.org/v2/10.1080/00268978300100191?email=<INSERT_YOUR_EMAIL> or https://doi.org/10.1080/00268978300100191, which is subject to the license by the author or copyright owner provided with this content. Please go to the source to verify the license and copyright information for your use."
          },
          "publicationTypes": null,
          "publicationDate": "1983-02-10",
          "journal": {
            "name": "Molecular Physics",
            "pages": "251-266",
            "volume": "48"
          },
          "authors": [
            {
              "authorId": "38734367",
              "name": "M. T. D. Gama"
            },
            {
              "authorId": "144126991",
              "name": "R. Evans"
            }
          ],
          "abstract": null
        },
        {
          "paperId": "ca83e9ad8e239763f64272d1c558b83c9d3045b6",
          "externalIds": {
            "MAG": "1624499695",
            "CorpusId": 94029707
          },
          "url": "https://www.semanticscholar.org/paper/ca83e9ad8e239763f64272d1c558b83c9d3045b6",
          "title": "Wetting Behavior of Nitrous Oxide Near its Critical Point",
          "venue": "",
          "year": 2006,
          "openAccessPdf": {
            "url": "",
            "status": null,
            "license": null,
            "disclaimer": "Notice: The following paper fields have been elided by the publisher: {'abstract'}. Paper or abstract available at http://absimage.aps.org/image/MAR06/MWS_MAR06-2005-003383.pdf, which is subject to the license by the author or copyright owner provided with this content. Please go to the source to verify the license and copyright information for your use."
          },
          "publicationTypes": null,
          "publicationDate": "2006-03-14",
          "journal": {
            "name": "Bulletin of the American Physical Society",
            "volume": ""
          },
          "authors": [
            {
              "authorId": "92151379",
              "name": "R. Weiler"
            },
            {
              "authorId": "3401741",
              "name": "Mordecai Waegell"
            },
            {
              "authorId": "2109661750",
              "name": "Rafael García"
            }
          ],
          "abstract": null
        },
        {
          "paperId": "a07aa4e18f057c861659924820e477f748bd1f81",
          "externalIds": {
            "CorpusId": 210088908
          },
          "url": "https://www.semanticscholar.org/paper/a07aa4e18f057c861659924820e477f748bd1f81",
          "title": "Equilibrium of a Cahn-HiIliard fluid on a wall: influence of the wetting properties of the fluid upon the stability of a thin liquid film",
          "venue": "",
          "year": 2016,
          "openAccessPdf": {
            "url": "",
            "status": null,
            "license": null,
            "disclaimer": "Notice: The following paper fields have been elided by the publisher: {'abstract'}. Paper or abstract available at http://seppecher.free.fr/My-web/publications/Rayleigh.pdf, which is subject to the license by the author or copyright owner provided with this content. Please go to the source to verify the license and copyright information for your use."
          },
          "publicationTypes": null,
          "publicationDate": null,
          "journal": null,
          "authors": [
            {
              "authorId": "21464951",
              "name": "P. Seppecher"
            }
          ],
          "abstract": null
        },
        {
          "paperId": "257550d3ebf87332e32eb43f561a611641801f26",
          "externalIds": {
            "CorpusId": 266090978
          },
          "url": "https://www.semanticscholar.org/paper/257550d3ebf87332e32eb43f561a611641801f26",
          "title": "Examination of the Necessity of Complete Wetting near Critical Examination of the Necessity of Complete Wetting near Critical Points in Systems with Long-Range Forces Points in Systems with Long-Range Forces",
          "venue": "",
          "year": null,
          "openAccessPdf": {
            "url": "",
            "status": null,
            "license": null,
            "disclaimer": "Notice: The following paper fields have been elided by the publisher: {'abstract'}. Paper or abstract available at https://digitalcommons.uri.edu/cgi/viewcontent.cgi?article=1251&context=phys_facpubs, which is subject to the license by the author or copyright owner provided with this content. Please go to the source to verify the license and copyright information for your use."
          },
          "publicationTypes": [
            "Review"
          ],
          "publicationDate": null,
          "journal": null,
          "authors": [
            {
              "authorId": "2240026408",
              "name": "M. Nightingale"
            },
            {
              "authorId": "2240026938",
              "name": "J. Indekeu"
            }
          ],
          "abstract": null
        },
        {
          "paperId": "9276d3c4c51fa392346370fbe53942c9515d8748",
          "externalIds": {
            "DOI": "10.1088/1742-6596/98/6/062026",
            "CorpusId": 250666970
          },
          "url": "https://www.semanticscholar.org/paper/9276d3c4c51fa392346370fbe53942c9515d8748",
          "title": "Critical point dewetting: competition between the gravity and the dispersion force",
          "venue": "",
          "year": 2008,
          "openAccessPdf": {
            "url": "https://iopscience.iop.org/article/10.1088/1742-6596/98/6/062026/pdf",
            "status": "GOLD",
            "license": null,
            "disclaimer": "Notice: Paper or abstract available at https://api.unpaywall.org/v2/10.1088/1742-6596/98/6/062026?email=<INSERT_YOUR_EMAIL> or https://doi.org/10.1088/1742-6596/98/6/062026, which is subject to the license by the author or copyright owner provided with this content. Please go to the source to verify the license and copyright information for your use."
          },
          "publicationTypes": null,
          "publicationDate": null,
          "journal": {
            "name": "Journal of Physics: Conference Series",
            "pages": "062026",
            "volume": "98"
          },
          "authors": [
            {
              "authorId": "2177012618",
              "name": "Y Ohmasa"
            },
            {
              "authorId": "2176973059",
              "name": "S Takahashi"
            },
            {
              "authorId": "2176976481",
              "name": "K Fujii"
            },
            {
              "authorId": "2177010627",
              "name": "M Yao"
            }
          ],
          "abstract": "Near the critical temperature of an immiscible binary liquid system, a solid substrate is usually covered completely by one of the liquid phases. This phenomenon is called the ‘critical point wetting\", which is predicted by Cahn in 1977, and have been confirmed for many fluid systems experimentally. However, we found that liquid Se-Tl system on a quartz substrate does not show the critical point wetting near the liquid-liquid critical point. On a contrary, when the temperature goes down from the critical point, a Se-rich wetting film intrudes between the Tl-rich bulk liquid and the quartz wall. This result is a clear evidence of the ‘critical point dewetting’ phenomenon. It is suggested from a theoretical consideration that the critical point dewetting takes place as a result of the competition between the long-range dispersion force and the gravity."
        }
      ]
    }
  },
  "crossref": {
    "error": "",
    "metadata": {
      "URL": "https://doi.org/10.1063/1.434402",
      "DOI": "10.1063/1.434402",
      "type": "journal-article",
      "issue": "8",
      "author": [
        {
          "given": "John W.",
          "family": "Cahn",
          "sequence": "first",
          "affiliation": [
            {
              "name": "Department of Materials Science and Engineering, Massachusetts Institute of Technology, Cambridge, Massachusetts 02139"
            }
          ]
        }
      ],
      "ISSN": [
        "0021-9606",
        "1089-7690"
      ],
      "page": "3667-3672",
      "container-title": [
        "The Journal of Chemical Physics"
      ],
      "title": [
        "Critical point wetting"
      ],
      "publisher": "AIP Publishing",
      "abstract": "<jats:p>It is shown that in any two-phase mixture of fluids near their critical point, contact angles against any third phase become zero in that one of the critical phases completely wets the third phase and excludes contact with the other critical phase. A surface layer of the wetting phase continues to exist under a range of conditions when this phase is no longer stable as a bulk. At some temperature below the critical, this perfect wetting terminates in what is described as a first-order transition of the surface. This surface first-order transition may exhibit its own critical point. The theory is qualitatively in agreement with observations.</jats:p>",
      "issued": {
        "date-parts": [
          [
            1977,
            4,
            15
          ]
        ]
      },
      "volume": "66"
    },
    "accepted_score": 1.08,
    "accepted": true,
    "accepted_doi": "10.1063/1.434402",
    "best_candidate_doi": "10.1063/1.434402",
    "crossref_attempts": [
      {
        "doi": "10.1063/1.434402",
        "source_region": "first_page",
        "position": 135,
        "context": "ritical point wetting  John W. Cahn J. Chem. Phys. 66, 3667–3672 (1977) https://doi.org/10.1063/1.434402   View Online Export Citation Articles You May Be Interested In Research of fuzzy ad",
        "priority_score": 0.83,
        "score": 1.08,
        "warnings": [],
        "error": "",
        "accepted": false,
        "metadata": {
          "URL": "https://doi.org/10.1063/1.434402",
          "DOI": "10.1063/1.434402",
          "type": "journal-article",
          "issue": "8",
          "author": [
            {
              "given": "John W.",
              "family": "Cahn",
              "sequence": "first",
              "affiliation": [
                {
                  "name": "Department of Materials Science and Engineering, Massachusetts Institute of Technology, Cambridge, Massachusetts 02139"
                }
              ]
            }
          ],
          "ISSN": [
            "0021-9606",
            "1089-7690"
          ],
          "page": "3667-3672",
          "container-title": [
            "The Journal of Chemical Physics"
          ],
          "title": [
            "Critical point wetting"
          ],
          "publisher": "AIP Publishing",
          "abstract": "<jats:p>It is shown that in any two-phase mixture of fluids near their critical point, contact angles against any third phase become zero in that one of the critical phases completely wets the third phase and excludes contact with the other critical phase. A surface layer of the wetting phase continues to exist under a range of conditions when this phase is no longer stable as a bulk. At some temperature below the critical, this perfect wetting terminates in what is described as a first-order transition of the surface. This surface first-order transition may exhibit its own critical point. The theory is qualitatively in agreement with observations.</jats:p>",
          "issued": {
            "date-parts": [
              [
                1977,
                4,
                15
              ]
            ]
          },
          "volume": "66"
        }
      }
    ],
    "accepted_source": "crossref_doi",
    "matched_by": "doi_text_validation"
  },
  "artifacts": {
    "record_path": "/Users/brandani/Dropbox/documents/library/paper_index/records/sha256-712124ef9db27d55.json",
    "text_path": "/Users/brandani/Dropbox/documents/library/paper_index/text/sha256-712124ef9db27d55.txt",
    "chunk_path": "/Users/brandani/Dropbox/documents/library/paper_index/chunks/sha256-712124ef9db27d55.jsonl",
    "master_index": "/Users/brandani/Dropbox/documents/library/paper_index/master_index.tsv",
    "master_bib": "/Users/brandani/Dropbox/documents/library/paper_index/master.bib",
    "text_kind": "pdf_text"
  },
  "text_extraction": {
    "status": "ok",
    "error": "",
    "text_sha256": "1c38a17866dff1e24f4bbfa493f6ee3fb89ece741136c660ac6673b7880fe700",
    "chunk_count": 14,
    "chunk_target_chars": 2200,
    "chunk_overlap_chars": 250,
    "converter": "/Users/brandani/Dropbox/scripts/pdf2text.py"
  },
  "content_kind": "pdf_backed",
  "doi_candidate_details": [
    {
      "doi": "10.1063/1.434402",
      "source_region": "first_page",
      "position": 135,
      "context": "ritical point wetting  John W. Cahn J. Chem. Phys. 66, 3667–3672 (1977) https://doi.org/10.1063/1.434402   View Online Export Citation Articles You May Be Interested In Research of fuzzy ad",
      "priority_score": 0.83
    }
  ],
  "metadata_reconciliation": {
    "last_applied": "2026-05-11T06:10:58.391544+00:00",
    "tool": "library_reconcile_metadata.py",
    "accepted_doi": "10.1063/1.434402",
    "score": 1.08
  }
}
