{
  "paper_id": "sha256-72bf99e4f10a935d",
  "library_root": "/Users/brandani/Dropbox/documents/library",
  "pdf_path": "/Users/brandani/Dropbox/documents/library/articles/protein_folding_and_design/Rose 2006 PNAS - a-backbone-based-theory-of-protein-folding.pdf",
  "pdf_sha256": "72bf99e4f10a935d4b448660bb820b584e8fbbc7d6316a51434ec553352aa923",
  "filename": "Rose 2006 PNAS - a-backbone-based-theory-of-protein-folding.pdf",
  "item_type": "article",
  "title_query": "a backbone based theory of protein folding",
  "filename_hints": {
    "year_hint": 2006,
    "venue_hint": "proceedingsofthenationalacademyofsciences",
    "prefix": "Rose 2006 PNAS"
  },
  "doi_candidates": [],
  "date_indexed": "2026-04-17T05:25:47.734704+00:00",
  "match_status": "matched",
  "match_confidence": 1.0,
  "warnings": [],
  "crossref_warnings": [],
  "metadata_source": "semantic_scholar",
  "semantic_scholar": {
    "query": "a backbone based theory of protein folding",
    "limit": 10,
    "api_error": "",
    "attempts": [
      {
        "query": "a backbone based theory of protein folding",
        "status": "matched",
        "api_error": "",
        "warnings": [],
        "best_score": 1.0,
        "candidate_count": 10
      }
    ],
    "best_candidate": {
      "paperId": "5890295194dedebac003f98e61407fa783c8f071",
      "externalIds": {
        "MAG": "1980176289",
        "DOI": "10.1073/pnas.0606843103",
        "CorpusId": 15061237,
        "PubMed": "17075053"
      },
      "url": "https://www.semanticscholar.org/paper/5890295194dedebac003f98e61407fa783c8f071",
      "title": "A backbone-based theory of protein folding",
      "venue": "Proceedings of the National Academy of Sciences of the United States of America",
      "year": 2006,
      "openAccessPdf": {
        "url": "https://europepmc.org/articles/pmc1636505?pdf=render",
        "status": "GREEN",
        "license": null,
        "disclaimer": "Notice: The following paper fields have been elided by the publisher: {'abstract'}. Paper or abstract available at https://api.unpaywall.org/v2/10.1073/pnas.0606843103?email=<INSERT_YOUR_EMAIL> or https://doi.org/10.1073/pnas.0606843103, which is subject to the license by the author or copyright owner provided with this content. Please go to the source to verify the license and copyright information for your use."
      },
      "publicationTypes": [
        "Review",
        "JournalArticle"
      ],
      "publicationDate": "2006-11-07",
      "journal": {
        "name": "Proceedings of the National Academy of Sciences",
        "pages": "16623 - 16633",
        "volume": "103"
      },
      "authors": [
        {
          "authorId": "33211033",
          "name": "G. Rose"
        },
        {
          "authorId": "151167794",
          "name": "P. Fleming"
        },
        {
          "authorId": "3078475",
          "name": "J. Banavar"
        },
        {
          "authorId": "3123952",
          "name": "A. Maritan"
        }
      ],
      "abstract": null
    },
    "candidate_scores": [
      {
        "paper_id": "5890295194dedebac003f98e61407fa783c8f071",
        "title": "A backbone-based theory of protein folding",
        "score": 1.0,
        "title_similarity": 1.0,
        "query_year": 2006,
        "candidate_year": 2006,
        "year_bonus": 0.08,
        "author_bonus": 0.04,
        "venue_penalty": 0.0
      },
      {
        "paper_id": "14937c374c7571d095347b1364a2466893781c6f",
        "title": "Molecular information theory meets protein folding",
        "score": 0.4412,
        "title_similarity": 0.5212,
        "query_year": 2006,
        "candidate_year": 2022,
        "year_bonus": -0.08,
        "author_bonus": 0.0,
        "venue_penalty": 0.0
      },
      {
        "paper_id": "fb3750b728d515c2e07ec241c1c7238a865f923a",
        "title": "Improvement of the relative entropy based protein folding method",
        "score": 0.4267,
        "title_similarity": 0.5067,
        "query_year": 2006,
        "candidate_year": 2009,
        "year_bonus": -0.08,
        "author_bonus": 0.0,
        "venue_penalty": 0.0
      },
      {
        "paper_id": "8c44a7bb15d39f20f245a8fc6c33ce5edf4b5d07",
        "title": "Improvement of the relative entropy based protein folding method",
        "score": 0.4267,
        "title_similarity": 0.5067,
        "query_year": 2006,
        "candidate_year": 2009,
        "year_bonus": -0.08,
        "author_bonus": 0.0,
        "venue_penalty": 0.0
      },
      {
        "paper_id": "0fca63f54f09bdadda5d704036e2f5838bd1b65b",
        "title": "Self-organization and mismatch tolerance in protein folding: General theory and an application",
        "score": 0.4055,
        "title_similarity": 0.4855,
        "query_year": 2006,
        "candidate_year": 2000,
        "year_bonus": -0.08,
        "author_bonus": 0.0,
        "venue_penalty": 0.0
      },
      {
        "paper_id": "9c180f0df30dc1f1006bcddb8f9dc36b5e555008",
        "title": "A Hybrid All-Atom Structure-Based Model for Protein Folding and Large Scale Conformational Transitions.",
        "score": 0.385,
        "title_similarity": 0.465,
        "query_year": 2006,
        "candidate_year": 2011,
        "year_bonus": -0.08,
        "author_bonus": 0.0,
        "venue_penalty": 0.0
      },
      {
        "paper_id": "0d54469f48a22e65f316e8ea956959ab7fede9ff",
        "title": "GENETIC CODE OF PROTEIN FOLDING",
        "score": 0.36,
        "title_similarity": 0.36,
        "query_year": 2006,
        "candidate_year": null,
        "year_bonus": 0.0,
        "author_bonus": 0.0,
        "venue_penalty": 0.0
      },
      {
        "paper_id": "0b58f2fd46791bfb7a72e4eac768d3e26ae2e12e",
        "title": "Statistical Theory of Protein Combinatorial Libraries Statistical Theory of Protein Combinatorial Libraries",
        "score": 0.2675,
        "title_similarity": 0.3475,
        "query_year": 2006,
        "candidate_year": 2000,
        "year_bonus": -0.08,
        "author_bonus": 0.0,
        "venue_penalty": 0.0
      },
      {
        "paper_id": "3bd3d988e7649f72d873c4d1d4a5b99ecf50fb08",
        "title": "Variation of protein backbone amide resonance by electrostatic field",
        "score": 0.25,
        "title_similarity": 0.33,
        "query_year": 2006,
        "candidate_year": 2015,
        "year_bonus": -0.08,
        "author_bonus": 0.0,
        "venue_penalty": 0.0
      },
      {
        "paper_id": "93b28f69255f104ec90da1930c8318f38ed8e05e",
        "title": "Proteins containing 6-crossing knot types and their folding pathways",
        "score": 0.0792,
        "title_similarity": 0.1592,
        "query_year": 2006,
        "candidate_year": 2023,
        "year_bonus": -0.08,
        "author_bonus": 0.0,
        "venue_penalty": 0.0
      }
    ],
    "candidate_dois": [
      "10.1073/pnas.0606843103"
    ],
    "matching_extracted_doi": "",
    "raw_response": {
      "total": 658,
      "offset": 0,
      "next": 10,
      "data": [
        {
          "paperId": "5890295194dedebac003f98e61407fa783c8f071",
          "externalIds": {
            "MAG": "1980176289",
            "DOI": "10.1073/pnas.0606843103",
            "CorpusId": 15061237,
            "PubMed": "17075053"
          },
          "url": "https://www.semanticscholar.org/paper/5890295194dedebac003f98e61407fa783c8f071",
          "title": "A backbone-based theory of protein folding",
          "venue": "Proceedings of the National Academy of Sciences of the United States of America",
          "year": 2006,
          "openAccessPdf": {
            "url": "https://europepmc.org/articles/pmc1636505?pdf=render",
            "status": "GREEN",
            "license": null,
            "disclaimer": "Notice: The following paper fields have been elided by the publisher: {'abstract'}. Paper or abstract available at https://api.unpaywall.org/v2/10.1073/pnas.0606843103?email=<INSERT_YOUR_EMAIL> or https://doi.org/10.1073/pnas.0606843103, which is subject to the license by the author or copyright owner provided with this content. Please go to the source to verify the license and copyright information for your use."
          },
          "publicationTypes": [
            "Review",
            "JournalArticle"
          ],
          "publicationDate": "2006-11-07",
          "journal": {
            "name": "Proceedings of the National Academy of Sciences",
            "pages": "16623 - 16633",
            "volume": "103"
          },
          "authors": [
            {
              "authorId": "33211033",
              "name": "G. Rose"
            },
            {
              "authorId": "151167794",
              "name": "P. Fleming"
            },
            {
              "authorId": "3078475",
              "name": "J. Banavar"
            },
            {
              "authorId": "3123952",
              "name": "A. Maritan"
            }
          ],
          "abstract": null
        },
        {
          "paperId": "14937c374c7571d095347b1364a2466893781c6f",
          "externalIds": {
            "ArXiv": "2206.14706",
            "DBLP": "journals/corr/abs-2206-14706",
            "DOI": "10.48550/arXiv.2206.14706",
            "CorpusId": 250113678,
            "PubMed": "36282961"
          },
          "url": "https://www.semanticscholar.org/paper/14937c374c7571d095347b1364a2466893781c6f",
          "title": "Molecular information theory meets protein folding",
          "venue": "Journal of Physical Chemistry B",
          "year": 2022,
          "openAccessPdf": {
            "url": "http://arxiv.org/pdf/2206.14706",
            "status": "GREEN",
            "license": null,
            "disclaimer": "Notice: Paper or abstract available at https://arxiv.org/abs/2206.14706, which is subject to the license by the author or copyright owner provided with this content. Please go to the source to verify the license and copyright information for your use."
          },
          "publicationTypes": [
            "JournalArticle"
          ],
          "publicationDate": "2022-06-29",
          "journal": {
            "name": "The journal of physical chemistry. B"
          },
          "authors": [
            {
              "authorId": "2174030706",
              "name": "Ignacio E. S'anchez"
            },
            {
              "authorId": "118683193",
              "name": "Ezequiel A. Galpern"
            },
            {
              "authorId": "2174030536",
              "name": "Mart'in M. Garibaldi"
            },
            {
              "authorId": "1805227",
              "name": "D. Ferreiro"
            }
          ],
          "abstract": "We propose an application of molecular information theory to analyze the folding of single domain proteins. We analyze results from various areas of protein science, such as sequence-based potentials, reduced amino acid alphabets, backbone configurational entropy, secondary structure content, residue burial layers, and mutational studies of protein stability changes. We found that the average information contained in the sequences of evolved proteins is very close to the average information needed to specify a fold ∼2.2 ± 0.3 bits/(site·operation). The effective alphabet size in evolved proteins equals the effective number of conformations of a residue in the compact unfolded state at around 5. We calculated an energy-to-information conversion efficiency upon folding of around 50%, lower than the theoretical limit of 70%, but much higher than human-built macroscopic machines. We propose a simple mapping between molecular information theory and energy landscape theory and explore the connections between sequence evolution, configurational entropy, and the energetics of protein folding."
        },
        {
          "paperId": "9c180f0df30dc1f1006bcddb8f9dc36b5e555008",
          "externalIds": {
            "MAG": "2033572216",
            "DOI": "10.1021/ct200547m",
            "CorpusId": 25658093,
            "PubMed": "26598361"
          },
          "url": "https://www.semanticscholar.org/paper/9c180f0df30dc1f1006bcddb8f9dc36b5e555008",
          "title": "A Hybrid All-Atom Structure-Based Model for Protein Folding and Large Scale Conformational Transitions.",
          "venue": "Journal of Chemical Theory and Computation",
          "year": 2011,
          "openAccessPdf": {
            "url": "",
            "status": "CLOSED",
            "license": null,
            "disclaimer": "Notice: The following paper fields have been elided by the publisher: {'abstract'}. Paper or abstract available at https://api.unpaywall.org/v2/10.1021/ct200547m?email=<INSERT_YOUR_EMAIL> or https://doi.org/10.1021/ct200547m, which is subject to the license by the author or copyright owner provided with this content. Please go to the source to verify the license and copyright information for your use."
          },
          "publicationTypes": [
            "JournalArticle"
          ],
          "publicationDate": "2011-11-07",
          "journal": {
            "name": "Journal of chemical theory and computation",
            "pages": "\n          4208-17\n        ",
            "volume": "7 12"
          },
          "authors": [
            {
              "authorId": "1811574",
              "name": "L. Sutto"
            },
            {
              "authorId": "2140842195",
              "name": "Ilaria Mereu"
            },
            {
              "authorId": "2407694",
              "name": "F. Gervasio"
            }
          ],
          "abstract": null
        },
        {
          "paperId": "3bd3d988e7649f72d873c4d1d4a5b99ecf50fb08",
          "externalIds": {
            "ArXiv": "1512.05488",
            "MAG": "2341835509",
            "CorpusId": 102167837
          },
          "url": "https://www.semanticscholar.org/paper/3bd3d988e7649f72d873c4d1d4a5b99ecf50fb08",
          "title": "Variation of protein backbone amide resonance by electrostatic field",
          "venue": "",
          "year": 2015,
          "openAccessPdf": {
            "url": "",
            "status": null,
            "license": null,
            "disclaimer": "Notice: Paper or abstract available at https://arxiv.org/abs/1512.05488, which is subject to the license by the author or copyright owner provided with this content. Please go to the source to verify the license and copyright information for your use."
          },
          "publicationTypes": null,
          "publicationDate": "2015-12-17",
          "journal": {
            "name": "arXiv: Chemical Physics",
            "volume": ""
          },
          "authors": [
            {
              "authorId": "92982374",
              "name": "John N. Sharley"
            }
          ],
          "abstract": "Amide resonance is found to be sensitive to electrostatic field with component parallel or antiparallel to the amide C-N bond, an effect we refer to here as EVPR-CN. EVPR-CN is linear and without threshold in the biologically plausible electrostatic field range -0.005 to 0.005 au. Variation of amide resonance varies Resonance-Assisted Hydrogen Bonding such as occurs in the hydrogen bonded chains of backbone amides of protein secondary structures such as beta sheets and alpha helices, varying the stability of these structures. The electrostatic properties including permittivity of amino acid residue sidegroups influence the electrostatic field component parallel or antiparallel to the C-N bond of each amide, giving a novel relationship between residue sequence and protein structure. Additionally, a backbone-based theory of protein folding which includes this effect is presented in Section 8.4. \nThe significance of EVPR-CN relative to other factors in protein folding depends on field C-N component at each backbone amide at a given time. Calculation indicates that backbone amides do not occupy an intrinsically electrostatically-protected niche. We propose that EVPR-CN warrants investigation in any study of stable protein structure or protein folding pathway. EVPR-CN is somewhat associated with hydrophobia, since hydrophobia creates low permittivity environments. EVPR-CN is more directionally and hence structurally specific than hydrophobia. \nHypotheses concerning the stability of beta sheets and amyloid fibrils and of protein complexation and molecular chaperone function are offered. An analogous effect in nitrogenous base pairing is proposed. \nEVPR-CN is energetically significant in biologically plausible electrostatic fields even without considering a hydrogen bonding context, and a hypothesis concerning the stability of polyproline helices types I and II is offered."
        },
        {
          "paperId": "0d54469f48a22e65f316e8ea956959ab7fede9ff",
          "externalIds": {
            "CorpusId": 264600001
          },
          "url": "https://www.semanticscholar.org/paper/0d54469f48a22e65f316e8ea956959ab7fede9ff",
          "title": "GENETIC CODE OF PROTEIN FOLDING",
          "venue": "",
          "year": null,
          "openAccessPdf": {
            "url": "",
            "status": null,
            "license": null,
            "disclaimer": "Notice: The following paper fields have been elided by the publisher: {'abstract'}. Paper or abstract available at https://d197for5662m48.cloudfront.net/documents/publicationstatus/156784/preprint_pdf/fca22bf6abd6051b835c12817ecc1104.pdf, which is subject to the license by the author or copyright owner provided with this content. Please go to the source to verify the license and copyright information for your use."
          },
          "publicationTypes": null,
          "publicationDate": null,
          "journal": null,
          "authors": [
            {
              "authorId": "2262506463",
              "name": "Carlos Zetina-Rosales"
            }
          ],
          "abstract": null
        },
        {
          "paperId": "0b58f2fd46791bfb7a72e4eac768d3e26ae2e12e",
          "externalIds": {
            "CorpusId": 16915559
          },
          "url": "https://www.semanticscholar.org/paper/0b58f2fd46791bfb7a72e4eac768d3e26ae2e12e",
          "title": "Statistical Theory of Protein Combinatorial Libraries Statistical Theory of Protein Combinatorial Libraries",
          "venue": "",
          "year": 2000,
          "openAccessPdf": {
            "url": "",
            "status": null,
            "license": null,
            "disclaimer": "Notice: The following paper fields have been elided by the publisher: {'abstract'}. Paper or abstract available at http://repository.upenn.edu/cgi/viewcontent.cgi?article=1023&context=chemistry_papers, which is subject to the license by the author or copyright owner provided with this content. Please go to the source to verify the license and copyright information for your use."
          },
          "publicationTypes": null,
          "publicationDate": null,
          "journal": null,
          "authors": [
            {
              "authorId": "2150297",
              "name": "H. Kono"
            },
            {
              "authorId": "3305015",
              "name": "Jinming Zou"
            },
            {
              "authorId": "2011195",
              "name": "J. Saven"
            }
          ],
          "abstract": null
        },
        {
          "paperId": "0fca63f54f09bdadda5d704036e2f5838bd1b65b",
          "externalIds": {
            "MAG": "2002692010",
            "DOI": "10.1063/1.481076",
            "CorpusId": 1658213
          },
          "url": "https://www.semanticscholar.org/paper/0fca63f54f09bdadda5d704036e2f5838bd1b65b",
          "title": "Self-organization and mismatch tolerance in protein folding: General theory and an application",
          "venue": "",
          "year": 2000,
          "openAccessPdf": {
            "url": "",
            "status": "CLOSED",
            "license": null,
            "disclaimer": "Notice: The following paper fields have been elided by the publisher: {'abstract'}. Paper or abstract available at https://api.unpaywall.org/v2/10.1063/1.481076?email=<INSERT_YOUR_EMAIL> or https://doi.org/10.1063/1.481076, which is subject to the license by the author or copyright owner provided with this content. Please go to the source to verify the license and copyright information for your use."
          },
          "publicationTypes": null,
          "publicationDate": "2000-03-03",
          "journal": {
            "name": "Journal of Chemical Physics",
            "pages": "5212-5222",
            "volume": "112"
          },
          "authors": [
            {
              "authorId": "144857789",
              "name": "Ariel Fernández"
            },
            {
              "authorId": "144382626",
              "name": "R. Berry"
            }
          ],
          "abstract": null
        },
        {
          "paperId": "fb3750b728d515c2e07ec241c1c7238a865f923a",
          "externalIds": {
            "MAG": "2001265678",
            "DOI": "10.1007/S11433-009-0112-3",
            "CorpusId": 120192648
          },
          "url": "https://www.semanticscholar.org/paper/fb3750b728d515c2e07ec241c1c7238a865f923a",
          "title": "Improvement of the relative entropy based protein folding method",
          "venue": "",
          "year": 2009,
          "openAccessPdf": {
            "url": "",
            "status": "CLOSED",
            "license": null,
            "disclaimer": "Notice: The following paper fields have been elided by the publisher: {'abstract'}. Paper or abstract available at https://api.unpaywall.org/v2/10.1007/S11433-009-0112-3?email=<INSERT_YOUR_EMAIL> or https://doi.org/10.1007/S11433-009-0112-3, which is subject to the license by the author or copyright owner provided with this content. Please go to the source to verify the license and copyright information for your use."
          },
          "publicationTypes": null,
          "publicationDate": "2009-05-21",
          "journal": {
            "name": "Science in China Series G: Physics, Mechanics and Astronomy",
            "pages": "885-892",
            "volume": "52"
          },
          "authors": [
            {
              "authorId": "145902008",
              "name": "Li-sheng Qi"
            },
            {
              "authorId": "2707077",
              "name": "Jiguo Su"
            },
            {
              "authorId": "2109136190",
              "name": "Weizu Chen"
            },
            {
              "authorId": "47074607",
              "name": "Cunxin Wang"
            }
          ],
          "abstract": null
        },
        {
          "paperId": "8c44a7bb15d39f20f245a8fc6c33ce5edf4b5d07",
          "externalIds": {
            "MAG": "3146731575",
            "CorpusId": 237126969
          },
          "url": "https://www.semanticscholar.org/paper/8c44a7bb15d39f20f245a8fc6c33ce5edf4b5d07",
          "title": "Improvement of the relative entropy based protein folding method",
          "venue": "",
          "year": 2009,
          "openAccessPdf": {
            "url": "",
            "status": null,
            "license": null
          },
          "publicationTypes": null,
          "publicationDate": null,
          "journal": {
            "name": "",
            "volume": ""
          },
          "authors": [
            {
              "authorId": "2118913003",
              "name": "Q. Li"
            }
          ],
          "abstract": null
        },
        {
          "paperId": "93b28f69255f104ec90da1930c8318f38ed8e05e",
          "externalIds": {
            "DOI": "10.1101/2023.06.16.545156",
            "CorpusId": 259213561
          },
          "url": "https://www.semanticscholar.org/paper/93b28f69255f104ec90da1930c8318f38ed8e05e",
          "title": "Proteins containing 6-crossing knot types and their folding pathways",
          "venue": "bioRxiv",
          "year": 2023,
          "openAccessPdf": {
            "url": "https://www.biorxiv.org/content/biorxiv/early/2023/06/18/2023.06.16.545156.full.pdf",
            "status": "GREEN",
            "license": "CCBYNCND",
            "disclaimer": "Notice: Paper or abstract available at https://api.unpaywall.org/v2/10.1101/2023.06.16.545156?email=<INSERT_YOUR_EMAIL> or https://doi.org/10.1101/2023.06.16.545156, which is subject to the license by the author or copyright owner provided with this content. Please go to the source to verify the license and copyright information for your use."
          },
          "publicationTypes": null,
          "publicationDate": "2023-06-18",
          "journal": {
            "name": "bioRxiv"
          },
          "authors": [
            {
              "authorId": "2223594499",
              "name": "Maciej Sikora"
            },
            {
              "authorId": "1890567",
              "name": "E. Flapan"
            },
            {
              "authorId": "2067915371",
              "name": "Helen Wong"
            },
            {
              "authorId": "1696347",
              "name": "Paweł Rubach"
            },
            {
              "authorId": "2166226873",
              "name": "Wojciech Garstka"
            },
            {
              "authorId": "10666277",
              "name": "S. Niewieczerzał"
            },
            {
              "authorId": "2346376",
              "name": "E. Rawdon"
            },
            {
              "authorId": "2184831",
              "name": "J. Sulkowska"
            }
          ],
          "abstract": "Studying complex protein knots can provide new insights into potential knot folding mechanisms and other fundamental aspects of why and how proteins knot. This paper presents results of a systematic analysis of the 3D structure of proteins with 6-crossings knots predicted by the artificial intelligence program AlphaFold 2. Furthermore, using a coarse-grained native based model, we found that three representative proteins can self tie to a 63 knot, the most complex knot found in a protein thus far. Because it is not a twist knot, the 63 knot cannot be folded via a simple mechanism involving the threading of a single loop. Based on successful trajectories for each protein, we determined that the 63 knot is formed after folding a significant part of the protein backbone to the native conformation. Moreover, we found that there are two distinct knotting mechanisms, which are described here. Also, building on a loop flipping theory developed earlier, we present two new theories of protein folding involving the creation and threading of two loops, and explain how our theories can describe the successful folding trajectories for each of the three representative 63-knotted proteins."
        }
      ]
    }
  },
  "crossref": {
    "error": "",
    "metadata": null,
    "accepted_score": null,
    "accepted": false
  },
  "supplement_parent": null,
  "artifacts": {
    "record_path": "/Users/brandani/Dropbox/documents/library/paper_index/records/sha256-72bf99e4f10a935d.json",
    "text_path": "/Users/brandani/Dropbox/documents/library/paper_index/text/sha256-72bf99e4f10a935d.txt",
    "chunk_path": "/Users/brandani/Dropbox/documents/library/paper_index/chunks/sha256-72bf99e4f10a935d.jsonl",
    "master_index": "/Users/brandani/Dropbox/documents/library/paper_index/master_index.tsv",
    "master_bib": "/Users/brandani/Dropbox/documents/library/paper_index/master.bib",
    "text_kind": "pdf_text"
  },
  "text_extraction": {
    "status": "ok",
    "error": "",
    "text_sha256": "07f5ca30712e59ea86148eee3f6a0dfe90467ba054acf09c5335d655c137d1e7",
    "chunk_count": 45,
    "chunk_target_chars": 2200,
    "chunk_overlap_chars": 250,
    "converter": "/Users/brandani/Dropbox/scripts/pdf2text.py"
  },
  "content_kind": "pdf_backed"
}
