{
  "paper_id": "sha256-4aeaf6a83ec37fa7",
  "library_root": "/Users/brandani/Dropbox/documents/library",
  "pdf_path": "/Users/brandani/Dropbox/documents/library/articles/chromatin_structure_and_dynamics/Olins 1974 Science - Spheroid Chromatin Units.pdf",
  "pdf_sha256": "4aeaf6a83ec37fa7ec0eddf210424e61e2ef6b077dab0f687eae82e4aaa8ad19",
  "filename": "Olins 1974 Science - Spheroid Chromatin Units.pdf",
  "item_type": "article",
  "title_query": "Olins 1974 Science Spheroid Chromatin Units",
  "filename_hints": {
    "year_hint": 1974,
    "venue_hint": "science",
    "prefix": "Olins 1974 Science"
  },
  "doi_candidates": [],
  "date_indexed": "2026-04-17T05:22:03.927153+00:00",
  "match_status": "matched_via_zotero",
  "match_confidence": 0.595,
  "warnings": [],
  "crossref_warnings": [],
  "metadata_source": "zotero_verified_match",
  "semantic_scholar": {
    "query": "Olins 1974 Science Spheroid Chromatin Units",
    "limit": 10,
    "api_error": "",
    "attempts": [
      {
        "query": "Olins 1974 Science Spheroid Chromatin Units",
        "status": "not_found",
        "api_error": "",
        "warnings": [],
        "best_score": 0.595,
        "candidate_count": 10
      },
      {
        "query": "extract of human subcutaneous connective tissue (8). 19",
        "status": "not_found",
        "api_error": "",
        "warnings": [],
        "best_score": 0.3707,
        "candidate_count": 10
      }
    ],
    "best_candidate": {
      "paperId": "3df45be8d8fbb9762d8e7644d128c52046c26c64",
      "externalIds": {
        "MAG": "1983159345",
        "DOI": "10.1126/science.183.4122.330",
        "CorpusId": 83480762
      },
      "url": "https://www.semanticscholar.org/paper/3df45be8d8fbb9762d8e7644d128c52046c26c64",
      "title": "Spheroid Chromatin Units (ν Bodies)",
      "venue": "Science",
      "year": 1974,
      "openAccessPdf": {
        "url": "",
        "status": "CLOSED",
        "license": null,
        "disclaimer": "Notice: The following paper fields have been elided by the publisher: {'abstract'}. Paper or abstract available at https://api.unpaywall.org/v2/10.1126/science.183.4122.330?email=<INSERT_YOUR_EMAIL> or https://doi.org/10.1126/science.183.4122.330, which is subject to the license by the author or copyright owner provided with this content. Please go to the source to verify the license and copyright information for your use."
      },
      "publicationTypes": null,
      "publicationDate": "1974-01-25",
      "journal": {
        "name": "Science",
        "pages": "330 - 332",
        "volume": "183"
      },
      "authors": [
        {
          "authorId": "3820608",
          "name": "A. Olins"
        },
        {
          "authorId": "2215192",
          "name": "D. Olins"
        }
      ],
      "abstract": null
    },
    "candidate_scores": [
      {
        "paper_id": "3df45be8d8fbb9762d8e7644d128c52046c26c64",
        "title": "Spheroid Chromatin Units (ν Bodies)",
        "score": 0.595,
        "title_similarity": 0.475,
        "query_year": 1974,
        "candidate_year": 1974,
        "year_bonus": 0.08,
        "author_bonus": 0.04,
        "venue_penalty": 0.0
      },
      {
        "paper_id": "aa4f64e9c55389def04807e561532c591ef9ad9f",
        "title": "Spheroid chromatin units (v bodies).",
        "score": 0.595,
        "title_similarity": 0.475,
        "query_year": 1974,
        "candidate_year": 1974,
        "year_bonus": 0.08,
        "author_bonus": 0.04,
        "venue_penalty": 0.0
      },
      {
        "paper_id": "75d60e0b3a15cfdcb307ddb074e6e644d53a6631",
        "title": "Chromatin fragments resembling v bodies.",
        "score": 0.2172,
        "title_similarity": 0.1472,
        "query_year": 1974,
        "candidate_year": 1975,
        "year_bonus": 0.03,
        "author_bonus": 0.04,
        "venue_penalty": 0.0
      },
      {
        "paper_id": "9f28981bfe225cb779e66b3b48cfc6daeb4bb56a",
        "title": "Evidence for the Existence of Globular Units in the Supranucleosomal Organization of Chromatin",
        "score": 0.2003,
        "title_similarity": 0.2803,
        "query_year": 1974,
        "candidate_year": 1981,
        "year_bonus": -0.08,
        "author_bonus": 0.0,
        "venue_penalty": 0.0
      },
      {
        "paper_id": "8d3ec3b43d9b9947054c72b5bd2dc828f2a9582d",
        "title": "Interphase epichromatin: last refuge for the 30-nm chromatin fiber?",
        "score": 0.0953,
        "title_similarity": 0.1353,
        "query_year": 1974,
        "candidate_year": 2021,
        "year_bonus": -0.08,
        "author_bonus": 0.04,
        "venue_penalty": 0.0
      },
      {
        "paper_id": "dad34dd8b2a1a2fe00896c6ce8365b1a85553ace",
        "title": "Organization of transcribed and nontranscribed chromatin.",
        "score": 0.0672,
        "title_similarity": 0.1472,
        "query_year": 1974,
        "candidate_year": 1980,
        "year_bonus": -0.08,
        "author_bonus": 0.0,
        "venue_penalty": 0.0
      },
      {
        "paper_id": "03aad299258a49a076d025aeb0815960788ec79b",
        "title": "Supranucleosomal and Non-Nucleosomal Chromatin Configurations",
        "score": 0.0633,
        "title_similarity": 0.1433,
        "query_year": 1974,
        "candidate_year": 2009,
        "year_bonus": -0.08,
        "author_bonus": 0.0,
        "venue_penalty": 0.0
      },
      {
        "paper_id": "2e6ff6e895acf1b8d7b4cf5a6c764a2f18d26e27",
        "title": "Nucleosomes structure and its dynamic transitions",
        "score": 0.0,
        "title_similarity": 0.0,
        "query_year": 1974,
        "candidate_year": 1980,
        "year_bonus": -0.08,
        "author_bonus": 0.0,
        "venue_penalty": 0.0
      },
      {
        "paper_id": "00340c6863d5bcd10f6761433ca567e1fff23b05",
        "title": "Instrument Sharing Continued availability of advanced instruments must involve sharing ; how are instruments shared ?",
        "score": 0.0,
        "title_similarity": 0.0,
        "query_year": 1974,
        "candidate_year": 2016,
        "year_bonus": -0.08,
        "author_bonus": 0.0,
        "venue_penalty": 0.0
      },
      {
        "paper_id": "be0415674b9ed969611cd40e9197990cf88e4fe1",
        "title": "Structural changes occurring in nuclei of barley root cells in response to a combined effect of salinity and ageing",
        "score": 0.0,
        "title_similarity": 0.0,
        "query_year": 1974,
        "candidate_year": 1983,
        "year_bonus": -0.08,
        "author_bonus": 0.0,
        "venue_penalty": 0.0
      }
    ],
    "candidate_dois": [
      "10.1126/science.183.4122.330"
    ],
    "matching_extracted_doi": "",
    "raw_response": {
      "total": 15,
      "offset": 0,
      "next": 10,
      "data": [
        {
          "paperId": "3df45be8d8fbb9762d8e7644d128c52046c26c64",
          "externalIds": {
            "MAG": "1983159345",
            "DOI": "10.1126/science.183.4122.330",
            "CorpusId": 83480762
          },
          "url": "https://www.semanticscholar.org/paper/3df45be8d8fbb9762d8e7644d128c52046c26c64",
          "title": "Spheroid Chromatin Units (ν Bodies)",
          "venue": "Science",
          "year": 1974,
          "openAccessPdf": {
            "url": "",
            "status": "CLOSED",
            "license": null,
            "disclaimer": "Notice: The following paper fields have been elided by the publisher: {'abstract'}. Paper or abstract available at https://api.unpaywall.org/v2/10.1126/science.183.4122.330?email=<INSERT_YOUR_EMAIL> or https://doi.org/10.1126/science.183.4122.330, which is subject to the license by the author or copyright owner provided with this content. Please go to the source to verify the license and copyright information for your use."
          },
          "publicationTypes": null,
          "publicationDate": "1974-01-25",
          "journal": {
            "name": "Science",
            "pages": "330 - 332",
            "volume": "183"
          },
          "authors": [
            {
              "authorId": "3820608",
              "name": "A. Olins"
            },
            {
              "authorId": "2215192",
              "name": "D. Olins"
            }
          ],
          "abstract": null
        },
        {
          "paperId": "aa4f64e9c55389def04807e561532c591ef9ad9f",
          "externalIds": {
            "CorpusId": 35978968,
            "PubMed": "4128918"
          },
          "url": "https://www.semanticscholar.org/paper/aa4f64e9c55389def04807e561532c591ef9ad9f",
          "title": "Spheroid chromatin units (v bodies).",
          "venue": "Science",
          "year": 1974,
          "openAccessPdf": {
            "url": "",
            "status": null,
            "license": null,
            "disclaimer": "Notice: The following paper fields have been elided by the publisher: {'abstract'}. Paper or abstract available at http://www.bowdoin.edu/faculty/a/aolins/pdf/1974%20Science%20183%20330-2.pdf, which is subject to the license by the author or copyright owner provided with this content. Please go to the source to verify the license and copyright information for your use."
          },
          "publicationTypes": [
            "JournalArticle"
          ],
          "publicationDate": null,
          "journal": {
            "name": "Science",
            "pages": "\n          330-2\n        ",
            "volume": "183 4122"
          },
          "authors": [
            {
              "authorId": "3820608",
              "name": "A. Olins"
            },
            {
              "authorId": "2215192",
              "name": "D. Olins"
            }
          ],
          "abstract": null
        },
        {
          "paperId": "75d60e0b3a15cfdcb307ddb074e6e644d53a6631",
          "externalIds": {
            "MAG": "2002266495",
            "DOI": "10.1126/SCIENCE.1111096",
            "CorpusId": 31245320,
            "PubMed": "1111096"
          },
          "url": "https://www.semanticscholar.org/paper/75d60e0b3a15cfdcb307ddb074e6e644d53a6631",
          "title": "Chromatin fragments resembling v bodies.",
          "venue": "Science",
          "year": 1975,
          "openAccessPdf": {
            "url": "",
            "status": "CLOSED",
            "license": null,
            "disclaimer": "Notice: The following paper fields have been elided by the publisher: {'abstract'}. Paper or abstract available at https://api.unpaywall.org/v2/10.1126/SCIENCE.1111096?email=<INSERT_YOUR_EMAIL> or https://doi.org/10.1126/SCIENCE.1111096, which is subject to the license by the author or copyright owner provided with this content. Please go to the source to verify the license and copyright information for your use."
          },
          "publicationTypes": [
            "JournalArticle"
          ],
          "publicationDate": "1975-01-17",
          "journal": {
            "name": "Science",
            "pages": "\n          173-5\n        ",
            "volume": "187 4172"
          },
          "authors": [
            {
              "authorId": "2808765",
              "name": "M. Senior"
            },
            {
              "authorId": "3820608",
              "name": "A. Olins"
            },
            {
              "authorId": "2215192",
              "name": "D. Olins"
            }
          ],
          "abstract": null
        },
        {
          "paperId": "8d3ec3b43d9b9947054c72b5bd2dc828f2a9582d",
          "externalIds": {
            "DOI": "10.1007/s00412-021-00759-8",
            "CorpusId": 235360072,
            "PubMed": "34091761"
          },
          "url": "https://www.semanticscholar.org/paper/8d3ec3b43d9b9947054c72b5bd2dc828f2a9582d",
          "title": "Interphase epichromatin: last refuge for the 30-nm chromatin fiber?",
          "venue": "Chromosoma",
          "year": 2021,
          "openAccessPdf": {
            "url": "",
            "status": null,
            "license": null,
            "disclaimer": "Notice: The following paper fields have been elided by the publisher: {'abstract'}. Paper or abstract available at https://api.unpaywall.org/v2/10.1007/s00412-021-00759-8?email=<INSERT_YOUR_EMAIL> or https://doi.org/10.1007/s00412-021-00759-8, which is subject to the license by the author or copyright owner provided with this content. Please go to the source to verify the license and copyright information for your use."
          },
          "publicationTypes": [
            "Review",
            "JournalArticle"
          ],
          "publicationDate": "2021-06-05",
          "journal": {
            "name": "Chromosoma",
            "pages": "91 - 102",
            "volume": "130"
          },
          "authors": [
            {
              "authorId": "2107067481",
              "name": "P. Xu"
            },
            {
              "authorId": "5950146",
              "name": "J. Mahamid"
            },
            {
              "authorId": "48830613",
              "name": "Marco Dombrowski"
            },
            {
              "authorId": "3243662",
              "name": "W. Baumeister"
            },
            {
              "authorId": "3820608",
              "name": "A. Olins"
            },
            {
              "authorId": "2215192",
              "name": "D. Olins"
            }
          ],
          "abstract": null
        },
        {
          "paperId": "9f28981bfe225cb779e66b3b48cfc6daeb4bb56a",
          "externalIds": {
            "MAG": "1484768755",
            "DOI": "10.1007/978-3-642-67916-2_18",
            "CorpusId": 94331443
          },
          "url": "https://www.semanticscholar.org/paper/9f28981bfe225cb779e66b3b48cfc6daeb4bb56a",
          "title": "Evidence for the Existence of Globular Units in the Supranucleosomal Organization of Chromatin",
          "venue": "",
          "year": 1981,
          "openAccessPdf": {
            "url": "",
            "status": "CLOSED",
            "license": null,
            "disclaimer": "Notice: The following paper fields have been elided by the publisher: {'abstract'}. Paper or abstract available at https://api.unpaywall.org/v2/10.1007/978-3-642-67916-2_18?email=<INSERT_YOUR_EMAIL> or https://doi.org/10.1007/978-3-642-67916-2_18, which is subject to the license by the author or copyright owner provided with this content. Please go to the source to verify the license and copyright information for your use."
          },
          "publicationTypes": [
            "Review"
          ],
          "publicationDate": null,
          "journal": {
            "name": "",
            "pages": "139-151",
            "volume": ""
          },
          "authors": [
            {
              "authorId": "3102281",
              "name": "H. Zentgraf"
            },
            {
              "authorId": "145730949",
              "name": "U. Müller"
            },
            {
              "authorId": "6594720",
              "name": "U. Scheer"
            },
            {
              "authorId": "46455775",
              "name": "W. Franke"
            }
          ],
          "abstract": null
        },
        {
          "paperId": "03aad299258a49a076d025aeb0815960788ec79b",
          "externalIds": {
            "CorpusId": 53544774
          },
          "url": "https://www.semanticscholar.org/paper/03aad299258a49a076d025aeb0815960788ec79b",
          "title": "Supranucleosomal and Non-Nucleosomal Chromatin Configurations",
          "venue": "",
          "year": 2009,
          "openAccessPdf": {
            "url": "",
            "status": null,
            "license": null,
            "disclaimer": "Notice: The following paper fields have been elided by the publisher: {'abstract'}. Paper or abstract available at https://opus.bibliothek.uni-wuerzburg.de/opus4-wuerzburg/frontdoor/deliver/index/docId/3367/file/Scheer_Supranucleosomal_Configurations.pdf, which is subject to the license by the author or copyright owner provided with this content. Please go to the source to verify the license and copyright information for your use."
          },
          "publicationTypes": [
            "Review"
          ],
          "publicationDate": null,
          "journal": null,
          "authors": [
            {
              "authorId": "7305489",
              "name": "W. W."
            }
          ],
          "abstract": null
        },
        {
          "paperId": "dad34dd8b2a1a2fe00896c6ce8365b1a85553ace",
          "externalIds": {
            "MAG": "2202511950",
            "DOI": "10.1007/978-3-540-38267-6_3",
            "CorpusId": 12207904,
            "PubMed": "7003670"
          },
          "url": "https://www.semanticscholar.org/paper/dad34dd8b2a1a2fe00896c6ce8365b1a85553ace",
          "title": "Organization of transcribed and nontranscribed chromatin.",
          "venue": "Results and problems in cell differentiation",
          "year": 1980,
          "openAccessPdf": {
            "url": "",
            "status": "CLOSED",
            "license": null,
            "disclaimer": "Notice: The following paper fields have been elided by the publisher: {'abstract'}. Paper or abstract available at https://api.unpaywall.org/v2/10.1007/978-3-540-38267-6_3?email=<INSERT_YOUR_EMAIL> or https://doi.org/10.1007/978-3-540-38267-6_3, which is subject to the license by the author or copyright owner provided with this content. Please go to the source to verify the license and copyright information for your use."
          },
          "publicationTypes": [
            "Review",
            "JournalArticle"
          ],
          "publicationDate": null,
          "journal": {
            "name": "Results and problems in cell differentiation",
            "pages": "\n          15-36\n        ",
            "volume": "11"
          },
          "authors": [
            {
              "authorId": "46455775",
              "name": "W. Franke"
            },
            {
              "authorId": "6594720",
              "name": "U. Scheer"
            },
            {
              "authorId": "3102281",
              "name": "H. Zentgraf"
            },
            {
              "authorId": "48611078",
              "name": "M. Trendelenburg"
            },
            {
              "authorId": "2054336098",
              "name": "U. Müller"
            },
            {
              "authorId": "34752661",
              "name": "G. Krohne"
            },
            {
              "authorId": "4678931",
              "name": "H. Spring"
            }
          ],
          "abstract": null
        },
        {
          "paperId": "2e6ff6e895acf1b8d7b4cf5a6c764a2f18d26e27",
          "externalIds": {
            "MAG": "2105640144",
            "DOI": "10.1017/S0033583500001670",
            "CorpusId": 5474638,
            "PubMed": "7232694"
          },
          "url": "https://www.semanticscholar.org/paper/2e6ff6e895acf1b8d7b4cf5a6c764a2f18d26e27",
          "title": "Nucleosomes structure and its dynamic transitions",
          "venue": "Quarterly Reviews of Biophysics (print)",
          "year": 1980,
          "openAccessPdf": {
            "url": "",
            "status": "CLOSED",
            "license": null,
            "disclaimer": "Notice: The following paper fields have been elided by the publisher: {'abstract'}. Paper or abstract available at https://api.unpaywall.org/v2/10.1017/S0033583500001670?email=<INSERT_YOUR_EMAIL> or https://doi.org/10.1017/S0033583500001670, which is subject to the license by the author or copyright owner provided with this content. Please go to the source to verify the license and copyright information for your use."
          },
          "publicationTypes": [
            "JournalArticle"
          ],
          "publicationDate": "1980-05-01",
          "journal": {
            "name": "Quarterly Reviews of Biophysics",
            "pages": "255 - 295",
            "volume": "13"
          },
          "authors": [
            {
              "authorId": "1852464",
              "name": "A. Mirzabekov"
            }
          ],
          "abstract": null
        },
        {
          "paperId": "00340c6863d5bcd10f6761433ca567e1fff23b05",
          "externalIds": {
            "CorpusId": 174796656
          },
          "url": "https://www.semanticscholar.org/paper/00340c6863d5bcd10f6761433ca567e1fff23b05",
          "title": "Instrument Sharing Continued availability of advanced instruments must involve sharing ; how are instruments shared ?",
          "venue": "",
          "year": 2016,
          "openAccessPdf": {
            "url": "",
            "status": null,
            "license": null
          },
          "publicationTypes": null,
          "publicationDate": null,
          "journal": null,
          "authors": [
            {
              "authorId": "122015860",
              "name": "W. Meinke"
            },
            {
              "authorId": "6270604",
              "name": "M. DePamphilis"
            },
            {
              "authorId": "7913862",
              "name": "V. Bakayev"
            },
            {
              "authorId": "2136504548",
              "name": "M. P."
            },
            {
              "authorId": "2081044040",
              "name": "Chumackov"
            },
            {
              "authorId": "2074541419",
              "name": "P. Chambon"
            },
            {
              "authorId": "143964947",
              "name": "A. Varshavsky"
            },
            {
              "authorId": "6682485",
              "name": "V. Schmatchenko"
            },
            {
              "authorId": "12271426",
              "name": "P. M. Chumackov"
            },
            {
              "authorId": "145647701",
              "name": "G. Georgiev"
            },
            {
              "authorId": "3871669",
              "name": "R. Dulbecco"
            },
            {
              "authorId": "1410773966",
              "name": "N."
            },
            {
              "authorId": "2072081600",
              "name": "Davidson"
            },
            {
              "authorId": "2248664959",
              "name": "M. H."
            },
            {
              "authorId": "1599497611",
              "name": "Sobell"
            },
            {
              "authorId": "91613396",
              "name": "J. Wooley"
            },
            {
              "authorId": "2270230391",
              "name": "M. D."
            },
            {
              "authorId": "2263625619",
              "name": "Lilley"
            },
            {
              "authorId": "1476369752",
              "name": "W."
            },
            {
              "authorId": "120988579",
              "name": "Keller"
            },
            {
              "authorId": "46325890",
              "name": "C. L. Coulter"
            }
          ],
          "abstract": null
        },
        {
          "paperId": "be0415674b9ed969611cd40e9197990cf88e4fe1",
          "externalIds": {
            "MAG": "2079517074",
            "DOI": "10.1002/J.1537-2197.1983.TB07862.X",
            "CorpusId": 84949220
          },
          "url": "https://www.semanticscholar.org/paper/be0415674b9ed969611cd40e9197990cf88e4fe1",
          "title": "Structural changes occurring in nuclei of barley root cells in response to a combined effect of salinity and ageing",
          "venue": "",
          "year": 1983,
          "openAccessPdf": {
            "url": "",
            "status": "CLOSED",
            "license": null,
            "disclaimer": "Notice: The following paper fields have been elided by the publisher: {'abstract'}. Paper or abstract available at https://api.unpaywall.org/v2/10.1002/J.1537-2197.1983.TB07862.X?email=<INSERT_YOUR_EMAIL> or https://doi.org/10.1002/J.1537-2197.1983.TB07862.X, which is subject to the license by the author or copyright owner provided with this content. Please go to the source to verify the license and copyright information for your use."
          },
          "publicationTypes": null,
          "publicationDate": "1983-02-01",
          "journal": {
            "name": "American Journal of Botany",
            "pages": "222-225",
            "volume": "70"
          },
          "authors": [
            {
              "authorId": "46330161",
              "name": "E. Werker"
            },
            {
              "authorId": "88620128",
              "name": "Lerner R. Weimberg"
            },
            {
              "authorId": "1405653567",
              "name": "A. Poljakoff-mayber"
            }
          ],
          "abstract": null
        }
      ]
    }
  },
  "crossref": {
    "error": "",
    "metadata": null,
    "accepted_score": null,
    "accepted": false
  },
  "supplement_parent": null,
  "artifacts": {
    "record_path": "/Users/brandani/Dropbox/documents/library/paper_index/records/sha256-4aeaf6a83ec37fa7.json",
    "text_path": "/Users/brandani/Dropbox/documents/library/paper_index/text/sha256-4aeaf6a83ec37fa7.txt",
    "chunk_path": "/Users/brandani/Dropbox/documents/library/paper_index/chunks/sha256-4aeaf6a83ec37fa7.jsonl",
    "master_index": "/Users/brandani/Dropbox/documents/library/paper_index/master_index.tsv",
    "master_bib": "/Users/brandani/Dropbox/documents/library/paper_index/master.bib",
    "text_kind": "pdf_text"
  },
  "text_extraction": {
    "status": "ok",
    "error": "",
    "text_sha256": "4732d0094edfbdae8c9951f4c4db589c931f515dc1bb0e5397dcf9f279fd21be",
    "chunk_count": 10,
    "chunk_target_chars": 2200,
    "chunk_overlap_chars": 250,
    "converter": "/Users/brandani/Dropbox/scripts/pdf2text.py"
  },
  "manual_override": {
    "title": "Spheroid Chromatin Units (ν Bodies)",
    "authors": "Olins, Ada L., Olins, Donald E.",
    "year": "1974",
    "venue": "Science",
    "doi": "10.1126/science.183.4122.330",
    "url": "https://www.science.org/doi/10.1126/science.183.4122.330",
    "abstract": "Linear arrays of spherical chromatin particles (v bodies) about 70 angstroms in diameter have been observed in preparations of isolated eukaryotic nuclei swollen in water, centrifuged onto carbon films, and positively or negatively stained. These bodies have been found in isolated rat thymus, rat liver, and chicken erythrocyte nuclei. Favorable views also reveal connecting strands about 15 angstroms wide between adjacent particles.",
    "source_urls": [
      "https://www.science.org/doi/10.1126/science.183.4122.330"
    ],
    "source_note": "zotero_bib_verified_match:olins_spheroid_1974 score=1.9300 reason=doi+title+year",
    "bibtex_key": "olins1974spheroid",
    "zotero_key": "olins_spheroid_1974"
  },
  "content_kind": "pdf_backed"
}
