{
  "paper_id": "sha256-a10199c7fb683d10",
  "library_root": "/Users/brandani/Dropbox/documents/library",
  "pdf_path": "/Users/brandani/Dropbox/documents/library/articles/nucleosome_positioning/Widom - PNAS 2013 - Organization of spacer DNA in chromatin.pdf",
  "pdf_sha256": "a10199c7fb683d10d1339c275478b5754790284e2abe3a48b9b5c1ee5af58f71",
  "filename": "Widom - PNAS 2013 - Organization of spacer DNA in chromatin.pdf",
  "item_type": "article",
  "title_query": "Organization of spacer DNA in chromatin",
  "filename_hints": {
    "year_hint": null,
    "venue_hint": "",
    "prefix": "Widom"
  },
  "doi_candidates": [
    "10.1073/pnas.1315809110"
  ],
  "date_indexed": "2026-04-17T03:34:20.224567+00:00",
  "match_status": "matched",
  "match_confidence": 0.92,
  "warnings": [],
  "crossref_warnings": [],
  "metadata_source": "semantic_scholar",
  "semantic_scholar": {
    "query": "Organization of spacer DNA in chromatin",
    "limit": 10,
    "api_error": "",
    "best_candidate": {
      "paperId": "2062a50d13ce3398ce1fa2890035a178804d4539",
      "externalIds": {
        "MAG": "2000423660",
        "DOI": "10.1073/PNAS.76.12.6326",
        "CorpusId": 29400763,
        "PubMed": "392519"
      },
      "url": "https://www.semanticscholar.org/paper/2062a50d13ce3398ce1fa2890035a178804d4539",
      "title": "Organization of spacer DNA in chromatin.",
      "venue": "Proceedings of the National Academy of Sciences of the United States of America",
      "year": 1979,
      "openAccessPdf": {
        "url": "https://europepmc.org/articles/pmc411857?pdf=render",
        "status": "GREEN",
        "license": null,
        "disclaimer": "Notice: The following paper fields have been elided by the publisher: {'abstract'}. Paper or abstract available at https://api.unpaywall.org/v2/10.1073/PNAS.76.12.6326?email=<INSERT_YOUR_EMAIL> or https://doi.org/10.1073/PNAS.76.12.6326, which is subject to the license by the author or copyright owner provided with this content. Please go to the source to verify the license and copyright information for your use."
      },
      "publicationTypes": [
        "JournalArticle"
      ],
      "publicationDate": "1979-12-01",
      "journal": {
        "name": "Proceedings of the National Academy of Sciences of the United States of America",
        "pages": "\n          6326-30\n        ",
        "volume": "76 12"
      },
      "authors": [
        {
          "authorId": "144166115",
          "name": "D. Lohr"
        },
        {
          "authorId": "2708834",
          "name": "K. V. van Holde"
        }
      ],
      "abstract": null
    },
    "candidate_scores": [
      {
        "paper_id": "2062a50d13ce3398ce1fa2890035a178804d4539",
        "title": "Organization of spacer DNA in chromatin.",
        "score": 0.92,
        "title_similarity": 1.0,
        "query_year": 2013,
        "candidate_year": 1979,
        "year_bonus": -0.08,
        "author_bonus": 0.0,
        "venue_penalty": 0.0
      },
      {
        "paper_id": "eebeb5793cbe40f6155c7ba6f7338defee17f7dc",
        "title": "Organization of nucleosomes and spacer DNA in chromatin fibres",
        "score": 0.8033,
        "title_similarity": 0.8833,
        "query_year": 2013,
        "candidate_year": 1980,
        "year_bonus": -0.08,
        "author_bonus": 0.0,
        "venue_penalty": 0.0
      },
      {
        "paper_id": "a203043f6cdd9a4a236e9cdb34a8dbb3d8dcab7d",
        "title": "Alignment of nucleosomes along DNA and organization of spacer DNA in Drosophila chromatin.",
        "score": 0.745,
        "title_similarity": 0.825,
        "query_year": 2013,
        "candidate_year": 1982,
        "year_bonus": -0.08,
        "author_bonus": 0.0,
        "venue_penalty": 0.0
      },
      {
        "paper_id": "0503d92c3b6d8e70d4339d11631fac50727117e2",
        "title": "[Chromatin structure of ribosomal genes of Drosophila melanogaster. Random location of nucleosomes in DNA and characteristics of organization of non-transcribed spacer].",
        "score": 0.6633,
        "title_similarity": 0.7433,
        "query_year": 2013,
        "candidate_year": 1984,
        "year_bonus": -0.08,
        "author_bonus": 0.0,
        "venue_penalty": 0.0
      },
      {
        "paper_id": "82d4fc9fd86dbe04e333fd3b8cc8b8951dbce019",
        "title": "Detailed Analysis of the Nucleosomal Organization of Transcribed DNA in Yeast Chromatin",
        "score": 0.5242,
        "title_similarity": 0.6042,
        "query_year": 2013,
        "candidate_year": 1981,
        "year_bonus": -0.08,
        "author_bonus": 0.0,
        "venue_penalty": 0.0
      },
      {
        "paper_id": "5539018a59b096becd9476cb0fedc536a93790b6",
        "title": "Detailed analysis of the nucleosomal organization of transcribed DNA in yeast chromatin.",
        "score": 0.5242,
        "title_similarity": 0.6042,
        "query_year": 2013,
        "candidate_year": 1981,
        "year_bonus": -0.08,
        "author_bonus": 0.0,
        "venue_penalty": 0.0
      },
      {
        "paper_id": "4edef3544373043e4b96a904069ff05c2aef93d0",
        "title": "Structural organization of spacer chromatin between transcribed ribosomal RNA genes in amphibian oocytes.",
        "score": 0.495,
        "title_similarity": 0.575,
        "query_year": 2013,
        "candidate_year": 1980,
        "year_bonus": -0.08,
        "author_bonus": 0.0,
        "venue_penalty": 0.0
      },
      {
        "paper_id": "502e295f0f12c0b201c951166747bb7b8056a663",
        "title": "Organization of the higher-order chromatin loop: specific DNA attachment sites on nuclear scaffold.",
        "score": 0.495,
        "title_similarity": 0.575,
        "query_year": 2013,
        "candidate_year": 1984,
        "year_bonus": -0.08,
        "author_bonus": 0.0,
        "venue_penalty": 0.0
      },
      {
        "paper_id": "c237849c31fdfb759fd184faf88450f09d666f59",
        "title": "Analysis of subunit organization in chicken erythrocyte chromatin.",
        "score": 0.3325,
        "title_similarity": 0.4125,
        "query_year": 2013,
        "candidate_year": 1976,
        "year_bonus": -0.08,
        "author_bonus": 0.0,
        "venue_penalty": 0.0
      },
      {
        "paper_id": "6b73d01907616bca46e865b6ed003bfbaff38909",
        "title": "Virogenic BrdU and BrdU-sensitive DNA sequences are disproportionately concentrated in the template-active chromatin of rat embryo cells.",
        "score": 0.2888,
        "title_similarity": 0.3688,
        "query_year": 2013,
        "candidate_year": 1979,
        "year_bonus": -0.08,
        "author_bonus": 0.0,
        "venue_penalty": 0.0
      }
    ],
    "candidate_dois": [
      "10.1073/pnas.76.12.6326"
    ],
    "matching_extracted_doi": "",
    "raw_response": {
      "total": 446,
      "offset": 0,
      "next": 10,
      "data": [
        {
          "paperId": "2062a50d13ce3398ce1fa2890035a178804d4539",
          "externalIds": {
            "MAG": "2000423660",
            "DOI": "10.1073/PNAS.76.12.6326",
            "CorpusId": 29400763,
            "PubMed": "392519"
          },
          "url": "https://www.semanticscholar.org/paper/2062a50d13ce3398ce1fa2890035a178804d4539",
          "title": "Organization of spacer DNA in chromatin.",
          "venue": "Proceedings of the National Academy of Sciences of the United States of America",
          "year": 1979,
          "openAccessPdf": {
            "url": "https://europepmc.org/articles/pmc411857?pdf=render",
            "status": "GREEN",
            "license": null,
            "disclaimer": "Notice: The following paper fields have been elided by the publisher: {'abstract'}. Paper or abstract available at https://api.unpaywall.org/v2/10.1073/PNAS.76.12.6326?email=<INSERT_YOUR_EMAIL> or https://doi.org/10.1073/PNAS.76.12.6326, which is subject to the license by the author or copyright owner provided with this content. Please go to the source to verify the license and copyright information for your use."
          },
          "publicationTypes": [
            "JournalArticle"
          ],
          "publicationDate": "1979-12-01",
          "journal": {
            "name": "Proceedings of the National Academy of Sciences of the United States of America",
            "pages": "\n          6326-30\n        ",
            "volume": "76 12"
          },
          "authors": [
            {
              "authorId": "144166115",
              "name": "D. Lohr"
            },
            {
              "authorId": "2708834",
              "name": "K. V. van Holde"
            }
          ],
          "abstract": null
        },
        {
          "paperId": "a203043f6cdd9a4a236e9cdb34a8dbb3d8dcab7d",
          "externalIds": {
            "MAG": "2005575556",
            "DOI": "10.1093/NAR/10.14.4321",
            "CorpusId": 32884275,
            "PubMed": "6812025"
          },
          "url": "https://www.semanticscholar.org/paper/a203043f6cdd9a4a236e9cdb34a8dbb3d8dcab7d",
          "title": "Alignment of nucleosomes along DNA and organization of spacer DNA in Drosophila chromatin.",
          "venue": "Nucleic Acids Research",
          "year": 1982,
          "openAccessPdf": {
            "url": "https://www.ncbi.nlm.nih.gov/pmc/articles/PMC320802",
            "status": "GREEN",
            "license": null,
            "disclaimer": "Notice: The following paper fields have been elided by the publisher: {'abstract'}. Paper or abstract available at https://api.unpaywall.org/v2/10.1093/NAR/10.14.4321?email=<INSERT_YOUR_EMAIL> or https://doi.org/10.1093/NAR/10.14.4321, which is subject to the license by the author or copyright owner provided with this content. Please go to the source to verify the license and copyright information for your use."
          },
          "publicationTypes": [
            "JournalArticle"
          ],
          "publicationDate": "1982-07-24",
          "journal": {
            "name": "Nucleic acids research",
            "pages": "\n          4321-37\n        ",
            "volume": "10 14"
          },
          "authors": [
            {
              "authorId": "121102127",
              "name": "V. Karpov"
            },
            {
              "authorId": "6032646",
              "name": "S. Bavykin"
            },
            {
              "authorId": "3578632",
              "name": "O. Preobrazhenskaya"
            },
            {
              "authorId": "4329368",
              "name": "A. Belyavsky"
            },
            {
              "authorId": "1852464",
              "name": "A. Mirzabekov"
            }
          ],
          "abstract": null
        },
        {
          "paperId": "eebeb5793cbe40f6155c7ba6f7338defee17f7dc",
          "externalIds": {
            "MAG": "1997481457",
            "DOI": "10.1016/0141-8130(80)90033-1",
            "CorpusId": 95155683
          },
          "url": "https://www.semanticscholar.org/paper/eebeb5793cbe40f6155c7ba6f7338defee17f7dc",
          "title": "Organization of nucleosomes and spacer DNA in chromatin fibres",
          "venue": "",
          "year": 1980,
          "openAccessPdf": {
            "url": "",
            "status": "CLOSED",
            "license": null,
            "disclaimer": "Notice: The following paper fields have been elided by the publisher: {'abstract'}. Paper or abstract available at https://api.unpaywall.org/v2/10.1016/0141-8130(80)90033-1?email=<INSERT_YOUR_EMAIL> or https://doi.org/10.1016/0141-8130(80)90033-1, which is subject to the license by the author or copyright owner provided with this content. Please go to the source to verify the license and copyright information for your use."
          },
          "publicationTypes": null,
          "publicationDate": "1980-04-01",
          "journal": {
            "name": "International Journal of Biological Macromolecules",
            "pages": "81-92",
            "volume": "2"
          },
          "authors": [
            {
              "authorId": "40291609",
              "name": "F. Azorín"
            },
            {
              "authorId": "2111088905",
              "name": "Antonio B. Martínez"
            },
            {
              "authorId": "3340030",
              "name": "J. A. Subirana"
            }
          ],
          "abstract": null
        },
        {
          "paperId": "4edef3544373043e4b96a904069ff05c2aef93d0",
          "externalIds": {
            "MAG": "2411269421",
            "CorpusId": 45812371,
            "PubMed": "7193136"
          },
          "url": "https://www.semanticscholar.org/paper/4edef3544373043e4b96a904069ff05c2aef93d0",
          "title": "Structural organization of spacer chromatin between transcribed ribosomal RNA genes in amphibian oocytes.",
          "venue": "European Journal of Cell Biology",
          "year": 1980,
          "openAccessPdf": {
            "url": "",
            "status": null,
            "license": null,
            "disclaimer": "Notice: The following paper fields have been elided by the publisher: {'abstract'}. Paper or abstract available at https://opus.bibliothek.uni-wuerzburg.de/opus4-wuerzburg/frontdoor/deliver/index/docId/3614/file/Scheer_Spacer_chromatin.pdf, which is subject to the license by the author or copyright owner provided with this content. Please go to the source to verify the license and copyright information for your use."
          },
          "publicationTypes": [
            "JournalArticle"
          ],
          "publicationDate": "1980-12-01",
          "journal": {
            "name": "European journal of cell biology",
            "pages": "\n          189-96\n        ",
            "volume": "23 1"
          },
          "authors": [
            {
              "authorId": "6594720",
              "name": "U. Scheer"
            }
          ],
          "abstract": null
        },
        {
          "paperId": "82d4fc9fd86dbe04e333fd3b8cc8b8951dbce019",
          "externalIds": {
            "MAG": "1977096177",
            "DOI": "10.1021/BI00524A007",
            "CorpusId": 94163314
          },
          "url": "https://www.semanticscholar.org/paper/82d4fc9fd86dbe04e333fd3b8cc8b8951dbce019",
          "title": "Detailed Analysis of the Nucleosomal Organization of Transcribed DNA in Yeast Chromatin",
          "venue": "",
          "year": 1981,
          "openAccessPdf": {
            "url": "",
            "status": "CLOSED",
            "license": null,
            "disclaimer": "Notice: The following paper fields have been elided by the publisher: {'abstract'}. Paper or abstract available at https://api.unpaywall.org/v2/10.1021/BI00524A007?email=<INSERT_YOUR_EMAIL> or https://doi.org/10.1021/BI00524A007, which is subject to the license by the author or copyright owner provided with this content. Please go to the source to verify the license and copyright information for your use."
          },
          "publicationTypes": null,
          "publicationDate": "1981-10-13",
          "journal": {
            "name": "Biochemistry",
            "pages": "5966-5972",
            "volume": "20"
          },
          "authors": [
            {
              "authorId": "2000972089",
              "name": "Lohr De"
            }
          ],
          "abstract": null
        },
        {
          "paperId": "5539018a59b096becd9476cb0fedc536a93790b6",
          "externalIds": {
            "CorpusId": 25807096,
            "PubMed": "6272832"
          },
          "url": "https://www.semanticscholar.org/paper/5539018a59b096becd9476cb0fedc536a93790b6",
          "title": "Detailed analysis of the nucleosomal organization of transcribed DNA in yeast chromatin.",
          "venue": "Biochemistry",
          "year": 1981,
          "openAccessPdf": {
            "url": "",
            "status": null,
            "license": null
          },
          "publicationTypes": [
            "JournalArticle"
          ],
          "publicationDate": null,
          "journal": {
            "name": "Biochemistry",
            "pages": "\n          5966-72\n        ",
            "volume": "20 21"
          },
          "authors": [
            {
              "authorId": "144166115",
              "name": "D. Lohr"
            }
          ],
          "abstract": null
        },
        {
          "paperId": "0503d92c3b6d8e70d4339d11631fac50727117e2",
          "externalIds": {
            "MAG": "2404616989",
            "CorpusId": 34181340,
            "PubMed": "6095027"
          },
          "url": "https://www.semanticscholar.org/paper/0503d92c3b6d8e70d4339d11631fac50727117e2",
          "title": "[Chromatin structure of ribosomal genes of Drosophila melanogaster. Random location of nucleosomes in DNA and characteristics of organization of non-transcribed spacer].",
          "venue": "Молекулярная биология",
          "year": 1984,
          "openAccessPdf": {
            "url": "",
            "status": null,
            "license": null
          },
          "publicationTypes": [
            "JournalArticle"
          ],
          "publicationDate": "1984-07-01",
          "journal": {
            "name": "Molekuliarnaia biologiia",
            "pages": "\n          1141-50\n        ",
            "volume": "18 4"
          },
          "authors": [
            {
              "authorId": "12811664",
              "name": "A. M. Kolchinskiĭ"
            },
            {
              "authorId": "143920081",
              "name": "R. Vashakidze"
            },
            {
              "authorId": "3628728",
              "name": "O. Preobrazhenskaia"
            },
            {
              "authorId": "121102127",
              "name": "V. Karpov"
            },
            {
              "authorId": "1852464",
              "name": "A. Mirzabekov"
            }
          ],
          "abstract": null
        },
        {
          "paperId": "502e295f0f12c0b201c951166747bb7b8056a663",
          "externalIds": {
            "MAG": "2043734426",
            "DOI": "10.1016/0092-8674(84)90208-3",
            "CorpusId": 24634819,
            "PubMed": "6091913"
          },
          "url": "https://www.semanticscholar.org/paper/502e295f0f12c0b201c951166747bb7b8056a663",
          "title": "Organization of the higher-order chromatin loop: specific DNA attachment sites on nuclear scaffold.",
          "venue": "Cell",
          "year": 1984,
          "openAccessPdf": {
            "url": "",
            "status": "CLOSED",
            "license": null,
            "disclaimer": "Notice: The following paper fields have been elided by the publisher: {'abstract'}. Paper or abstract available at https://api.unpaywall.org/v2/10.1016/0092-8674(84)90208-3?email=<INSERT_YOUR_EMAIL> or https://doi.org/10.1016/0092-8674(84)90208-3, which is subject to the license by the author or copyright owner provided with this content. Please go to the source to verify the license and copyright information for your use."
          },
          "publicationTypes": [
            "JournalArticle"
          ],
          "publicationDate": "1984-11-01",
          "journal": {
            "name": "Cell",
            "pages": "\n          223-32\n        ",
            "volume": "39 1"
          },
          "authors": [
            {
              "authorId": "4962509",
              "name": "J. Mirkovitch"
            },
            {
              "authorId": "144893243",
              "name": "M. Mirault"
            },
            {
              "authorId": "2662472",
              "name": "U. Laemmli"
            }
          ],
          "abstract": null
        },
        {
          "paperId": "c237849c31fdfb759fd184faf88450f09d666f59",
          "externalIds": {
            "MAG": "2032864021",
            "DOI": "10.1073/PNAS.73.2.505",
            "CorpusId": 13448161,
            "PubMed": "1061151"
          },
          "url": "https://www.semanticscholar.org/paper/c237849c31fdfb759fd184faf88450f09d666f59",
          "title": "Analysis of subunit organization in chicken erythrocyte chromatin.",
          "venue": "Proceedings of the National Academy of Sciences of the United States of America",
          "year": 1976,
          "openAccessPdf": {
            "url": "https://europepmc.org/articles/pmc335938?pdf=render",
            "status": "GREEN",
            "license": null,
            "disclaimer": "Notice: The following paper fields have been elided by the publisher: {'abstract'}. Paper or abstract available at https://api.unpaywall.org/v2/10.1073/PNAS.73.2.505?email=<INSERT_YOUR_EMAIL> or https://doi.org/10.1073/PNAS.73.2.505, which is subject to the license by the author or copyright owner provided with this content. Please go to the source to verify the license and copyright information for your use."
          },
          "publicationTypes": [
            "JournalArticle"
          ],
          "publicationDate": "1976-02-01",
          "journal": {
            "name": "Proceedings of the National Academy of Sciences of the United States of America",
            "pages": "\n          505-9\n        ",
            "volume": "73 2"
          },
          "authors": [
            {
              "authorId": "36540875",
              "name": "B. Shaw"
            },
            {
              "authorId": "49292415",
              "name": "T. Herman"
            },
            {
              "authorId": "3165592",
              "name": "R. Kovacic"
            },
            {
              "authorId": "10124868",
              "name": "G. Beaudreau"
            },
            {
              "authorId": "2708834",
              "name": "K. V. van Holde"
            }
          ],
          "abstract": null
        },
        {
          "paperId": "6b73d01907616bca46e865b6ed003bfbaff38909",
          "externalIds": {
            "MAG": "1982325099",
            "DOI": "10.1093/NAR/6.2.745",
            "CorpusId": 23045551,
            "PubMed": "424312"
          },
          "url": "https://www.semanticscholar.org/paper/6b73d01907616bca46e865b6ed003bfbaff38909",
          "title": "Virogenic BrdU and BrdU-sensitive DNA sequences are disproportionately concentrated in the template-active chromatin of rat embryo cells.",
          "venue": "Nucleic Acids Research",
          "year": 1979,
          "openAccessPdf": {
            "url": "https://europepmc.org/articles/pmc327725?pdf=render",
            "status": "GREEN",
            "license": null,
            "disclaimer": "Notice: The following paper fields have been elided by the publisher: {'abstract'}. Paper or abstract available at https://api.unpaywall.org/v2/10.1093/NAR/6.2.745?email=<INSERT_YOUR_EMAIL> or https://doi.org/10.1093/NAR/6.2.745, which is subject to the license by the author or copyright owner provided with this content. Please go to the source to verify the license and copyright information for your use."
          },
          "publicationTypes": [
            "JournalArticle"
          ],
          "publicationDate": "1979-02-01",
          "journal": {
            "name": "Nucleic acids research",
            "pages": "\n          745-55\n        ",
            "volume": "6 2"
          },
          "authors": [
            {
              "authorId": "2603023",
              "name": "S. A. Schwartz"
            }
          ],
          "abstract": null
        }
      ]
    }
  },
  "crossref": {
    "error": "",
    "metadata": null
  },
  "artifacts": {
    "record_path": "/Users/brandani/Dropbox/documents/library/paper_index/records/sha256-a10199c7fb683d10.json",
    "text_path": "/Users/brandani/Dropbox/documents/library/paper_index/text/sha256-a10199c7fb683d10.txt",
    "chunk_path": "/Users/brandani/Dropbox/documents/library/paper_index/chunks/sha256-a10199c7fb683d10.jsonl",
    "master_index": "/Users/brandani/Dropbox/documents/library/paper_index/master_index.tsv",
    "master_bib": "/Users/brandani/Dropbox/documents/library/paper_index/master.bib",
    "text_kind": "pdf_text"
  },
  "text_extraction": {
    "status": "ok",
    "error": "",
    "text_sha256": "cf0babcc46696a2b25ca26d32a1f7fa6c92b7d0f394a9b1ae5314c2646d73fca",
    "chunk_count": 21,
    "chunk_target_chars": 2200,
    "chunk_overlap_chars": 250,
    "converter": "/Users/brandani/Dropbox/scripts/pdf2text.py"
  },
  "content_kind": "pdf_backed"
}
