{
  "paper_id": "sha256-431c498a0d06775b",
  "library_root": "/Users/brandani/Dropbox/documents/library",
  "pdf_path": "/Users/brandani/Dropbox/documents/library/articles/protein_folding_and_design/Protein Supersecondary Structures.pdf",
  "pdf_sha256": "431c498a0d06775ba18a0d210a8524c1d9cb5b5da2e74bb4b1d5ad2795177959",
  "filename": "Protein Supersecondary Structures.pdf",
  "item_type": "article",
  "title_query": "Protein Supersecondary Structures",
  "filename_hints": {
    "year_hint": null,
    "venue_hint": "",
    "prefix": "Protein Supersecondary Structures"
  },
  "doi_candidates": [
    "10.1007/978-1-4939-9161-7"
  ],
  "date_indexed": "2026-04-17T03:37:03.003849+00:00",
  "match_status": "matched",
  "match_confidence": 1.0,
  "warnings": [],
  "crossref_warnings": [],
  "metadata_source": "semantic_scholar",
  "semantic_scholar": {
    "query": "Protein Supersecondary Structures",
    "limit": 10,
    "api_error": "",
    "best_candidate": {
      "paperId": "b84958d88cbd049c88cdc9eb31387cb6fcd86d44",
      "externalIds": {
        "DOI": "10.1007/978-1-4939-9161-7",
        "CorpusId": 93003273
      },
      "url": "https://www.semanticscholar.org/paper/b84958d88cbd049c88cdc9eb31387cb6fcd86d44",
      "title": "Protein Supersecondary Structures",
      "venue": "Methods in Molecular Biology",
      "year": 2019,
      "openAccessPdf": {
        "url": "",
        "status": "CLOSED",
        "license": null,
        "disclaimer": "Notice: The following paper fields have been elided by the publisher: {'abstract'}. Paper or abstract available at https://api.unpaywall.org/v2/10.1007/978-1-4939-9161-7?email=<INSERT_YOUR_EMAIL> or https://doi.org/10.1007/978-1-4939-9161-7, which is subject to the license by the author or copyright owner provided with this content. Please go to the source to verify the license and copyright information for your use."
      },
      "publicationTypes": [
        "Review"
      ],
      "publicationDate": null,
      "journal": {
        "name": "Methods in Molecular Biology"
      },
      "authors": [
        {
          "authorId": "144896018",
          "name": "A. Kister"
        }
      ],
      "abstract": null
    },
    "candidate_scores": [
      {
        "paper_id": "b84958d88cbd049c88cdc9eb31387cb6fcd86d44",
        "title": "Protein Supersecondary Structures",
        "score": 1.0,
        "title_similarity": 1.0,
        "query_year": null,
        "candidate_year": 2019,
        "year_bonus": 0.0,
        "author_bonus": 0.0,
        "venue_penalty": 0.0
      },
      {
        "paper_id": "d6e64d364af6c9a4c9a5b5b7a6478c08571e3c57",
        "title": "Protein Supersecondary Structures",
        "score": 1.0,
        "title_similarity": 1.0,
        "query_year": null,
        "candidate_year": 2013,
        "year_bonus": 0.0,
        "author_bonus": 0.0,
        "venue_penalty": 0.0
      },
      {
        "paper_id": "34e2cacc67930ab39077335a9e5d74fa38cf4f5d",
        "title": "Advances in Prediction of Posttranslational Modification Sites Known to Localize in Protein Supersecondary Structures.",
        "score": 0.92,
        "title_similarity": 0.92,
        "query_year": null,
        "candidate_year": 2025,
        "year_bonus": 0.0,
        "author_bonus": 0.0,
        "venue_penalty": 0.0
      },
      {
        "paper_id": "1b3eeafc134bfaf2832add1389264e1e2a3f360d",
        "title": "Protein Supersecondary Structures: Methods and Protocols",
        "score": 0.92,
        "title_similarity": 0.92,
        "query_year": null,
        "candidate_year": 2025,
        "year_bonus": 0.0,
        "author_bonus": 0.0,
        "venue_penalty": 0.0
      },
      {
        "paper_id": "23c84de4ca53b6b9a3c323e1b23c05c8701a4f17",
        "title": "Information-Theoretic Inference of an Optimal Dictionary of Protein Supersecondary Structures.",
        "score": 0.92,
        "title_similarity": 0.92,
        "query_year": null,
        "candidate_year": 2019,
        "year_bonus": 0.0,
        "author_bonus": 0.0,
        "venue_penalty": 0.0
      },
      {
        "paper_id": "74c5a2adf86e6bf45b059d7bb7cb18a8af22ad7d",
        "title": "Prediction of protein supersecondary structures based on the artificial neural network method.",
        "score": 0.92,
        "title_similarity": 0.92,
        "query_year": null,
        "candidate_year": 1997,
        "year_bonus": 0.0,
        "author_bonus": 0.0,
        "venue_penalty": 0.0
      },
      {
        "paper_id": "f7c3e1f6e6a4d244a6588e4458a6d5d94dbf995a",
        "title": "Asymmetric protein design from conserved supersecondary structures.",
        "score": 0.825,
        "title_similarity": 0.825,
        "query_year": null,
        "candidate_year": 2018,
        "year_bonus": 0.0,
        "author_bonus": 0.0,
        "venue_penalty": 0.0
      },
      {
        "paper_id": "e701f932bc6d00ff77b035f3008f97e7266c6ed8",
        "title": "Computational Prediction of Secondary and Supersecondary Structures from Protein Sequences.",
        "score": 0.8,
        "title_similarity": 0.8,
        "query_year": null,
        "candidate_year": 2019,
        "year_bonus": 0.0,
        "author_bonus": 0.0,
        "venue_penalty": 0.0
      },
      {
        "paper_id": "efd58dc591a9e696c60041029ec8667943c459a0",
        "title": "Recent Advances in Computational Prediction of Secondary and Supersecondary Structures from Protein Sequences.",
        "score": 0.7667,
        "title_similarity": 0.7667,
        "query_year": null,
        "candidate_year": 2025,
        "year_bonus": 0.0,
        "author_bonus": 0.0,
        "venue_penalty": 0.0
      },
      {
        "paper_id": "7c0506c16c2be23093b76597f684dded9615aa23",
        "title": "Statistical Analysis of Walker-A Motif-Containing β-α-β Supersecondary Structures in the Protein Data Bank.",
        "score": 0.755,
        "title_similarity": 0.755,
        "query_year": null,
        "candidate_year": 2025,
        "year_bonus": 0.0,
        "author_bonus": 0.0,
        "venue_penalty": 0.0
      }
    ],
    "candidate_dois": [
      "10.1007/978-1-4939-9161-7"
    ],
    "matching_extracted_doi": "10.1007/978-1-4939-9161-7",
    "raw_response": {
      "total": 790709,
      "offset": 0,
      "next": 10,
      "data": [
        {
          "paperId": "34e2cacc67930ab39077335a9e5d74fa38cf4f5d",
          "externalIds": {
            "DOI": "10.1007/978-1-0716-4213-9_8",
            "CorpusId": 274055454,
            "PubMed": "39543034"
          },
          "url": "https://www.semanticscholar.org/paper/34e2cacc67930ab39077335a9e5d74fa38cf4f5d",
          "title": "Advances in Prediction of Posttranslational Modification Sites Known to Localize in Protein Supersecondary Structures.",
          "venue": "Methods in molecular biology",
          "year": 2025,
          "openAccessPdf": {
            "url": "",
            "status": null,
            "license": null,
            "disclaimer": "Notice: The following paper fields have been elided by the publisher: {'abstract'}. Paper or abstract available at https://api.unpaywall.org/v2/10.1007/978-1-0716-4213-9_8?email=<INSERT_YOUR_EMAIL> or https://doi.org/10.1007/978-1-0716-4213-9_8, which is subject to the license by the author or copyright owner provided with this content. Please go to the source to verify the license and copyright information for your use."
          },
          "publicationTypes": [
            "JournalArticle"
          ],
          "publicationDate": null,
          "journal": {
            "name": "Methods in molecular biology",
            "pages": "\n          117-151\n        ",
            "volume": "2870"
          },
          "authors": [
            {
              "authorId": "2143258895",
              "name": "Pawel Pratyush"
            },
            {
              "authorId": "2322748780",
              "name": "Dukka B Kc"
            }
          ],
          "abstract": null
        },
        {
          "paperId": "1b3eeafc134bfaf2832add1389264e1e2a3f360d",
          "externalIds": {
            "DOI": "10.1007/978-1-0716-4213-9",
            "CorpusId": 274080108
          },
          "url": "https://www.semanticscholar.org/paper/1b3eeafc134bfaf2832add1389264e1e2a3f360d",
          "title": "Protein Supersecondary Structures: Methods and Protocols",
          "venue": "Methods in Molecular Biology",
          "year": 2025,
          "openAccessPdf": {
            "url": "",
            "status": null,
            "license": null,
            "disclaimer": "Notice: The following paper fields have been elided by the publisher: {'abstract'}. Paper or abstract available at https://api.unpaywall.org/v2/10.1007/978-1-0716-4213-9?email=<INSERT_YOUR_EMAIL> or https://doi.org/10.1007/978-1-0716-4213-9, which is subject to the license by the author or copyright owner provided with this content. Please go to the source to verify the license and copyright information for your use."
          },
          "publicationTypes": [
            "Book"
          ],
          "publicationDate": null,
          "journal": {
            "name": "Protein Supersecondary Structures"
          },
          "authors": [],
          "abstract": null
        },
        {
          "paperId": "23c84de4ca53b6b9a3c323e1b23c05c8701a4f17",
          "externalIds": {
            "MAG": "2932692990",
            "DOI": "10.1007/978-1-4939-9161-7_6",
            "CorpusId": 92997250,
            "PubMed": "30945216"
          },
          "url": "https://www.semanticscholar.org/paper/23c84de4ca53b6b9a3c323e1b23c05c8701a4f17",
          "title": "Information-Theoretic Inference of an Optimal Dictionary of Protein Supersecondary Structures.",
          "venue": "Methods in molecular biology",
          "year": 2019,
          "openAccessPdf": {
            "url": "",
            "status": "CLOSED",
            "license": null,
            "disclaimer": "Notice: The following paper fields have been elided by the publisher: {'abstract'}. Paper or abstract available at https://api.unpaywall.org/v2/10.1007/978-1-4939-9161-7_6?email=<INSERT_YOUR_EMAIL> or https://doi.org/10.1007/978-1-4939-9161-7_6, which is subject to the license by the author or copyright owner provided with this content. Please go to the source to verify the license and copyright information for your use."
          },
          "publicationTypes": [
            "JournalArticle"
          ],
          "publicationDate": null,
          "journal": {
            "name": "Methods in molecular biology",
            "pages": "\n          123-131\n        ",
            "volume": "1958"
          },
          "authors": [
            {
              "authorId": "2406428",
              "name": "A. S. Konagurthu"
            },
            {
              "authorId": "2066073911",
              "name": "R. Subramanian"
            },
            {
              "authorId": "144115495",
              "name": "L. Allison"
            },
            {
              "authorId": "2062933524",
              "name": "David Abramson"
            },
            {
              "authorId": "15450392",
              "name": "Maria Garcia de la Banda"
            },
            {
              "authorId": "1682747",
              "name": "Peter James Stuckey"
            },
            {
              "authorId": "1971879",
              "name": "A. Lesk"
            }
          ],
          "abstract": null
        },
        {
          "paperId": "b84958d88cbd049c88cdc9eb31387cb6fcd86d44",
          "externalIds": {
            "DOI": "10.1007/978-1-4939-9161-7",
            "CorpusId": 93003273
          },
          "url": "https://www.semanticscholar.org/paper/b84958d88cbd049c88cdc9eb31387cb6fcd86d44",
          "title": "Protein Supersecondary Structures",
          "venue": "Methods in Molecular Biology",
          "year": 2019,
          "openAccessPdf": {
            "url": "",
            "status": "CLOSED",
            "license": null,
            "disclaimer": "Notice: The following paper fields have been elided by the publisher: {'abstract'}. Paper or abstract available at https://api.unpaywall.org/v2/10.1007/978-1-4939-9161-7?email=<INSERT_YOUR_EMAIL> or https://doi.org/10.1007/978-1-4939-9161-7, which is subject to the license by the author or copyright owner provided with this content. Please go to the source to verify the license and copyright information for your use."
          },
          "publicationTypes": [
            "Review"
          ],
          "publicationDate": null,
          "journal": {
            "name": "Methods in Molecular Biology"
          },
          "authors": [
            {
              "authorId": "144896018",
              "name": "A. Kister"
            }
          ],
          "abstract": null
        },
        {
          "paperId": "efd58dc591a9e696c60041029ec8667943c459a0",
          "externalIds": {
            "DOI": "10.1007/978-1-0716-4213-9_1",
            "CorpusId": 274057695,
            "PubMed": "39543027"
          },
          "url": "https://www.semanticscholar.org/paper/efd58dc591a9e696c60041029ec8667943c459a0",
          "title": "Recent Advances in Computational Prediction of Secondary and Supersecondary Structures from Protein Sequences.",
          "venue": "Methods in molecular biology",
          "year": 2025,
          "openAccessPdf": {
            "url": "",
            "status": null,
            "license": null,
            "disclaimer": "Notice: The following paper fields have been elided by the publisher: {'abstract'}. Paper or abstract available at https://api.unpaywall.org/v2/10.1007/978-1-0716-4213-9_1?email=<INSERT_YOUR_EMAIL> or https://doi.org/10.1007/978-1-0716-4213-9_1, which is subject to the license by the author or copyright owner provided with this content. Please go to the source to verify the license and copyright information for your use."
          },
          "publicationTypes": [
            "JournalArticle",
            "Review"
          ],
          "publicationDate": null,
          "journal": {
            "name": "Methods in molecular biology",
            "pages": "\n          1-19\n        ",
            "volume": "2870"
          },
          "authors": [
            {
              "authorId": "2265617928",
              "name": "Jian Zhang"
            },
            {
              "authorId": "2320192056",
              "name": "Jingjing Qian"
            },
            {
              "authorId": "2330784627",
              "name": "Quan Zou"
            },
            {
              "authorId": "2110378420",
              "name": "Feng Zhou"
            },
            {
              "authorId": "2265573411",
              "name": "Lukasz Kurgan"
            }
          ],
          "abstract": null
        },
        {
          "paperId": "7c0506c16c2be23093b76597f684dded9615aa23",
          "externalIds": {
            "DOI": "10.1007/978-1-0716-4213-9_6",
            "CorpusId": 274057863,
            "PubMed": "39543032"
          },
          "url": "https://www.semanticscholar.org/paper/7c0506c16c2be23093b76597f684dded9615aa23",
          "title": "Statistical Analysis of Walker-A Motif-Containing β-α-β Supersecondary Structures in the Protein Data Bank.",
          "venue": "Methods in molecular biology",
          "year": 2025,
          "openAccessPdf": {
            "url": "",
            "status": null,
            "license": null,
            "disclaimer": "Notice: The following paper fields have been elided by the publisher: {'abstract'}. Paper or abstract available at https://api.unpaywall.org/v2/10.1007/978-1-0716-4213-9_6?email=<INSERT_YOUR_EMAIL> or https://doi.org/10.1007/978-1-0716-4213-9_6, which is subject to the license by the author or copyright owner provided with this content. Please go to the source to verify the license and copyright information for your use."
          },
          "publicationTypes": [
            "JournalArticle"
          ],
          "publicationDate": null,
          "journal": {
            "name": "Methods in molecular biology",
            "pages": "\n          79-93\n        ",
            "volume": "2870"
          },
          "authors": [
            {
              "authorId": "2023690642",
              "name": "K. Sakuma"
            },
            {
              "authorId": "47963685",
              "name": "G. Chikenji"
            },
            {
              "authorId": "2329567958",
              "name": "Motonori Ota"
            }
          ],
          "abstract": null
        },
        {
          "paperId": "74c5a2adf86e6bf45b059d7bb7cb18a8af22ad7d",
          "externalIds": {
            "MAG": "2160336700",
            "DOI": "10.1093/PROTEIN/10.7.763",
            "CorpusId": 15723423,
            "PubMed": "9342142"
          },
          "url": "https://www.semanticscholar.org/paper/74c5a2adf86e6bf45b059d7bb7cb18a8af22ad7d",
          "title": "Prediction of protein supersecondary structures based on the artificial neural network method.",
          "venue": "Protein Engineering",
          "year": 1997,
          "openAccessPdf": {
            "url": "https://academic.oup.com/peds/article-pdf/10/7/763/18541990/100763.pdf",
            "status": "BRONZE",
            "license": null,
            "disclaimer": "Notice: The following paper fields have been elided by the publisher: {'abstract'}. Paper or abstract available at https://api.unpaywall.org/v2/10.1093/PROTEIN/10.7.763?email=<INSERT_YOUR_EMAIL> or https://doi.org/10.1093/PROTEIN/10.7.763, which is subject to the license by the author or copyright owner provided with this content. Please go to the source to verify the license and copyright information for your use."
          },
          "publicationTypes": [
            "JournalArticle",
            "Study"
          ],
          "publicationDate": "1997-07-01",
          "journal": {
            "name": "Protein engineering",
            "pages": "\n          763-9\n        ",
            "volume": "10 7"
          },
          "authors": [
            {
              "authorId": "2107193537",
              "name": "Z. Sun"
            },
            {
              "authorId": "2228131706",
              "name": "Xiaoqian Rao"
            },
            {
              "authorId": "2207005859",
              "name": "Liwei Peng"
            },
            {
              "authorId": "2017568606",
              "name": "Dong Xu"
            }
          ],
          "abstract": null
        },
        {
          "paperId": "d6e64d364af6c9a4c9a5b5b7a6478c08571e3c57",
          "externalIds": {
            "MAG": "2506654724",
            "DOI": "10.1007/978-1-62703-065-6",
            "CorpusId": 3683759
          },
          "url": "https://www.semanticscholar.org/paper/d6e64d364af6c9a4c9a5b5b7a6478c08571e3c57",
          "title": "Protein Supersecondary Structures",
          "venue": "Methods in Molecular Biology",
          "year": 2013,
          "openAccessPdf": {
            "url": "",
            "status": "CLOSED",
            "license": null,
            "disclaimer": "Notice: The following paper fields have been elided by the publisher: {'abstract'}. Paper or abstract available at https://api.unpaywall.org/v2/10.1007/978-1-62703-065-6?email=<INSERT_YOUR_EMAIL> or https://doi.org/10.1007/978-1-62703-065-6, which is subject to the license by the author or copyright owner provided with this content. Please go to the source to verify the license and copyright information for your use."
          },
          "publicationTypes": null,
          "publicationDate": null,
          "journal": {
            "name": "",
            "volume": ""
          },
          "authors": [
            {
              "authorId": "144896018",
              "name": "A. Kister"
            }
          ],
          "abstract": null
        },
        {
          "paperId": "e701f932bc6d00ff77b035f3008f97e7266c6ed8",
          "externalIds": {
            "MAG": "2929802832",
            "DOI": "10.1007/978-1-4939-9161-7_4",
            "CorpusId": 92996382,
            "PubMed": "30945214"
          },
          "url": "https://www.semanticscholar.org/paper/e701f932bc6d00ff77b035f3008f97e7266c6ed8",
          "title": "Computational Prediction of Secondary and Supersecondary Structures from Protein Sequences.",
          "venue": "Methods in molecular biology",
          "year": 2019,
          "openAccessPdf": {
            "url": "",
            "status": "CLOSED",
            "license": null,
            "disclaimer": "Notice: The following paper fields have been elided by the publisher: {'abstract'}. Paper or abstract available at https://api.unpaywall.org/v2/10.1007/978-1-4939-9161-7_4?email=<INSERT_YOUR_EMAIL> or https://doi.org/10.1007/978-1-4939-9161-7_4, which is subject to the license by the author or copyright owner provided with this content. Please go to the source to verify the license and copyright information for your use."
          },
          "publicationTypes": [
            "JournalArticle",
            "Review"
          ],
          "publicationDate": null,
          "journal": {
            "name": "Methods in molecular biology",
            "pages": "\n          73-100\n        ",
            "volume": "1958"
          },
          "authors": [
            {
              "authorId": "3247807",
              "name": "C. Oldfield"
            },
            {
              "authorId": "37232338",
              "name": "Ke Chen"
            },
            {
              "authorId": "1721347",
              "name": "Lukasz Kurgan"
            }
          ],
          "abstract": null
        },
        {
          "paperId": "f7c3e1f6e6a4d244a6588e4458a6d5d94dbf995a",
          "externalIds": {
            "MAG": "2898392948",
            "DOI": "10.1016/j.jsb.2018.10.010",
            "CorpusId": 56169064,
            "PubMed": "30558718"
          },
          "url": "https://www.semanticscholar.org/paper/f7c3e1f6e6a4d244a6588e4458a6d5d94dbf995a",
          "title": "Asymmetric protein design from conserved supersecondary structures.",
          "venue": "Journal of Structural Biology",
          "year": 2018,
          "openAccessPdf": {
            "url": "https://doi.org/10.1016/j.jsb.2018.10.010",
            "status": "HYBRID",
            "license": "CCBY",
            "disclaimer": "Notice: Paper or abstract available at https://api.unpaywall.org/v2/10.1016/j.jsb.2018.10.010?email=<INSERT_YOUR_EMAIL> or https://doi.org/10.1016/j.jsb.2018.10.010, which is subject to the license by the author or copyright owner provided with this content. Please go to the source to verify the license and copyright information for your use."
          },
          "publicationTypes": [
            "JournalArticle"
          ],
          "publicationDate": "2018-10-26",
          "journal": {
            "name": "Journal of structural biology",
            "pages": "\n          380-387\n        ",
            "volume": "204 3"
          },
          "authors": [
            {
              "authorId": "1899133",
              "name": "M. ElGamacy"
            },
            {
              "authorId": "47946819",
              "name": "M. Coles"
            },
            {
              "authorId": "2471892",
              "name": "A. Lupas"
            }
          ],
          "abstract": "Computational design with supersecondary structures as building blocks has proven effective in the construction of new proteins with controlled geometries. So far, this approach has primarily exploited amplification, effectively harnessing the internal folding propensity of self-compatible fragments to achieve sufficient enthalpy for folding. Here we exploit an interface-driven strategy to depart from the repeat design realm, constructing an asymmetric, globular domain from heterologous supersecondary structures. We report the successful design of a dRP lyase domain fold, which agrees with the experimental NMR structure at atomic accuracy (backbone RMSD of 0.94 Å). Our results show that the residual folding information within conserved fragments, combined with efficient interface-directed sampling, can effectively yield globular proteins with novel sequences and biophysical properties."
        }
      ]
    }
  },
  "crossref": {
    "error": "",
    "metadata": null
  },
  "artifacts": {
    "record_path": "/Users/brandani/Dropbox/documents/library/paper_index/records/sha256-431c498a0d06775b.json",
    "text_path": "/Users/brandani/Dropbox/documents/library/paper_index/text/sha256-431c498a0d06775b.txt",
    "chunk_path": "/Users/brandani/Dropbox/documents/library/paper_index/chunks/sha256-431c498a0d06775b.jsonl",
    "master_index": "/Users/brandani/Dropbox/documents/library/paper_index/master_index.tsv",
    "master_bib": "/Users/brandani/Dropbox/documents/library/paper_index/master.bib",
    "text_kind": "pdf_text"
  },
  "text_extraction": {
    "status": "ok",
    "error": "",
    "text_sha256": "7778ee04b9c3e20799d1c3dc87ca67a9f6bc55f0ecf250f7e16ff001cd83b0fc",
    "chunk_count": 634,
    "chunk_target_chars": 2200,
    "chunk_overlap_chars": 250,
    "converter": "/Users/brandani/Dropbox/scripts/pdf2text.py"
  },
  "content_kind": "pdf_backed"
}
