{
  "paper_id": "sha256-fb171c7feca06121",
  "library_root": "/Users/brandani/Dropbox/documents/library",
  "pdf_path": "/Users/brandani/Dropbox/documents/library/articles/gene_regulation_mechanism/rodriguez-larson-2020-transcription-in-living-cells-molecular-mechanisms-of-bursting.pdf",
  "pdf_sha256": "fb171c7feca06121f42af9a59967a7bfaf5ee42fa24e5a91ac557483c85bb31f",
  "filename": "rodriguez-larson-2020-transcription-in-living-cells-molecular-mechanisms-of-bursting.pdf",
  "item_type": "article",
  "title_query": "transcription in living cells molecular mechanisms of bursting",
  "filename_hints": {
    "year_hint": 2020,
    "venue_hint": "",
    "prefix": "rodriguez-larson-2020-transcription-in-living-cells-molecular-mechanisms-of-bursting"
  },
  "doi_candidates": [
    "10.1146/annurev-biochem-011520105250"
  ],
  "date_indexed": "2026-04-17T03:32:06.540987+00:00",
  "match_status": "matched",
  "match_confidence": 1.0,
  "warnings": [],
  "crossref_warnings": [],
  "metadata_source": "semantic_scholar",
  "semantic_scholar": {
    "query": "transcription in living cells molecular mechanisms of bursting",
    "limit": 10,
    "api_error": "",
    "best_candidate": {
      "paperId": "f2da45580d7a28f179acdd38101a5fb97876e95f",
      "externalIds": {
        "MAG": "3013821085",
        "DOI": "10.1146/annurev-biochem-011520-105250",
        "CorpusId": 214643222,
        "PubMed": "32208766"
      },
      "url": "https://www.semanticscholar.org/paper/f2da45580d7a28f179acdd38101a5fb97876e95f",
      "title": "Transcription in Living Cells: Molecular Mechanisms of Bursting.",
      "venue": "Annual Review of Biochemistry",
      "year": 2020,
      "openAccessPdf": {
        "url": "",
        "status": null,
        "license": null,
        "disclaimer": "Notice: Paper or abstract available at https://api.unpaywall.org/v2/10.1146/annurev-biochem-011520-105250?email=<INSERT_YOUR_EMAIL> or https://doi.org/10.1146/annurev-biochem-011520-105250, which is subject to the license by the author or copyright owner provided with this content. Please go to the source to verify the license and copyright information for your use."
      },
      "publicationTypes": [
        "JournalArticle",
        "Review"
      ],
      "publicationDate": "2020-03-24",
      "journal": {
        "name": "Annual review of biochemistry"
      },
      "authors": [
        {
          "authorId": "40636188",
          "name": "Joseph Rodriguez"
        },
        {
          "authorId": "38868452",
          "name": "D. Larson"
        }
      ],
      "abstract": "Transcription in several organisms from certain bacteria to humans has been observed to be stochastic in nature: toggling between active and inactive states. Periods of active nascent RNA synthesis known as bursts represent individual gene activation events in which multiple polymerases are initiated. Therefore, bursting is the single locus illustration of both gene activation and repression. Although transcriptional bursting was originally observed decades ago, only recently have technological advances enabled the field to begin elucidating gene regulation at the single-locus level. In this review, we focus on how biochemical, genomic, and single-cell data describe the regulatory steps of transcriptional bursts. Expected final online publication date for the Annual Review of Biochemistry, Volume 89 is June 22, 2020. Please see http://www.annualreviews.org/page/journal/pubdates for revised estimates."
    },
    "candidate_scores": [
      {
        "paper_id": "f2da45580d7a28f179acdd38101a5fb97876e95f",
        "title": "Transcription in Living Cells: Molecular Mechanisms of Bursting.",
        "score": 1.0,
        "title_similarity": 1.0,
        "query_year": 2020,
        "candidate_year": 2020,
        "year_bonus": 0.08,
        "author_bonus": 0.04,
        "venue_penalty": 0.0
      },
      {
        "paper_id": "ae1c3fecc0fba8899cb4b14eff38371d1eab595d",
        "title": "Understanding the molecular mechanisms of transcriptional bursting.",
        "score": 0.4862,
        "title_similarity": 0.4562,
        "query_year": 2020,
        "candidate_year": 2021,
        "year_bonus": 0.03,
        "author_bonus": 0.0,
        "venue_penalty": 0.0
      },
      {
        "paper_id": "48861eb1421c6a60b3b1a1eccb1b95d7343cf40b",
        "title": "Task Group 7B: Cellular and Molecular Mechanisms of Biological Aging: The Roles of Nature, Nurture and Chance in the Maintenance of Human Healthspan",
        "score": 0.1735,
        "title_similarity": 0.2535,
        "query_year": 2020,
        "candidate_year": 2007,
        "year_bonus": -0.08,
        "author_bonus": 0.0,
        "venue_penalty": 0.0
      },
      {
        "paper_id": "3fa030a21cc797b941bbf03c0220dbb823160632",
        "title": "Translation dynamics of single mRNAs in live cells and neurons",
        "score": 0.0575,
        "title_similarity": 0.1375,
        "query_year": 2020,
        "candidate_year": 2016,
        "year_bonus": -0.08,
        "author_bonus": 0.0,
        "venue_penalty": 0.0
      },
      {
        "paper_id": "01e30b6211fd0bfdb06f5a31810670b5c910010c",
        "title": "Post-transcriptional bursting in genes regulated by small RNA molecules.",
        "score": 0.0553,
        "title_similarity": 0.1353,
        "query_year": 2020,
        "candidate_year": 2018,
        "year_bonus": -0.08,
        "author_bonus": 0.0,
        "venue_penalty": 0.0
      },
      {
        "paper_id": "6a6f42fceba934ac5677b6d287e678c5895ef60a",
        "title": "Transcription Kinetics Heterogeneity of Highly Mobile Identical Genes Revealed by Simultaneous Measurement at the Single Cell Level",
        "score": 0.0478,
        "title_similarity": 0.1278,
        "query_year": 2020,
        "candidate_year": 2015,
        "year_bonus": -0.08,
        "author_bonus": 0.0,
        "venue_penalty": 0.0
      },
      {
        "paper_id": "309e8e31aae0167f807f570fc6945ca2fdc130d9",
        "title": "Acute Stress-induced Modulation of Per1 mRNA Expression through CORT-dependent and CORT-independent mechanisms in Male Sprague-Dawley Rats",
        "score": 0.045,
        "title_similarity": 0.125,
        "query_year": 2020,
        "candidate_year": 2018,
        "year_bonus": -0.08,
        "author_bonus": 0.0,
        "venue_penalty": 0.0
      },
      {
        "paper_id": "831936bdf88024a82deafe4494bf7012ef401284",
        "title": "Visualizing genetic information flow in space and time",
        "score": 0.0,
        "title_similarity": 0.0,
        "query_year": 2020,
        "candidate_year": 2025,
        "year_bonus": -0.08,
        "author_bonus": 0.0,
        "venue_penalty": 0.0
      },
      {
        "paper_id": "739d340a36c40baedcaa9b0f07d1fe0a03e85780",
        "title": "Imaging Transcriptional Regulation of Eukaryotic mRNA Genes: Advances and Outlook.",
        "score": 0.0,
        "title_similarity": 0.0,
        "query_year": 2020,
        "candidate_year": 2017,
        "year_bonus": -0.08,
        "author_bonus": 0.0,
        "venue_penalty": 0.0
      },
      {
        "paper_id": "4d37ba5d189b803e15ece4231e78bf871d02bd4b",
        "title": "The sexual dimorphism of kidney growth in mice and humans.",
        "score": 0.0,
        "title_similarity": 0.0,
        "query_year": 2020,
        "candidate_year": 2022,
        "year_bonus": -0.08,
        "author_bonus": 0.0,
        "venue_penalty": 0.0
      }
    ],
    "candidate_dois": [
      "10.1146/annurev-biochem-011520-105250"
    ],
    "matching_extracted_doi": "",
    "raw_response": {
      "total": 16,
      "offset": 0,
      "next": 10,
      "data": [
        {
          "paperId": "f2da45580d7a28f179acdd38101a5fb97876e95f",
          "externalIds": {
            "MAG": "3013821085",
            "DOI": "10.1146/annurev-biochem-011520-105250",
            "CorpusId": 214643222,
            "PubMed": "32208766"
          },
          "url": "https://www.semanticscholar.org/paper/f2da45580d7a28f179acdd38101a5fb97876e95f",
          "title": "Transcription in Living Cells: Molecular Mechanisms of Bursting.",
          "venue": "Annual Review of Biochemistry",
          "year": 2020,
          "openAccessPdf": {
            "url": "",
            "status": null,
            "license": null,
            "disclaimer": "Notice: Paper or abstract available at https://api.unpaywall.org/v2/10.1146/annurev-biochem-011520-105250?email=<INSERT_YOUR_EMAIL> or https://doi.org/10.1146/annurev-biochem-011520-105250, which is subject to the license by the author or copyright owner provided with this content. Please go to the source to verify the license and copyright information for your use."
          },
          "publicationTypes": [
            "JournalArticle",
            "Review"
          ],
          "publicationDate": "2020-03-24",
          "journal": {
            "name": "Annual review of biochemistry"
          },
          "authors": [
            {
              "authorId": "40636188",
              "name": "Joseph Rodriguez"
            },
            {
              "authorId": "38868452",
              "name": "D. Larson"
            }
          ],
          "abstract": "Transcription in several organisms from certain bacteria to humans has been observed to be stochastic in nature: toggling between active and inactive states. Periods of active nascent RNA synthesis known as bursts represent individual gene activation events in which multiple polymerases are initiated. Therefore, bursting is the single locus illustration of both gene activation and repression. Although transcriptional bursting was originally observed decades ago, only recently have technological advances enabled the field to begin elucidating gene regulation at the single-locus level. In this review, we focus on how biochemical, genomic, and single-cell data describe the regulatory steps of transcriptional bursts. Expected final online publication date for the Annual Review of Biochemistry, Volume 89 is June 22, 2020. Please see http://www.annualreviews.org/page/journal/pubdates for revised estimates."
        },
        {
          "paperId": "ae1c3fecc0fba8899cb4b14eff38371d1eab595d",
          "externalIds": {
            "DOI": "10.1039/d1cp03665c",
            "CorpusId": 237595330,
            "PubMed": "34550142"
          },
          "url": "https://www.semanticscholar.org/paper/ae1c3fecc0fba8899cb4b14eff38371d1eab595d",
          "title": "Understanding the molecular mechanisms of transcriptional bursting.",
          "venue": "Physical Chemistry, Chemical Physics - PCCP",
          "year": 2021,
          "openAccessPdf": {
            "url": "",
            "status": null,
            "license": null,
            "disclaimer": "Notice: Paper or abstract available at https://api.unpaywall.org/v2/10.1039/d1cp03665c?email=<INSERT_YOUR_EMAIL> or https://doi.org/10.1039/d1cp03665c, which is subject to the license by the author or copyright owner provided with this content. Please go to the source to verify the license and copyright information for your use."
          },
          "publicationTypes": [
            "Review",
            "JournalArticle"
          ],
          "publicationDate": "2021-09-22",
          "journal": {
            "name": "Physical chemistry chemical physics : PCCP"
          },
          "authors": [
            {
              "authorId": "51987754",
              "name": "Alena Klindziuk"
            },
            {
              "authorId": "6500094",
              "name": "A. Kolomeisky"
            }
          ],
          "abstract": "In recent years, it has been experimentally established that transcription, a fundamental biological process that involves the synthesis of messenger RNA molecules from DNA templates, does not proceed continuously as was expected. Rather, it exhibits a distinct dynamic behavior of alternating between productive phases when RNA molecules are actively synthesized and inactive phases when there is no RNA production at all. The bimodal transcriptional dynamics is now confirmed to be present in most living systems. This phenomenon is known as transcriptional bursting and it attracts significant amounts of attention from researchers in different fields. However, despite multiple experimental and theoretical investigations, the microscopic origin and biological functions of the transcriptional bursting remain unclear. Here we discuss the recent developments in uncovering the underlying molecular mechanisms of transcriptional bursting and our current understanding of them. Our analysis presents a physicochemical view of the processes that govern transcriptional bursting in living cells."
        },
        {
          "paperId": "48861eb1421c6a60b3b1a1eccb1b95d7343cf40b",
          "externalIds": {
            "MAG": "2600725560",
            "CorpusId": 266470960
          },
          "url": "https://www.semanticscholar.org/paper/48861eb1421c6a60b3b1a1eccb1b95d7343cf40b",
          "title": "Task Group 7B: Cellular and Molecular Mechanisms of Biological Aging: The Roles of Nature, Nurture and Chance in the Maintenance of Human Healthspan",
          "venue": "",
          "year": 2007,
          "openAccessPdf": {
            "url": "",
            "status": null,
            "license": null
          },
          "publicationTypes": null,
          "publicationDate": "2007-11-14",
          "journal": {
            "name": "",
            "volume": ""
          },
          "authors": [
            {
              "authorId": "2246081397",
              "name": "Heinz-Ulrich G. Weier"
            },
            {
              "authorId": "2276268395",
              "name": "S. Arya"
            },
            {
              "authorId": "2275852291",
              "name": "Christine Grant"
            },
            {
              "authorId": "2113313127",
              "name": "L. Miller"
            },
            {
              "authorId": "153448145",
              "name": "S. Ono"
            },
            {
              "authorId": "6384444",
              "name": "C. Patil"
            },
            {
              "authorId": "2251026193",
              "name": "J. Shay"
            },
            {
              "authorId": "2253869888",
              "name": "Eric J Topol"
            },
            {
              "authorId": "2380775886",
              "name": "Michael Torry"
            },
            {
              "authorId": "2246081397",
              "name": "Heinz-Ulrich G. Weier"
            },
            {
              "authorId": "9630176",
              "name": "I. Tse"
            },
            {
              "authorId": "2145246667",
              "name": "Sufen Lin"
            },
            {
              "authorId": "2252046885",
              "name": "Richard A. Miller"
            }
          ],
          "abstract": null
        },
        {
          "paperId": "01e30b6211fd0bfdb06f5a31810670b5c910010c",
          "externalIds": {
            "MAG": "2792277698",
            "DOI": "10.1103/PhysRevE.97.032401",
            "CorpusId": 21687875,
            "PubMed": "29776125"
          },
          "url": "https://www.semanticscholar.org/paper/01e30b6211fd0bfdb06f5a31810670b5c910010c",
          "title": "Post-transcriptional bursting in genes regulated by small RNA molecules.",
          "venue": "Physical Review E",
          "year": 2018,
          "openAccessPdf": {
            "url": "",
            "status": "CLOSED",
            "license": null,
            "disclaimer": "Notice: The following paper fields have been elided by the publisher: {'abstract'}. Paper or abstract available at https://api.unpaywall.org/v2/10.1103/PhysRevE.97.032401?email=<INSERT_YOUR_EMAIL> or https://doi.org/10.1103/PhysRevE.97.032401, which is subject to the license by the author or copyright owner provided with this content. Please go to the source to verify the license and copyright information for your use."
          },
          "publicationTypes": [
            "JournalArticle"
          ],
          "publicationDate": "2018-03-01",
          "journal": {
            "name": "Physical review. E",
            "pages": "\n          032401\n        ",
            "volume": "97 3-1"
          },
          "authors": [
            {
              "authorId": "143920404",
              "name": "G. Rodrigo"
            }
          ],
          "abstract": null
        },
        {
          "paperId": "831936bdf88024a82deafe4494bf7012ef401284",
          "externalIds": {
            "DOI": "10.1007/s11427-025-3158-6",
            "CorpusId": 283242527,
            "PubMed": "41284191"
          },
          "url": "https://www.semanticscholar.org/paper/831936bdf88024a82deafe4494bf7012ef401284",
          "title": "Visualizing genetic information flow in space and time",
          "venue": "Science China Life Sciences",
          "year": 2025,
          "openAccessPdf": {
            "url": "",
            "status": null,
            "license": null,
            "disclaimer": "Notice: The following paper fields have been elided by the publisher: {'abstract'}. Paper or abstract available at https://api.unpaywall.org/v2/10.1007/s11427-025-3158-6?email=<INSERT_YOUR_EMAIL> or https://doi.org/10.1007/s11427-025-3158-6, which is subject to the license by the author or copyright owner provided with this content. Please go to the source to verify the license and copyright information for your use."
          },
          "publicationTypes": [
            "Review",
            "JournalArticle"
          ],
          "publicationDate": "2025-11-21",
          "journal": {
            "name": "Science China Life Sciences",
            "pages": "3450 - 3465",
            "volume": "68"
          },
          "authors": [
            {
              "authorId": "2187084718",
              "name": "Kaijin Chen"
            },
            {
              "authorId": "2340947184",
              "name": "K. Zhao"
            },
            {
              "authorId": "2337856795",
              "name": "Yihan Wan"
            }
          ],
          "abstract": null
        },
        {
          "paperId": "3fa030a21cc797b941bbf03c0220dbb823160632",
          "externalIds": {
            "MAG": "2346619804",
            "DOI": "10.1126/science.aaf1084",
            "CorpusId": 1135372,
            "PubMed": "27313041"
          },
          "url": "https://www.semanticscholar.org/paper/3fa030a21cc797b941bbf03c0220dbb823160632",
          "title": "Translation dynamics of single mRNAs in live cells and neurons",
          "venue": "Science",
          "year": 2016,
          "openAccessPdf": {
            "url": "https://science.sciencemag.org/content/sci/352/6292/1430.full.pdf",
            "status": "BRONZE",
            "license": null,
            "disclaimer": "Notice: The following paper fields have been elided by the publisher: {'abstract'}. Paper or abstract available at https://api.unpaywall.org/v2/10.1126/science.aaf1084?email=<INSERT_YOUR_EMAIL> or https://doi.org/10.1126/science.aaf1084, which is subject to the license by the author or copyright owner provided with this content. Please go to the source to verify the license and copyright information for your use."
          },
          "publicationTypes": [
            "JournalArticle"
          ],
          "publicationDate": "2016-06-17",
          "journal": {
            "name": "Science",
            "pages": "1430 - 1435",
            "volume": "352"
          },
          "authors": [
            {
              "authorId": "2152563495",
              "name": "Bin Wu"
            },
            {
              "authorId": "3514998",
              "name": "C. Eliscovich"
            },
            {
              "authorId": "34072941",
              "name": "Young J. Yoon"
            },
            {
              "authorId": "1863051",
              "name": "R. Singer"
            }
          ],
          "abstract": null
        },
        {
          "paperId": "6a6f42fceba934ac5677b6d287e678c5895ef60a",
          "externalIds": {
            "MAG": "1988835730",
            "DOI": "10.1016/J.BPJ.2014.11.2777",
            "CorpusId": 83955216
          },
          "url": "https://www.semanticscholar.org/paper/6a6f42fceba934ac5677b6d287e678c5895ef60a",
          "title": "Transcription Kinetics Heterogeneity of Highly Mobile Identical Genes Revealed by Simultaneous Measurement at the Single Cell Level",
          "venue": "",
          "year": 2015,
          "openAccessPdf": {
            "url": "https://www.cell.com/article/S0006349514039897/pdf",
            "status": "BRONZE",
            "license": "publisher-specific-oa",
            "disclaimer": "Notice: The following paper fields have been elided by the publisher: {'abstract'}. Paper or abstract available at https://api.unpaywall.org/v2/10.1016/J.BPJ.2014.11.2777?email=<INSERT_YOUR_EMAIL> or https://doi.org/10.1016/J.BPJ.2014.11.2777, which is subject to the license by the author or copyright owner provided with this content. Please go to the source to verify the license and copyright information for your use."
          },
          "publicationTypes": null,
          "publicationDate": "2015-01-27",
          "journal": {
            "name": "Biophysical Journal",
            "volume": "108"
          },
          "authors": [
            {
              "authorId": "3433439",
              "name": "E. Gratton"
            },
            {
              "authorId": "47156760",
              "name": "P. Annibale"
            }
          ],
          "abstract": null
        },
        {
          "paperId": "739d340a36c40baedcaa9b0f07d1fe0a03e85780",
          "externalIds": {
            "MAG": "2551640135",
            "DOI": "10.1016/j.jmb.2016.11.007",
            "CorpusId": 42736098,
            "PubMed": "27865781"
          },
          "url": "https://www.semanticscholar.org/paper/739d340a36c40baedcaa9b0f07d1fe0a03e85780",
          "title": "Imaging Transcriptional Regulation of Eukaryotic mRNA Genes: Advances and Outlook.",
          "venue": "Journal of Molecular Biology",
          "year": 2017,
          "openAccessPdf": {
            "url": "",
            "status": "CLOSED",
            "license": null,
            "disclaimer": "Notice: The following paper fields have been elided by the publisher: {'abstract'}. Paper or abstract available at https://api.unpaywall.org/v2/10.1016/j.jmb.2016.11.007?email=<INSERT_YOUR_EMAIL> or https://doi.org/10.1016/j.jmb.2016.11.007, which is subject to the license by the author or copyright owner provided with this content. Please go to the source to verify the license and copyright information for your use."
          },
          "publicationTypes": [
            "Review",
            "JournalArticle"
          ],
          "publicationDate": "2017-01-06",
          "journal": {
            "name": "Journal of molecular biology",
            "pages": "\n          14-31\n        ",
            "volume": "429 1"
          },
          "authors": [
            {
              "authorId": "145561643",
              "name": "Jie Yao"
            }
          ],
          "abstract": null
        },
        {
          "paperId": "4d37ba5d189b803e15ece4231e78bf871d02bd4b",
          "externalIds": {
            "DOI": "10.1016/j.kint.2022.02.027",
            "CorpusId": 247650256,
            "PubMed": "35337891"
          },
          "url": "https://www.semanticscholar.org/paper/4d37ba5d189b803e15ece4231e78bf871d02bd4b",
          "title": "The sexual dimorphism of kidney growth in mice and humans.",
          "venue": "Kidney International",
          "year": 2022,
          "openAccessPdf": {
            "url": "https://www.sciencedirect.com/science/article/am/pii/S0085253822002095",
            "status": "BRONZE",
            "license": "publisher-specific-oa",
            "disclaimer": "Notice: Paper or abstract available at https://api.unpaywall.org/v2/10.1016/j.kint.2022.02.027?email=<INSERT_YOUR_EMAIL> or https://doi.org/10.1016/j.kint.2022.02.027, which is subject to the license by the author or copyright owner provided with this content. Please go to the source to verify the license and copyright information for your use."
          },
          "publicationTypes": [
            "JournalArticle"
          ],
          "publicationDate": "2022-03-01",
          "journal": {
            "name": "Kidney international"
          },
          "authors": [
            {
              "authorId": "4707291",
              "name": "D. Laouari"
            },
            {
              "authorId": "2159795500",
              "name": "Paul Vergnaud"
            },
            {
              "authorId": "7594761",
              "name": "T. Hirose"
            },
            {
              "authorId": "39216175",
              "name": "M. Zaidan"
            },
            {
              "authorId": "3788433",
              "name": "M. Rabant"
            },
            {
              "authorId": "36024027",
              "name": "Clément Nguyen"
            },
            {
              "authorId": "4136020",
              "name": "M. Burtin"
            },
            {
              "authorId": "50338254",
              "name": "C. Legendre"
            },
            {
              "authorId": "3832054",
              "name": "P. Codogno"
            },
            {
              "authorId": "2864690",
              "name": "G. Friedlander"
            },
            {
              "authorId": "5453139",
              "name": "D. Anglicheau"
            },
            {
              "authorId": "16300399",
              "name": "F. Terzi"
            }
          ],
          "abstract": "Kidney mass and function are sexually determined, but the cellular events and the molecular mechanisms involved in this dimorphism are poorly characterized. By combining female and male mice with castration/replacement experiments, we showed that male mice exhibited kidney overgrowth from five weeks of age. This effect was organ specific, since liver and heart weight were comparable between males and females, regardless of age. Consistently, the androgen receptor was found to be expressed in the kidneys of males, but not in the liver. In growing mice, androgens led to kidney overgrowth by first inducing a burst of cell proliferation and then an increase of cell size. Remarkably, androgens were also required to maintain cell size in adults. In fact, orchiectomy resulted in smaller kidneys in a matter of few weeks. These changes paralleled the changes of the expression of ornithine decarboxylase and cyclin D1, two known mediators of kidney growth, whereas, unexpectedly, mTORC1 and Hippo pathways did not seem to be involved. Androgens also enhanced kidney autophagy, very likely by increasing transcription factor EB nuclear translocation. Functionally, the increase of tubular mass resulted in increased sodium/phosphate transport. These findings were relevant to humans. Remarkably, by studying living gender-paired kidney donors-recipients, we showed that tubular cell size increased three months after transplantation in men as compared to women, regardless of the donor gender. Thus, our results identify novel signaling pathways that may be involved in androgen-induced kidney growth and homeostasis, and suggest that androgens determine kidney size after transplantation."
        },
        {
          "paperId": "309e8e31aae0167f807f570fc6945ca2fdc130d9",
          "externalIds": {
            "MAG": "2902734197",
            "CorpusId": 88510207
          },
          "url": "https://www.semanticscholar.org/paper/309e8e31aae0167f807f570fc6945ca2fdc130d9",
          "title": "Acute Stress-induced Modulation of Per1 mRNA Expression through CORT-dependent and CORT-independent mechanisms in Male Sprague-Dawley Rats",
          "venue": "",
          "year": 2018,
          "openAccessPdf": {
            "url": "",
            "status": null,
            "license": null,
            "disclaimer": "Notice: The following paper fields have been elided by the publisher: {'abstract'}. Paper or abstract available at https://scholar.colorado.edu/cgi/viewcontent.cgi?article=2965&context=honr_theses, which is subject to the license by the author or copyright owner provided with this content. Please go to the source to verify the license and copyright information for your use."
          },
          "publicationTypes": null,
          "publicationDate": null,
          "journal": {
            "name": "",
            "volume": ""
          },
          "authors": [
            {
              "authorId": "89818318",
              "name": "Alice Droeger"
            }
          ],
          "abstract": null
        }
      ]
    }
  },
  "crossref": {
    "error": "",
    "metadata": null
  },
  "artifacts": {
    "record_path": "/Users/brandani/Dropbox/documents/library/paper_index/records/sha256-fb171c7feca06121.json",
    "text_path": "/Users/brandani/Dropbox/documents/library/paper_index/text/sha256-fb171c7feca06121.txt",
    "chunk_path": "/Users/brandani/Dropbox/documents/library/paper_index/chunks/sha256-fb171c7feca06121.jsonl",
    "master_index": "/Users/brandani/Dropbox/documents/library/paper_index/master_index.tsv",
    "master_bib": "/Users/brandani/Dropbox/documents/library/paper_index/master.bib",
    "text_kind": "pdf_text"
  },
  "text_extraction": {
    "status": "ok",
    "error": "",
    "text_sha256": "026e23376ea836cd77f00231f0c65b4bc32ffad0740cd273aefdc5249ba3223f",
    "chunk_count": 48,
    "chunk_target_chars": 2200,
    "chunk_overlap_chars": 250,
    "converter": "/Users/brandani/Dropbox/scripts/pdf2text.py"
  },
  "content_kind": "pdf_backed"
}
