{
  "paper_id": "sha256-adbe2d445b03472a",
  "library_root": "/Users/brandani/Dropbox/documents/library",
  "pdf_path": "/Users/brandani/Dropbox/documents/library/articles/protein_aggregation/Kinjo 2003 BiophysJ - Competition between Protein Folding and Aggregation with Molecular Chaperones in Crowded Solutions - Insight from Mesoscopic Simulations.pdf",
  "pdf_sha256": "adbe2d445b03472a379bbe3cdfa69b130d4f9ad7ff45b0dacabc39005e13a8ce",
  "filename": "Kinjo 2003 BiophysJ - Competition between Protein Folding and Aggregation with Molecular Chaperones in Crowded Solutions - Insight from Mesoscopic Simulations.pdf",
  "item_type": "article",
  "title_query": "Insight from Mesoscopic Simulations",
  "filename_hints": {
    "year_hint": 2003,
    "venue_hint": "",
    "prefix": "Kinjo 2003 BiophysJ"
  },
  "doi_candidates": [],
  "date_indexed": "2026-04-17T03:36:10.429460+00:00",
  "match_status": "matched",
  "match_confidence": 1.0,
  "warnings": [],
  "crossref_warnings": [],
  "metadata_source": "semantic_scholar",
  "semantic_scholar": {
    "query": "Insight from Mesoscopic Simulations",
    "limit": 10,
    "api_error": "",
    "best_candidate": {
      "paperId": "a686f87ba0eeb084371406c2d27e12d0d56692b6",
      "externalIds": {
        "MAG": "1971087828",
        "DOI": "10.1016/S0006-3495(03)74772-9",
        "CorpusId": 21938481,
        "PubMed": "14645047"
      },
      "url": "https://www.semanticscholar.org/paper/a686f87ba0eeb084371406c2d27e12d0d56692b6",
      "title": "Competition between protein folding and aggregation with molecular chaperones in crowded solutions: insight from mesoscopic simulations.",
      "venue": "Biophysical Journal",
      "year": 2003,
      "openAccessPdf": {
        "url": "http://www.cell.com/article/S0006349503747729/pdf",
        "status": "BRONZE",
        "license": "publisher-specific-oa",
        "disclaimer": "Notice: The following paper fields have been elided by the publisher: {'abstract'}. Paper or abstract available at https://api.unpaywall.org/v2/10.1016/S0006-3495(03)74772-9?email=<INSERT_YOUR_EMAIL> or https://doi.org/10.1016/S0006-3495(03)74772-9, which is subject to the license by the author or copyright owner provided with this content. Please go to the source to verify the license and copyright information for your use."
      },
      "publicationTypes": [
        "JournalArticle"
      ],
      "publicationDate": "2003-12-01",
      "journal": {
        "name": "Biophysical journal",
        "pages": "\n          3521-31\n        ",
        "volume": "85 6"
      },
      "authors": [
        {
          "authorId": "2437984",
          "name": "A. Kinjo"
        },
        {
          "authorId": "2941900",
          "name": "S. Takada"
        }
      ],
      "abstract": null
    },
    "candidate_scores": [
      {
        "paper_id": "a686f87ba0eeb084371406c2d27e12d0d56692b6",
        "title": "Competition between protein folding and aggregation with molecular chaperones in crowded solutions: insight from mesoscopic simulations.",
        "score": 1.0,
        "title_similarity": 0.92,
        "query_year": 2003,
        "candidate_year": 2003,
        "year_bonus": 0.08,
        "author_bonus": 0.04,
        "venue_penalty": 0.0
      },
      {
        "paper_id": "eec2f684fb5aa70857c03761b60fb4a41751b057",
        "title": "Insight or illusion? Seeing inside the cell with mesoscopic simulations",
        "score": 0.72,
        "title_similarity": 0.8,
        "query_year": 2003,
        "candidate_year": 2008,
        "year_bonus": -0.08,
        "author_bonus": 0.0,
        "venue_penalty": 0.0
      },
      {
        "paper_id": "240ab97370ca596e8a8d39b2b086d31ad365cc4b",
        "title": "Micro-pillar plasticity: 2.5D mesoscopic simulations",
        "score": 0.4533,
        "title_similarity": 0.5333,
        "query_year": 2003,
        "candidate_year": 2009,
        "year_bonus": -0.08,
        "author_bonus": 0.0,
        "venue_penalty": 0.0
      },
      {
        "paper_id": "bf6510e4abf6920feb06e41e6bfc77d3c148f4aa",
        "title": "Mesoscopic simulations of damage accumulation under fatigue loading",
        "score": 0.4408,
        "title_similarity": 0.5208,
        "query_year": 2003,
        "candidate_year": 2013,
        "year_bonus": -0.08,
        "author_bonus": 0.0,
        "venue_penalty": 0.0
      },
      {
        "paper_id": "2355f5e7e787c49fb451cf1b658d58e3b49ad722",
        "title": "Kinetics of interface-controlled phase transformations: and mesoscopic simulations",
        "score": 0.4408,
        "title_similarity": 0.5208,
        "query_year": 2003,
        "candidate_year": 2011,
        "year_bonus": -0.08,
        "author_bonus": 0.0,
        "venue_penalty": 0.0
      },
      {
        "paper_id": "0647dcfac295305b7ddc8c32b58db1c4d7ac5318",
        "title": "Kinetics of interface-controlled phase transformations: atomistic and mesoscopic simulations",
        "score": 0.4311,
        "title_similarity": 0.5111,
        "query_year": 2003,
        "candidate_year": 2011,
        "year_bonus": -0.08,
        "author_bonus": 0.0,
        "venue_penalty": 0.0
      },
      {
        "paper_id": "608b9421de85f2efd3f8a58d81e7f6e3b5341c2b",
        "title": "Structure of Rigid Polymers Confined to Nanoparticles: Molecular Dynamics Simulations Insight.",
        "score": 0.4233,
        "title_similarity": 0.5033,
        "query_year": 2003,
        "candidate_year": 2016,
        "year_bonus": -0.08,
        "author_bonus": 0.0,
        "venue_penalty": 0.0
      },
      {
        "paper_id": "77d26cc22bf7a30ae7e200f1428e78b3b55249e9",
        "title": "How is a micelle formed from amphiphilic polymers in a dialysis process: Insight from mesoscopic studies",
        "score": 0.4117,
        "title_similarity": 0.4917,
        "query_year": 2003,
        "candidate_year": 2020,
        "year_bonus": -0.08,
        "author_bonus": 0.0,
        "venue_penalty": 0.0
      },
      {
        "paper_id": "037c9aeee034a62d7e4d891eecf1010b4c5afd56",
        "title": "Can we describe charged nanoparticles with electrolyte theories? Insight from mesoscopic simulation techniques",
        "score": 0.4117,
        "title_similarity": 0.4917,
        "query_year": 2003,
        "candidate_year": 2020,
        "year_bonus": -0.08,
        "author_bonus": 0.0,
        "venue_penalty": 0.0
      },
      {
        "paper_id": "434c597c70eab31e7072b2334336880786a18c17",
        "title": "From Molecular Insight to Mesoscale Membrane Remodeling: Curvature Generation by Arginine-Rich Cell-Penetrating Peptides",
        "score": 0.1617,
        "title_similarity": 0.2417,
        "query_year": 2003,
        "candidate_year": 2025,
        "year_bonus": -0.08,
        "author_bonus": 0.0,
        "venue_penalty": 0.0
      }
    ],
    "candidate_dois": [
      "10.1016/s0006-3495(03)74772-9"
    ],
    "matching_extracted_doi": "",
    "raw_response": {
      "total": 95291,
      "offset": 0,
      "next": 10,
      "data": [
        {
          "paperId": "a686f87ba0eeb084371406c2d27e12d0d56692b6",
          "externalIds": {
            "MAG": "1971087828",
            "DOI": "10.1016/S0006-3495(03)74772-9",
            "CorpusId": 21938481,
            "PubMed": "14645047"
          },
          "url": "https://www.semanticscholar.org/paper/a686f87ba0eeb084371406c2d27e12d0d56692b6",
          "title": "Competition between protein folding and aggregation with molecular chaperones in crowded solutions: insight from mesoscopic simulations.",
          "venue": "Biophysical Journal",
          "year": 2003,
          "openAccessPdf": {
            "url": "http://www.cell.com/article/S0006349503747729/pdf",
            "status": "BRONZE",
            "license": "publisher-specific-oa",
            "disclaimer": "Notice: The following paper fields have been elided by the publisher: {'abstract'}. Paper or abstract available at https://api.unpaywall.org/v2/10.1016/S0006-3495(03)74772-9?email=<INSERT_YOUR_EMAIL> or https://doi.org/10.1016/S0006-3495(03)74772-9, which is subject to the license by the author or copyright owner provided with this content. Please go to the source to verify the license and copyright information for your use."
          },
          "publicationTypes": [
            "JournalArticle"
          ],
          "publicationDate": "2003-12-01",
          "journal": {
            "name": "Biophysical journal",
            "pages": "\n          3521-31\n        ",
            "volume": "85 6"
          },
          "authors": [
            {
              "authorId": "2437984",
              "name": "A. Kinjo"
            },
            {
              "authorId": "2941900",
              "name": "S. Takada"
            }
          ],
          "abstract": null
        },
        {
          "paperId": "77d26cc22bf7a30ae7e200f1428e78b3b55249e9",
          "externalIds": {
            "MAG": "3035432725",
            "DOI": "10.1016/j.cplett.2020.137711",
            "CorpusId": 225309393
          },
          "url": "https://www.semanticscholar.org/paper/77d26cc22bf7a30ae7e200f1428e78b3b55249e9",
          "title": "How is a micelle formed from amphiphilic polymers in a dialysis process: Insight from mesoscopic studies",
          "venue": "",
          "year": 2020,
          "openAccessPdf": {
            "url": "",
            "status": null,
            "license": null,
            "disclaimer": "Notice: Paper or abstract available at https://api.unpaywall.org/v2/10.1016/j.cplett.2020.137711?email=<INSERT_YOUR_EMAIL> or https://doi.org/10.1016/j.cplett.2020.137711, which is subject to the license by the author or copyright owner provided with this content. Please go to the source to verify the license and copyright information for your use."
          },
          "publicationTypes": null,
          "publicationDate": "2020-09-01",
          "journal": {
            "name": "Chemical Physics Letters",
            "pages": "137711",
            "volume": "754"
          },
          "authors": [
            {
              "authorId": "1737491611",
              "name": "Yun Hao Feng"
            },
            {
              "authorId": "2115476081",
              "name": "Xiao Peng Zhang"
            },
            {
              "authorId": "2152748300",
              "name": "Jun You Li"
            },
            {
              "authorId": "144412783",
              "name": "X. Guo"
            }
          ],
          "abstract": "Abstract Self-assembly of amphiphilic polymers into micelles in dialysis process is dynamic, and the phase transition process is therefore very challenging to observe experimentally. In this study, we built a dynamic modeling by applying dissipative particle dynamics (DPD) simulations to explore the entire micelle formation process during the dynamic. The self-assembled aggregates undergo four stages in the process of dialysis: (i) Dispersed stage, (ii) Pre-micellar stage, (iii) Over-micellar stage. (iv) The final micellar stage. The study thus provides great advantages in simulating the processing dynamics of drug delivery systems, which would further expand the application scope of DPD simulations."
        },
        {
          "paperId": "037c9aeee034a62d7e4d891eecf1010b4c5afd56",
          "externalIds": {
            "MAG": "2981431319",
            "ArXiv": "2001.11722",
            "DOI": "10.1016/j.molliq.2019.111942",
            "CorpusId": 208750898
          },
          "url": "https://www.semanticscholar.org/paper/037c9aeee034a62d7e4d891eecf1010b4c5afd56",
          "title": "Can we describe charged nanoparticles with electrolyte theories? Insight from mesoscopic simulation techniques",
          "venue": "Journal of Molecular Liquids",
          "year": 2020,
          "openAccessPdf": {
            "url": "http://manuscript.elsevier.com/S0167732219339431/pdf/S0167732219339431.pdf",
            "status": "HYBRID",
            "license": "publisher-specific-oa",
            "disclaimer": "Notice: Paper or abstract available at https://arxiv.org/abs/2001.11722, which is subject to the license by the author or copyright owner provided with this content. Please go to the source to verify the license and copyright information for your use."
          },
          "publicationTypes": null,
          "publicationDate": "2020-01-31",
          "journal": {
            "name": "Journal of Molecular Liquids"
          },
          "authors": [
            {
              "authorId": "4255285",
              "name": "V. Dahirel"
            },
            {
              "authorId": "145288081",
              "name": "O. Bernard"
            },
            {
              "authorId": "6248485",
              "name": "M. Jardat"
            }
          ],
          "abstract": "Abstract Electrolyte theories enable to describe the structural and dynamical properties of simple electrolytes in solution, such as sodium chloride in water. Using these theories for aqueous solutions of charged nanoparticles is a straightforward route to extract their charge and size from experimental data. Nevertheless, for such strongly asymmetric electrolytes, the validity of the underlying approximations have never been properly challenged with exact simulation results. In the present work, well established mesoscopic numerical simulations are used to challenge the ability of advanced electrolyte theories to predict the electrical conductivity of suspensions of charged nanoparticles, in the salt-free case. The theories under investigation are based on the Debye-Fuoss-Onsager treatment of electrolyte transport. When the nanoparticles are small enough (about 1 nm large), the theoretical results agree remarkably well with the simulation ones, even in the high concentration regime (volume fraction of nanoparticles larger than 3%). Strikingly, for highly charged nanoparticles, the theory is able to capture the non-monotonic variation of the ratio of the electrical conductivity to its value at infinite dilution (ideal value) as a function of the concentration. However, the tested theories fail to describe the conductivity of suspensions containing larger nanoparticles (e.g. of diameter 4 nm). Finally, only small charged nanoparticles can be considered as ions, as far as electrolyte theories are concerned."
        },
        {
          "paperId": "eec2f684fb5aa70857c03761b60fb4a41751b057",
          "externalIds": {
            "MAG": "2038651909",
            "DOI": "10.2976/1.2833599",
            "CorpusId": 25447417,
            "PubMed": "19404447"
          },
          "url": "https://www.semanticscholar.org/paper/eec2f684fb5aa70857c03761b60fb4a41751b057",
          "title": "Insight or illusion? Seeing inside the cell with mesoscopic simulations",
          "venue": "HFSP Journal",
          "year": 2008,
          "openAccessPdf": {
            "url": "https://www.tandfonline.com/doi/pdf/10.2976/1.2833599?needAccess=true",
            "status": "BRONZE",
            "license": null,
            "disclaimer": "Notice: The following paper fields have been elided by the publisher: {'abstract'}. Paper or abstract available at https://api.unpaywall.org/v2/10.2976/1.2833599?email=<INSERT_YOUR_EMAIL> or https://doi.org/10.2976/1.2833599, which is subject to the license by the author or copyright owner provided with this content. Please go to the source to verify the license and copyright information for your use."
          },
          "publicationTypes": [
            "JournalArticle"
          ],
          "publicationDate": "2008-01-30",
          "journal": {
            "name": "HFSP Journal",
            "pages": "1 - 6",
            "volume": "2"
          },
          "authors": [
            {
              "authorId": "3369674",
              "name": "J. Shillcock"
            }
          ],
          "abstract": null
        },
        {
          "paperId": "434c597c70eab31e7072b2334336880786a18c17",
          "externalIds": {
            "DOI": "10.1101/2025.04.14.648709",
            "CorpusId": 277918691,
            "PubMed": "41873931"
          },
          "url": "https://www.semanticscholar.org/paper/434c597c70eab31e7072b2334336880786a18c17",
          "title": "From Molecular Insight to Mesoscale Membrane Remodeling: Curvature Generation by Arginine-Rich Cell-Penetrating Peptides",
          "venue": "bioRxiv",
          "year": 2025,
          "openAccessPdf": {
            "url": "",
            "status": null,
            "license": null,
            "disclaimer": "Notice: Paper or abstract available at https://api.unpaywall.org/v2/10.1101/2025.04.14.648709?email=<INSERT_YOUR_EMAIL> or https://doi.org/10.1101/2025.04.14.648709, which is subject to the license by the author or copyright owner provided with this content. Please go to the source to verify the license and copyright information for your use."
          },
          "publicationTypes": [
            "JournalArticle"
          ],
          "publicationDate": "2025-04-17",
          "journal": {
            "name": "bioRxiv"
          },
          "authors": [
            {
              "authorId": "12102443",
              "name": "Katarína L. Baxová"
            },
            {
              "authorId": "2356259174",
              "name": "Jovi Koikkara"
            },
            {
              "authorId": "14865730",
              "name": "Christoph Allolio"
            }
          ],
          "abstract": "The enhanced cell penetration ability of arginine-rich peptides, such as nonaarginine (R9), compared to their lysine-rich counterparts remains incompletely understood. Atomistic simulations reveal that R9 binds significantly more strongly (≈ 20 kJ/mol) and penetrates deeper into anionic lipid headgroup region than its lysine equivalent. This enhanced interaction translates into a stronger induction of negative membrane curvature by R9. We combine these data to construct a model of peptide binding and curvature induction in fusogenic lipid mixtures and employ a multiscale simulation approach, combining atomistic molecular dynamics (MD) with mesoscopic Monte Carlo (MC) simulations, to dissect the molecular basis and morphological consequences of arginine specificity. The results show that stable membrane invaginations, as observed in studies of cell penetration, require excess membrane and are stable only for R9 (outside of the domain of stability of the Helfrich stomatocyte). By analyzing lipid and protein sorting coupled to the membrane structure, we explain the interplay of Gaussian and mean curvature in providing a mechanistic basis for the initial membrane deformation events potentially involved in ‘Arginine Magic’ cell entry pathways."
        },
        {
          "paperId": "bf6510e4abf6920feb06e41e6bfc77d3c148f4aa",
          "externalIds": {
            "MAG": "2274368446",
            "CorpusId": 56321440
          },
          "url": "https://www.semanticscholar.org/paper/bf6510e4abf6920feb06e41e6bfc77d3c148f4aa",
          "title": "Mesoscopic simulations of damage accumulation under fatigue loading",
          "venue": "",
          "year": 2013,
          "openAccessPdf": {
            "url": "",
            "status": null,
            "license": null,
            "disclaimer": "Notice: The following paper fields have been elided by the publisher: {'abstract'}. Paper or abstract available at http://www.structuralintegrity.eu/pdf/esis/Documents/Conference/ECF/15/Brueckner-Foit%20A%20et%20al.pdf, which is subject to the license by the author or copyright owner provided with this content. Please go to the source to verify the license and copyright information for your use."
          },
          "publicationTypes": null,
          "publicationDate": "2013-02-08",
          "journal": {
            "name": "",
            "volume": ""
          },
          "authors": [
            {
              "authorId": "1403105763",
              "name": "A. Brueckner-foit"
            },
            {
              "authorId": "2243095135",
              "name": "Xinyu Huang"
            },
            {
              "authorId": "11364862",
              "name": "Y. Motoyashiki"
            }
          ],
          "abstract": null
        },
        {
          "paperId": "240ab97370ca596e8a8d39b2b086d31ad365cc4b",
          "externalIds": {
            "MAG": "2041700740",
            "DOI": "10.1016/J.JMPS.2009.06.003",
            "CorpusId": 137005330
          },
          "url": "https://www.semanticscholar.org/paper/240ab97370ca596e8a8d39b2b086d31ad365cc4b",
          "title": "Micro-pillar plasticity: 2.5D mesoscopic simulations",
          "venue": "",
          "year": 2009,
          "openAccessPdf": {
            "url": "",
            "status": "CLOSED",
            "license": null,
            "disclaimer": "Notice: The following paper fields have been elided by the publisher: {'abstract'}. Paper or abstract available at https://api.unpaywall.org/v2/10.1016/J.JMPS.2009.06.003?email=<INSERT_YOUR_EMAIL> or https://doi.org/10.1016/J.JMPS.2009.06.003, which is subject to the license by the author or copyright owner provided with this content. Please go to the source to verify the license and copyright information for your use."
          },
          "publicationTypes": null,
          "publicationDate": "2009-09-01",
          "journal": {
            "name": "Journal of The Mechanics and Physics of Solids",
            "pages": "1459-1469",
            "volume": "57"
          },
          "authors": [
            {
              "authorId": "145553721",
              "name": "A. Benzerga"
            }
          ],
          "abstract": null
        },
        {
          "paperId": "2355f5e7e787c49fb451cf1b658d58e3b49ad722",
          "externalIds": {
            "MAG": "2318848287",
            "CorpusId": 138050902
          },
          "url": "https://www.semanticscholar.org/paper/2355f5e7e787c49fb451cf1b658d58e3b49ad722",
          "title": "Kinetics of interface-controlled phase transformations: and mesoscopic simulations",
          "venue": "",
          "year": 2011,
          "openAccessPdf": {
            "url": "",
            "status": null,
            "license": null
          },
          "publicationTypes": null,
          "publicationDate": null,
          "journal": {
            "name": "",
            "volume": ""
          },
          "authors": [
            {
              "authorId": "6557775",
              "name": "E. Jägle"
            },
            {
              "authorId": "6450912",
              "name": "E. Mittemeijer"
            }
          ],
          "abstract": null
        },
        {
          "paperId": "0647dcfac295305b7ddc8c32b58db1c4d7ac5318",
          "externalIds": {
            "MAG": "2023407162",
            "DOI": "10.3139/146.110538",
            "CorpusId": 94827320
          },
          "url": "https://www.semanticscholar.org/paper/0647dcfac295305b7ddc8c32b58db1c4d7ac5318",
          "title": "Kinetics of interface-controlled phase transformations: atomistic and mesoscopic simulations",
          "venue": "",
          "year": 2011,
          "openAccessPdf": {
            "url": "",
            "status": "CLOSED",
            "license": null,
            "disclaimer": "Notice: The following paper fields have been elided by the publisher: {'abstract'}. Paper or abstract available at https://api.unpaywall.org/v2/10.3139/146.110538?email=<INSERT_YOUR_EMAIL> or https://doi.org/10.3139/146.110538, which is subject to the license by the author or copyright owner provided with this content. Please go to the source to verify the license and copyright information for your use."
          },
          "publicationTypes": null,
          "publicationDate": "2011-07-01",
          "journal": {
            "name": "International Journal of Materials Research",
            "pages": "837 - 845",
            "volume": "102"
          },
          "authors": [
            {
              "authorId": "6557775",
              "name": "E. Jägle"
            },
            {
              "authorId": "6450912",
              "name": "E. Mittemeijer"
            }
          ],
          "abstract": null
        },
        {
          "paperId": "608b9421de85f2efd3f8a58d81e7f6e3b5341c2b",
          "externalIds": {
            "MAG": "2287897933",
            "DOI": "10.1021/acs.langmuir.5b04568",
            "CorpusId": 39140880,
            "PubMed": "26844821"
          },
          "url": "https://www.semanticscholar.org/paper/608b9421de85f2efd3f8a58d81e7f6e3b5341c2b",
          "title": "Structure of Rigid Polymers Confined to Nanoparticles: Molecular Dynamics Simulations Insight.",
          "venue": "Langmuir",
          "year": 2016,
          "openAccessPdf": {
            "url": "https://www.osti.gov/biblio/1241371",
            "status": "GREEN",
            "license": null,
            "disclaimer": "Notice: The following paper fields have been elided by the publisher: {'abstract'}. Paper or abstract available at https://api.unpaywall.org/v2/10.1021/acs.langmuir.5b04568?email=<INSERT_YOUR_EMAIL> or https://doi.org/10.1021/acs.langmuir.5b04568, which is subject to the license by the author or copyright owner provided with this content. Please go to the source to verify the license and copyright information for your use."
          },
          "publicationTypes": [
            "JournalArticle"
          ],
          "publicationDate": "2016-02-16",
          "journal": {
            "name": "Langmuir : the ACS journal of surfaces and colloids",
            "pages": "\n          2102-9\n        ",
            "volume": "32 8"
          },
          "authors": [
            {
              "authorId": "114144996",
              "name": "S. Maskey"
            },
            {
              "authorId": "143692644",
              "name": "J. Lane"
            },
            {
              "authorId": "40112738",
              "name": "D. Perahia"
            },
            {
              "authorId": "2719788",
              "name": "G. Grest"
            }
          ],
          "abstract": null
        }
      ]
    }
  },
  "crossref": {
    "error": "",
    "metadata": null
  },
  "artifacts": {
    "record_path": "/Users/brandani/Dropbox/documents/library/paper_index/records/sha256-adbe2d445b03472a.json",
    "text_path": "/Users/brandani/Dropbox/documents/library/paper_index/text/sha256-adbe2d445b03472a.txt",
    "chunk_path": "/Users/brandani/Dropbox/documents/library/paper_index/chunks/sha256-adbe2d445b03472a.jsonl",
    "master_index": "/Users/brandani/Dropbox/documents/library/paper_index/master_index.tsv",
    "master_bib": "/Users/brandani/Dropbox/documents/library/paper_index/master.bib",
    "text_kind": "pdf_text"
  },
  "text_extraction": {
    "status": "ok",
    "error": "",
    "text_sha256": "953fd307c1bf885c2141cdf63a84e29a61e7fb8549264ef22d4f93ec5ef2bc9d",
    "chunk_count": 25,
    "chunk_target_chars": 2200,
    "chunk_overlap_chars": 250,
    "converter": "/Users/brandani/Dropbox/scripts/pdf2text.py"
  },
  "content_kind": "pdf_backed"
}
