{
  "paper_id": "sha256-ec1faeb966376b99",
  "library_root": "/Users/brandani/Dropbox/documents/library",
  "pdf_path": "/Users/brandani/Dropbox/documents/library/articles/chromatin_and_gene_regulation/oudelaar_2022_NatCommun_cohesin_and_ctcf_effect_on_chromatin_topology_and_gene_expression_SI.pdf",
  "pdf_sha256": "ec1faeb966376b99d0bf242f98d64724632e1d3e1ba992cf6679914bfb2e1e0c",
  "filename": "oudelaar_2022_NatCommun_cohesin_and_ctcf_effect_on_chromatin_topology_and_gene_expression_SI.pdf",
  "item_type": "article",
  "title_query": "Supplementary Note 1 Supplementary Figures Supplementary Tables References p. 2 p. 4 p. 33 p. 35",
  "filename_hints": {
    "year_hint": 2022,
    "venue_hint": "naturecommunications",
    "prefix": "oudelaar 2022 NatCommun cohesin and ctcf effect on chromatin topology and gene expression SI"
  },
  "doi_candidates": [],
  "date_indexed": "2026-04-17T05:21:14.537068+00:00",
  "match_status": "matched_supplement",
  "match_confidence": 0.4286,
  "warnings": [],
  "crossref_warnings": [],
  "metadata_source": "manual_supplement_link",
  "semantic_scholar": {
    "query": "Supplementary Note 1 Supplementary Figures Supplementary Tables References p. 2 p. 4 p. 33 p. 35",
    "limit": 10,
    "api_error": "",
    "attempts": [
      {
        "query": "cohesin and ctcf effect on chromatin topology and gene expression",
        "status": "not_found",
        "api_error": "",
        "warnings": [
          "year_hint_mismatch:2022!=2019",
          "venue_hint_mismatch:naturecommunications!=biorxiv"
        ],
        "best_score": 0.1147,
        "candidate_count": 1
      },
      {
        "query": "The Tiled C approach4 enriches for ligation junctions, since the oligonucleotides are targeted to restriction enzyme cut sites",
        "status": "not_found",
        "api_error": "",
        "warnings": [],
        "best_score": null,
        "candidate_count": 0
      },
      {
        "query": "Supplementary Note 1 Supplementary Figures Supplementary Tables References p. 2 p. 4 p. 33 p. 35",
        "status": "not_found",
        "api_error": "",
        "warnings": [],
        "best_score": 0.4286,
        "candidate_count": 10
      }
    ],
    "best_candidate": {
      "paperId": "8c4113d907a52de5d0ab78b257656edc9320c751",
      "externalIds": {
        "CorpusId": 14355882
      },
      "url": "https://www.semanticscholar.org/paper/8c4113d907a52de5d0ab78b257656edc9320c751",
      "title": "Supplementary Figures and Tables",
      "venue": "",
      "year": null,
      "openAccessPdf": {
        "url": "",
        "status": null,
        "license": null
      },
      "publicationTypes": null,
      "publicationDate": null,
      "journal": null,
      "authors": [],
      "abstract": null
    },
    "candidate_scores": [
      {
        "paper_id": "8c4113d907a52de5d0ab78b257656edc9320c751",
        "title": "Supplementary Figures and Tables",
        "score": 0.4286,
        "title_similarity": 0.4286,
        "query_year": null,
        "candidate_year": null,
        "year_bonus": 0.0,
        "author_bonus": 0.0,
        "venue_penalty": 0.0
      },
      {
        "paper_id": "92f4be8a87cfd026821291576b8f95086f8c3ae5",
        "title": "Legends to Supplementary Figures and Tables",
        "score": 0.4098,
        "title_similarity": 0.4098,
        "query_year": null,
        "candidate_year": null,
        "year_bonus": 0.0,
        "author_bonus": 0.0,
        "venue_penalty": 0.0
      },
      {
        "paper_id": "d494ecbbafcc8b5acad547d953c9e1ec7f54c118",
        "title": "End-to-End Unsupervised Document Image Blind Denoising Supplementary Note",
        "score": 0.2396,
        "title_similarity": 0.2396,
        "query_year": null,
        "candidate_year": 2021,
        "year_bonus": 0.0,
        "author_bonus": 0.0,
        "venue_penalty": 0.0
      },
      {
        "paper_id": "aad91dbfca63c89a44d0f90da6f90b4d40a7dbd9",
        "title": "Correspondence Corrections and Supplementary Note to \" Information-theoretic Distortion Measures \" Interframe Differential Coding of Line Spectrum Frequencies",
        "score": 0.2226,
        "title_similarity": 0.2226,
        "query_year": null,
        "candidate_year": null,
        "year_bonus": 0.0,
        "author_bonus": 0.0,
        "venue_penalty": 0.0
      },
      {
        "paper_id": "712be63d5ff9ed7ba1f1ec555f3ce4861043fbaa",
        "title": "GONG , COSKER : INTERACTIVE SHADOW REMOVAL AND GROUND TRUTH 1 Supplementary Materials",
        "score": 0.1162,
        "title_similarity": 0.1162,
        "query_year": null,
        "candidate_year": 2014,
        "year_bonus": 0.0,
        "author_bonus": 0.0,
        "venue_penalty": 0.0
      },
      {
        "paper_id": "90fa7c0039460757d4625b78350ed295b8758ee9",
        "title": "Seasonal Absence of Supplementary Corpora Lutea in Pregnant Mares and The Relationship with Pregnancy Loss.",
        "score": 0.1147,
        "title_similarity": 0.1147,
        "query_year": null,
        "candidate_year": 2023,
        "year_bonus": 0.0,
        "author_bonus": 0.0,
        "venue_penalty": 0.0
      },
      {
        "paper_id": "a97543c8eea4fb274c3df991839e9961b58ceafb",
        "title": "S 1 Supplementary Material for : Pressure and Temperature Dependences of Rate Coefficients for the Reaction OH + NO 2 + M → Products",
        "score": 0.1134,
        "title_similarity": 0.1134,
        "query_year": null,
        "candidate_year": 2020,
        "year_bonus": 0.0,
        "author_bonus": 0.0,
        "venue_penalty": 0.0
      },
      {
        "paper_id": "f10b0f37826eeea6bca7624cd40b1793873fa3b9",
        "title": "Effect of supplementary feeding of fresh Azolla (Azolla pinnata) on the milk production and milk composition of lactating cows",
        "score": 0.1134,
        "title_similarity": 0.1134,
        "query_year": null,
        "candidate_year": 2024,
        "year_bonus": 0.0,
        "author_bonus": 0.0,
        "venue_penalty": 0.0
      },
      {
        "paper_id": "526b53ed5113dfc1a910f2309cf2fa4989b6dd84",
        "title": "Supplementary File of the TPDS Manuscript TPDS-2012-05-0447-R 1 : Challenges , Designs and Performances of Large-scale Open-P 2 SP Content Distribution",
        "score": 0.1088,
        "title_similarity": 0.1088,
        "query_year": null,
        "candidate_year": 2012,
        "year_bonus": 0.0,
        "author_bonus": 0.0,
        "venue_penalty": 0.0
      },
      {
        "paper_id": "ade6c9bc81b2b67aabf00f9189a3b041f7bdcc4a",
        "title": "Activation of UTP-sensitive P 2 Y 2 receptor induces the expression of cholinergic genes in cultured cortical neurons : A signaling cascade triggered by Ca 2 + mobilization and ERK phosphorylation",
        "score": 0.0,
        "title_similarity": 0.0,
        "query_year": null,
        "candidate_year": 2013,
        "year_bonus": 0.0,
        "author_bonus": 0.0,
        "venue_penalty": 0.0
      }
    ],
    "candidate_dois": [],
    "matching_extracted_doi": "",
    "raw_response": {
      "total": 1135,
      "offset": 0,
      "next": 10,
      "data": [
        {
          "paperId": "8c4113d907a52de5d0ab78b257656edc9320c751",
          "externalIds": {
            "CorpusId": 14355882
          },
          "url": "https://www.semanticscholar.org/paper/8c4113d907a52de5d0ab78b257656edc9320c751",
          "title": "Supplementary Figures and Tables",
          "venue": "",
          "year": null,
          "openAccessPdf": {
            "url": "",
            "status": null,
            "license": null
          },
          "publicationTypes": null,
          "publicationDate": null,
          "journal": null,
          "authors": [],
          "abstract": null
        },
        {
          "paperId": "a97543c8eea4fb274c3df991839e9961b58ceafb",
          "externalIds": {
            "CorpusId": 259300702
          },
          "url": "https://www.semanticscholar.org/paper/a97543c8eea4fb274c3df991839e9961b58ceafb",
          "title": "S 1 Supplementary Material for : Pressure and Temperature Dependences of Rate Coefficients for the Reaction OH + NO 2 + M → Products",
          "venue": "",
          "year": 2020,
          "openAccessPdf": {
            "url": "",
            "status": null,
            "license": null,
            "disclaimer": "Notice: The following paper fields have been elided by the publisher: {'abstract'}. Paper or abstract available at https://authors.library.caltech.edu/107014/3/jp0c08920_si_001.pdf, which is subject to the license by the author or copyright owner provided with this content. Please go to the source to verify the license and copyright information for your use."
          },
          "publicationTypes": null,
          "publicationDate": null,
          "journal": null,
          "authors": [
            {
              "authorId": "118465374",
              "name": "F. Winiberg"
            },
            {
              "authorId": "1651703520",
              "name": "K. Zuraski"
            },
            {
              "authorId": "2282761779",
              "name": "Yingdi Liu"
            },
            {
              "authorId": "31822464",
              "name": "S. Sander"
            },
            {
              "authorId": "4201508",
              "name": "C. Percival"
            }
          ],
          "abstract": null
        },
        {
          "paperId": "92f4be8a87cfd026821291576b8f95086f8c3ae5",
          "externalIds": {
            "CorpusId": 17632546
          },
          "url": "https://www.semanticscholar.org/paper/92f4be8a87cfd026821291576b8f95086f8c3ae5",
          "title": "Legends to Supplementary Figures and Tables",
          "venue": "",
          "year": null,
          "openAccessPdf": {
            "url": "",
            "status": null,
            "license": null
          },
          "publicationTypes": null,
          "publicationDate": null,
          "journal": null,
          "authors": [],
          "abstract": null
        },
        {
          "paperId": "526b53ed5113dfc1a910f2309cf2fa4989b6dd84",
          "externalIds": {
            "CorpusId": 9918905
          },
          "url": "https://www.semanticscholar.org/paper/526b53ed5113dfc1a910f2309cf2fa4989b6dd84",
          "title": "Supplementary File of the TPDS Manuscript TPDS-2012-05-0447-R 1 : Challenges , Designs and Performances of Large-scale Open-P 2 SP Content Distribution",
          "venue": "",
          "year": 2012,
          "openAccessPdf": {
            "url": "",
            "status": null,
            "license": null,
            "disclaimer": "Notice: The following paper fields have been elided by the publisher: {'abstract'}. Paper or abstract available at http://net.pku.edu.cn/~lzh/papers/TPDS'12supp.pdf, which is subject to the license by the author or copyright owner provided with this content. Please go to the source to verify the license and copyright information for your use."
          },
          "publicationTypes": null,
          "publicationDate": null,
          "journal": null,
          "authors": [
            {
              "authorId": "2109640909",
              "name": "Zhenhua Li"
            },
            {
              "authorId": "2151496359",
              "name": "Yan Huang"
            },
            {
              "authorId": "2146560851",
              "name": "Gang Liu"
            },
            {
              "authorId": "2115096844",
              "name": "Fuchen Wang"
            },
            {
              "authorId": "2051647248",
              "name": "Yunhao Liu"
            },
            {
              "authorId": "1708494",
              "name": "Zhi-Li Zhang"
            },
            {
              "authorId": "34889832",
              "name": "Yafei Dai"
            }
          ],
          "abstract": null
        },
        {
          "paperId": "aad91dbfca63c89a44d0f90da6f90b4d40a7dbd9",
          "externalIds": {
            "CorpusId": 10769319
          },
          "url": "https://www.semanticscholar.org/paper/aad91dbfca63c89a44d0f90da6f90b4d40a7dbd9",
          "title": "Correspondence Corrections and Supplementary Note to \" Information-theoretic Distortion Measures \" Interframe Differential Coding of Line Spectrum Frequencies",
          "venue": "",
          "year": null,
          "openAccessPdf": {
            "url": "",
            "status": null,
            "license": null,
            "disclaimer": "Notice: The following paper fields have been elided by the publisher: {'abstract'}. Paper or abstract available at http://repository.bilkent.edu.tr/bitstream/handle/11693/13623/10.1109-89.279286.pdf;jsessionid=2A5CC8C5B905922A34E5F73194D3126F?sequence=1, which is subject to the license by the author or copyright owner provided with this content. Please go to the source to verify the license and copyright information for your use."
          },
          "publicationTypes": null,
          "publicationDate": null,
          "journal": null,
          "authors": [
            {
              "authorId": "2109310053",
              "name": "Yi-Teh Lee"
            },
            {
              "authorId": "1749677",
              "name": "E. Erzin"
            },
            {
              "authorId": "144807321",
              "name": "A. Cetin"
            }
          ],
          "abstract": null
        },
        {
          "paperId": "d494ecbbafcc8b5acad547d953c9e1ec7f54c118",
          "externalIds": {
            "CorpusId": 260505287
          },
          "url": "https://www.semanticscholar.org/paper/d494ecbbafcc8b5acad547d953c9e1ec7f54c118",
          "title": "End-to-End Unsupervised Document Image Blind Denoising Supplementary Note",
          "venue": "",
          "year": 2021,
          "openAccessPdf": {
            "url": "",
            "status": null,
            "license": null,
            "disclaimer": "Notice: The following paper fields have been elided by the publisher: {'abstract'}. Paper or abstract available at https://openaccess.thecvf.com/content/ICCV2021/supplemental/Gangeh_End-to-End_Unsupervised_Document_ICCV_2021_supplemental.pdf, which is subject to the license by the author or copyright owner provided with this content. Please go to the source to verify the license and copyright information for your use."
          },
          "publicationTypes": null,
          "publicationDate": null,
          "journal": null,
          "authors": [
            {
              "authorId": "2042687",
              "name": "M. Gangeh"
            },
            {
              "authorId": "40501425",
              "name": "Marcin Plata"
            },
            {
              "authorId": "7191589",
              "name": "H. M. Nezhad"
            },
            {
              "authorId": "2071593553",
              "name": "Nigel P. Duffy"
            },
            {
              "authorId": "2288859877",
              "name": "J. PolandSpo"
            },
            {
              "authorId": "2288851911",
              "name": "Hamid Gangeh"
            },
            {
              "authorId": "2288859348",
              "name": "Nigel.P Motahari"
            },
            {
              "authorId": "119373230",
              "name": "Duffy"
            }
          ],
          "abstract": null
        },
        {
          "paperId": "f10b0f37826eeea6bca7624cd40b1793873fa3b9",
          "externalIds": {
            "DOI": "10.33545/26174693.2024.v8.i12sp.3314",
            "CorpusId": 275073382
          },
          "url": "https://www.semanticscholar.org/paper/f10b0f37826eeea6bca7624cd40b1793873fa3b9",
          "title": "Effect of supplementary feeding of fresh Azolla (Azolla pinnata) on the milk production and milk composition of lactating cows",
          "venue": "International Journal of Advanced Biochemistry Research",
          "year": 2024,
          "openAccessPdf": {
            "url": "https://doi.org/10.33545/26174693.2024.v8.i12sp.3314",
            "status": "GOLD",
            "license": null,
            "disclaimer": "Notice: Paper or abstract available at https://api.unpaywall.org/v2/10.33545/26174693.2024.v8.i12sp.3314?email=<INSERT_YOUR_EMAIL> or https://doi.org/10.33545/26174693.2024.v8.i12sp.3314, which is subject to the license by the author or copyright owner provided with this content. Please go to the source to verify the license and copyright information for your use."
          },
          "publicationTypes": [
            "JournalArticle"
          ],
          "publicationDate": "2024-01-01",
          "journal": {
            "name": "International Journal of Advanced Biochemistry Research"
          },
          "authors": [
            {
              "authorId": "2337417166",
              "name": "Neha M More"
            },
            {
              "authorId": "108552319",
              "name": "S. Chavan"
            },
            {
              "authorId": "2327882888",
              "name": "RR Shelke"
            },
            {
              "authorId": "2134775059",
              "name": "PA Kahate"
            },
            {
              "authorId": "66069525",
              "name": "S. Nage"
            }
          ],
          "abstract": "The present investigation entitled “Effect of Supplementary feeding of Fresh Azolla ( Azolla pinnata ) on the Milk Production and Milk Composition of lactating cows” was undertaken in the Department of Animal Husbandry and Dairy Science, Dr. P.D.K.V. Akola, Maharashtra. In present investigation was carried out with the main objective to effect of Azolla feeding on milk production and milk composition to standard methods of statistical analysis and presented in this chapter in the forms of tables, figures with the implications of the results to the impacts of Azolla feeding on milk yield and milk compositon in cows. For this purpose, 20 lactating cattle of were selected for study and randomly distributed into four groups. The control (T 1 ) group practice was fed, soyabean straw, Hybrid Napier (Grass) and concentrates whereas treatment (T 2 ) group was fed same quantity of roughage, concentrate along with 1 kg fresh Azolla/cattle/day, (T 3 ) group was fed same quantity of roughage, concentrate along with 1.5 kg fresh Azolla/cattle/day, (T 4 ) group was fed same quantity of roughage, concentrate along with 2 kg fresh Azolla/cattle/day, (T 5 ) group was fed same quantity of roughage, concentrate along with 2.5 kg fresh Azolla/cattle/day. The feeding trial lasted for four months. During trial daily milk yield of animal was recorded and found the milk yield was significantly higher in treatment group Also milk fat was significantly higher in treatment group."
        },
        {
          "paperId": "712be63d5ff9ed7ba1f1ec555f3ce4861043fbaa",
          "externalIds": {
            "CorpusId": 15446437
          },
          "url": "https://www.semanticscholar.org/paper/712be63d5ff9ed7ba1f1ec555f3ce4861043fbaa",
          "title": "GONG , COSKER : INTERACTIVE SHADOW REMOVAL AND GROUND TRUTH 1 Supplementary Materials",
          "venue": "",
          "year": 2014,
          "openAccessPdf": {
            "url": "",
            "status": null,
            "license": null,
            "disclaimer": "Notice: The following paper fields have been elided by the publisher: {'abstract'}. Paper or abstract available at http://www.cs.bath.ac.uk/~hg299/projects/shadowremoval_bmvc/bmvc_suppl_final.pdf, which is subject to the license by the author or copyright owner provided with this content. Please go to the source to verify the license and copyright information for your use."
          },
          "publicationTypes": null,
          "publicationDate": null,
          "journal": null,
          "authors": [
            {
              "authorId": "144787220",
              "name": "H. Gong"
            }
          ],
          "abstract": null
        },
        {
          "paperId": "ade6c9bc81b2b67aabf00f9189a3b041f7bdcc4a",
          "externalIds": {
            "CorpusId": 12935944
          },
          "url": "https://www.semanticscholar.org/paper/ade6c9bc81b2b67aabf00f9189a3b041f7bdcc4a",
          "title": "Activation of UTP-sensitive P 2 Y 2 receptor induces the expression of cholinergic genes in cultured cortical neurons : A signaling cascade triggered by Ca 2 + mobilization and ERK phosphorylation",
          "venue": "",
          "year": 2013,
          "openAccessPdf": {
            "url": "",
            "status": null,
            "license": null,
            "disclaimer": "Notice: The following paper fields have been elided by the publisher: {'abstract'}. Paper or abstract available at http://molpharm.aspetjournals.org/content/molpharm/early/2013/04/16/mol.112.084160.full.pdf, which is subject to the license by the author or copyright owner provided with this content. Please go to the source to verify the license and copyright information for your use."
          },
          "publicationTypes": null,
          "publicationDate": null,
          "journal": null,
          "authors": [
            {
              "authorId": "46619558",
              "name": "R. Choi"
            },
            {
              "authorId": "40456085",
              "name": "G. K. Chu"
            },
            {
              "authorId": "6955629",
              "name": "Nina L. Siow"
            },
            {
              "authorId": "48713814",
              "name": "Amanda W. Y. Yung"
            },
            {
              "authorId": "1717606",
              "name": "L. Yung"
            },
            {
              "authorId": "49741491",
              "name": "J. Simon"
            },
            {
              "authorId": "144846816",
              "name": "T. Dong"
            },
            {
              "authorId": "3867628",
              "name": "E. Barnard"
            },
            {
              "authorId": "33174367",
              "name": "K. Tsim"
            }
          ],
          "abstract": null
        },
        {
          "paperId": "90fa7c0039460757d4625b78350ed295b8758ee9",
          "externalIds": {
            "DOI": "10.1016/j.jevs.2023.104960",
            "CorpusId": 265008508,
            "PubMed": "37925112"
          },
          "url": "https://www.semanticscholar.org/paper/90fa7c0039460757d4625b78350ed295b8758ee9",
          "title": "Seasonal Absence of Supplementary Corpora Lutea in Pregnant Mares and The Relationship with Pregnancy Loss.",
          "venue": "Journal of Equine Veterinary Science",
          "year": 2023,
          "openAccessPdf": {
            "url": "https://doi.org/10.1016/j.jevs.2023.104960",
            "status": "HYBRID",
            "license": "CCBY",
            "disclaimer": "Notice: Paper or abstract available at https://api.unpaywall.org/v2/10.1016/j.jevs.2023.104960?email=<INSERT_YOUR_EMAIL> or https://doi.org/10.1016/j.jevs.2023.104960, which is subject to the license by the author or copyright owner provided with this content. Please go to the source to verify the license and copyright information for your use."
          },
          "publicationTypes": [
            "JournalArticle"
          ],
          "publicationDate": "2023-11-01",
          "journal": {
            "name": "Journal of equine veterinary science",
            "pages": "\n          104960\n        "
          },
          "authors": [
            {
              "authorId": "34922050",
              "name": "J. Newcombe"
            },
            {
              "authorId": "145397360",
              "name": "S. Wilsher"
            },
            {
              "authorId": "2221514233",
              "name": "Elisa S.M. Silva"
            },
            {
              "authorId": "2221582256",
              "name": "Laura Sala-Ayala"
            },
            {
              "authorId": "1397914088",
              "name": "J. Cuervo-Arango"
            }
          ],
          "abstract": "Two experiments were conducted in the Northern (UK) and Southern (Brazil) hemispheres to determine the effect of season (month of conception) on the development of supplementary CL (SCL) and the relationship with pregnancy loss. In experiment 1, 199 pregnancies were followed between Day 14 and term, to determine the number of SCL and pregnancy viability (Northern Hemisphere). From the 199 pregnancies, 178 were obtained from inseminations during the breeding season (March-September), while the rest, 21 pregnancies resulted from conceptions in the non-breeding season (October to February). Pregnancies conceived in the breeding season were more likely (P < 0.01) to have at least 1 SCL (75.8%, 135/178) than pregnancies from the non-breeding season (33%, 7/21). However, the pregnancy loss between Days 35 and 120 of pregnancy in mares with no SCL was similar (3.5%, 2/57; P >0.1) than from mares with SCL (1.4%, 2/142). In Experiment 2 (Southern Hemisphere), three groups of recipients were used based on their ovarian activity at the time of embryo transfer: Anestrus (n = 8), transitional (n = 7) and cyclic (n = 7) recipient mares. While all transitional and cyclic mares developed at least 1 SCL, only 50% of anestrous recipients (4/8) developed SCL by 120 of gestation. In conclusion, the development of SCL in pregnant mares is influenced by the time of season of conception, therefore it appears to be regulated by the photoperiod and the endogenous seasonal variation in gonadotropin concentrations. Mares with no SCL were not at increased risk of pregnancy loss."
        }
      ]
    }
  },
  "crossref": {
    "error": "",
    "metadata": null,
    "accepted_score": null,
    "accepted": false
  },
  "supplement_parent": {
    "paper_id": "sha256-759e2667b98ff0d7",
    "item_type": "article",
    "pdf_path": "articles/chromatin_and_gene_regulation/oudelaar_2022_NatCommun_cohesin_and_ctcf_effect_on_chromatin_topology_and_gene_expression.pdf",
    "pdf_sha256": "759e2667b98ff0d7d35abdbea88168dc237dc6d502ea74332901b25fa1b527ae",
    "filename": "oudelaar_2022_NatCommun_cohesin_and_ctcf_effect_on_chromatin_topology_and_gene_expression.pdf",
    "title_query": "cohesin and ctcf effect on chromatin topology and gene expression",
    "resolved_title": "Analysis of sub-kilobase chromatin topology reveals nano-scale regulatory interactions with variable dependence on cohesin and CTCF",
    "authors": "Abrar Aljahani, Peng Hua, Magdalena A. Karpinska, Kimberly Quililan, James O. J. Davies, A. Marieke Oudelaar",
    "year": "2022",
    "venue": "Nature Communications",
    "doi": "10.1038/s41467-022-29696-5",
    "semantic_scholar_paper_id": "ba654f2ec915f723137ae82b418e72eb3fbcf235",
    "match_confidence": "0.1147",
    "match_status": "matched_via_doi",
    "bibtex_key": "aljahani2022regulatory",
    "text_path": "paper_index/text/sha256-759e2667b98ff0d7.txt",
    "chunk_path": "paper_index/chunks/sha256-759e2667b98ff0d7.jsonl",
    "abstract_source": "semantic_scholar",
    "date_indexed": "2026-04-17T03:27:16.363736+00:00",
    "notes": "year_hint_mismatch:2022!=2019 | venue_hint_mismatch:naturecommunications!=biorxiv"
  },
  "artifacts": {
    "record_path": "/Users/brandani/Dropbox/documents/library/paper_index/records/sha256-ec1faeb966376b99.json",
    "text_path": "/Users/brandani/Dropbox/documents/library/paper_index/text/sha256-ec1faeb966376b99.txt",
    "chunk_path": "/Users/brandani/Dropbox/documents/library/paper_index/chunks/sha256-ec1faeb966376b99.jsonl",
    "master_index": "/Users/brandani/Dropbox/documents/library/paper_index/master_index.tsv",
    "master_bib": "/Users/brandani/Dropbox/documents/library/paper_index/master.bib",
    "text_kind": "pdf_text"
  },
  "text_extraction": {
    "status": "ok",
    "error": "",
    "text_sha256": "4acdc84b2b6e4f93ead664897e373e57e75a537d421b97abf575032bde93dc19",
    "chunk_count": 23,
    "chunk_target_chars": 2200,
    "chunk_overlap_chars": 250,
    "converter": "/Users/brandani/Dropbox/scripts/pdf2text.py"
  },
  "manual_supplement_note": "manual supplement linkage from filename and supplementary title page",
  "content_kind": "pdf_backed"
}
